A- current/Fpga implementation/16_bit/simulation/qsim/alumod.msim.vcd
$comment
	File created using the following command:
		vcd file alumod.msim.vcd -direction
$end
$date
	Tue Oct 11 13:51:41 2022
$end
$version
	ModelSim Version 2020.1
$end
$timescale
	1ps
$end

$scope module alumod_vlg_vec_tst $end
$var reg 16 ! AP [15:0] $end
$var reg 16 " BP [15:0] $end
$var reg 16 # FP [15:0] $end
$var reg 1 $ generala $end
$var reg 1 % generalb $end
$var reg 16 & opA [15:0] $end
$var reg 16 ' opB [15:0] $end
$var reg 1 ( sub $end
$var wire 1 ) fadder [15] $end
$var wire 1 * fadder [14] $end
$var wire 1 + fadder [13] $end
$var wire 1 , fadder [12] $end
$var wire 1 - fadder [11] $end
$var wire 1 . fadder [10] $end
$var wire 1 / fadder [9] $end
$var wire 1 0 fadder [8] $end
$var wire 1 1 fadder [7] $end
$var wire 1 2 fadder [6] $end
$var wire 1 3 fadder [5] $end
$var wire 1 4 fadder [4] $end
$var wire 1 5 fadder [3] $end
$var wire 1 6 fadder [2] $end
$var wire 1 7 fadder [1] $end
$var wire 1 8 fadder [0] $end
$var wire 1 9 falulogic [15] $end
$var wire 1 : falulogic [14] $end
$var wire 1 ; falulogic [13] $end
$var wire 1 < falulogic [12] $end
$var wire 1 = falulogic [11] $end
$var wire 1 > falulogic [10] $end
$var wire 1 ? falulogic [9] $end
$var wire 1 @ falulogic [8] $end
$var wire 1 A falulogic [7] $end
$var wire 1 B falulogic [6] $end
$var wire 1 C falulogic [5] $end
$var wire 1 D falulogic [4] $end
$var wire 1 E falulogic [3] $end
$var wire 1 F falulogic [2] $end
$var wire 1 G falulogic [1] $end
$var wire 1 H falulogic [0] $end
$var wire 1 I generalc $end
$var wire 1 J generald $end
$var wire 1 K overflow $end

$scope module i1 $end
$var wire 1 L gnd $end
$var wire 1 M vcc $end
$var wire 1 N unknown $end
$var tri1 1 O devclrn $end
$var tri1 1 P devpor $end
$var tri1 1 Q devoe $end
$var wire 1 R generalb~input_o $end
$var wire 1 S generala~input_o $end
$var wire 1 T ~QUARTUS_CREATED_GND~I_combout $end
$var wire 1 U sub~input_o $end
$var wire 1 V opB[14]~input_o $end
$var wire 1 W opB[15]~input_o $end
$var wire 1 X opA[15]~input_o $end
$var wire 1 Y opB[13]~input_o $end
$var wire 1 Z opA[13]~input_o $end
$var wire 1 [ opB[12]~input_o $end
$var wire 1 \ opA[12]~input_o $end
$var wire 1 ] inst5|inst24|inst1~0_combout $end
$var wire 1 ^ opA[14]~input_o $end
$var wire 1 _ inst5|inst26|inst1~0_combout $end
$var wire 1 ` inst5|inst26|inst7~combout $end
$var wire 1 a inst5|inst25|inst7~combout $end
$var wire 1 b inst5|inst24|inst7~combout $end
$var wire 1 c inst5|inst23|inst7~combout $end
$var wire 1 d opA[10]~input_o $end
$var wire 1 e opB[5]~input_o $end
$var wire 1 f opB[4]~input_o $end
$var wire 1 g opA[5]~input_o $end
$var wire 1 h opA[4]~input_o $end
$var wire 1 i inst5|inst7|inst1~0_combout $end
$var wire 1 j opB[6]~input_o $end
$var wire 1 k opA[7]~input_o $end
$var wire 1 l inst5|aersysrthsy~combout $end
$var wire 1 m opB[7]~input_o $end
$var wire 1 n opA[6]~input_o $end
$var wire 1 o inst5|thsrtjusfy~combout $end
$var wire 1 p inst5|inst9|inst1~0_combout $end
$var wire 1 q opA[8]~input_o $end
$var wire 1 r inst5|thstrhyjus~combout $end
$var wire 1 s opA[9]~input_o $end
$var wire 1 t inst5|sthstysrtu~combout $end
$var wire 1 u opB[9]~input_o $end
$var wire 1 v opB[8]~input_o $end
$var wire 1 w inst5|inst15|inst1~0_combout $end
$var wire 1 x opB[10]~input_o $end
$var wire 1 y opB[11]~input_o $end
$var wire 1 z opA[11]~input_o $end
$var wire 1 { inst5|inst17|inst7~0_combout $end
$var wire 1 | inst5|inst16|inst7~0_combout $end
$var wire 1 } inst5|inst16|inst7~combout $end
$var wire 1 ~ inst5|inst15|inst7~combout $end
$var wire 1 !! inst5|inst20|inst7~0_combout $end
$var wire 1 "! inst5|inst20|inst7~combout $end
$var wire 1 #! inst5|inst9|inst7~combout $end
$var wire 1 $! inst5|inst8|inst7~combout $end
$var wire 1 %! inst5|inst7|inst7~combout $end
$var wire 1 &! inst5|inst13|inst7~combout $end
$var wire 1 '! opB[2]~input_o $end
$var wire 1 (! opB[3]~input_o $end
$var wire 1 )! opA[1]~input_o $end
$var wire 1 *! opB[1]~input_o $end
$var wire 1 +! opB[0]~input_o $end
$var wire 1 ,! opA[0]~input_o $end
$var wire 1 -! inst5|inst2|inst1~0_combout $end
$var wire 1 .! opA[2]~input_o $end
$var wire 1 /! opA[3]~input_o $end
$var wire 1 0! inst5|inst4|inst7~0_combout $end
$var wire 1 1! inst5|inst3|inst7~combout $end
$var wire 1 2! inst5|inst2|inst7~combout $end
$var wire 1 3! inst5|inst|inst7~0_combout $end
$var wire 1 4! FP[15]~input_o $end
$var wire 1 5! BP[15]~input_o $end
$var wire 1 6! AP[15]~input_o $end
$var wire 1 7! FP[14]~input_o $end
$var wire 1 8! AP[14]~input_o $end
$var wire 1 9! BP[14]~input_o $end
$var wire 1 :! BP[13]~input_o $end
$var wire 1 ;! AP[13]~input_o $end
$var wire 1 <! FP[13]~input_o $end
$var wire 1 =! FP[12]~input_o $end
$var wire 1 >! BP[12]~input_o $end
$var wire 1 ?! AP[12]~input_o $end
$var wire 1 @! AP[11]~input_o $end
$var wire 1 A! BP[11]~input_o $end
$var wire 1 B! FP[11]~input_o $end
$var wire 1 C! FP[10]~input_o $end
$var wire 1 D! AP[10]~input_o $end
$var wire 1 E! BP[10]~input_o $end
$var wire 1 F! AP[9]~input_o $end
$var wire 1 G! FP[9]~input_o $end
$var wire 1 H! BP[9]~input_o $end
$var wire 1 I! AP[8]~input_o $end
$var wire 1 J! BP[8]~input_o $end
$var wire 1 K! FP[8]~input_o $end
$var wire 1 L! BP[7]~input_o $end
$var wire 1 M! AP[7]~input_o $end
$var wire 1 N! FP[7]~input_o $end
$var wire 1 O! FP[6]~input_o $end
$var wire 1 P! BP[6]~input_o $end
$var wire 1 Q! AP[6]~input_o $end
$var wire 1 R! FP[5]~input_o $end
$var wire 1 S! BP[5]~input_o $end
$var wire 1 T! AP[5]~input_o $end
$var wire 1 U! AP[4]~input_o $end
$var wire 1 V! BP[4]~input_o $end
$var wire 1 W! FP[4]~input_o $end
$var wire 1 X! FP[3]~input_o $end
$var wire 1 Y! BP[3]~input_o $end
$var wire 1 Z! AP[3]~input_o $end
$var wire 1 [! FP[2]~input_o $end
$var wire 1 \! BP[2]~input_o $end
$var wire 1 ]! AP[2]~input_o $end
$var wire 1 ^! BP[1]~input_o $end
$var wire 1 _! AP[1]~input_o $end
$var wire 1 `! FP[1]~input_o $end
$var wire 1 a! BP[0]~input_o $end
$var wire 1 b! AP[0]~input_o $end
$var wire 1 c! FP[0]~input_o $end
$var wire 1 d! inst|f [15] $end
$var wire 1 e! inst|f [14] $end
$var wire 1 f! inst|f [13] $end
$var wire 1 g! inst|f [12] $end
$var wire 1 h! inst|f [11] $end
$var wire 1 i! inst|f [10] $end
$var wire 1 j! inst|f [9] $end
$var wire 1 k! inst|f [8] $end
$var wire 1 l! inst|f [7] $end
$var wire 1 m! inst|f [6] $end
$var wire 1 n! inst|f [5] $end
$var wire 1 o! inst|f [4] $end
$var wire 1 p! inst|f [3] $end
$var wire 1 q! inst|f [2] $end
$var wire 1 r! inst|f [1] $end
$var wire 1 s! inst|f [0] $end
$upscope $end
$upscope $end
$enddefinitions $end
#0
$dumpvars
b1111111111111111 !
b1111111111111111 "
b1111111111111111 #
x$
x%
b0 &
b0 '
0(
08
07
06
05
14
13
12
11
10
1/
1.
1-
1,
1+
1*
1)
0H
0G
0F
0E
0D
0C
0B
0A
0@
0?
0>
0=
0<
0;
0:
09
0I
0J
1K
0L
1M
xN
1O
1P
1Q
xR
xS
0T
0U
0V
0W
0X
0Y
0Z
0[
0\
1]
0^
0_
0`
0a
0b
0c
0d
0e
0f
0g
0h
1i
0j
0k
0l
0m
0n
0o
1p
0q
0r
0s
0t
0u
0v
1w
0x
0y
0z
1{
0|
0}
0~
0!!
0"!
0#!
0$!
0%!
0&!
0'!
0(!
0)!
0*!
0+!
0,!
0-!
0.!
0/!
00!
11!
02!
03!
14!
15!
16!
17!
18!
19!
1:!
1;!
1<!
1=!
1>!
1?!
1@!
1A!
1B!
1C!
1D!
1E!
1F!
1G!
1H!
1I!
1J!
1K!
1L!
1M!
1N!
1O!
1P!
1Q!
1R!
1S!
1T!
1U!
1V!
1W!
1X!
1Y!
1Z!
1[!
1\!
1]!
1^!
1_!
1`!
1a!
1b!
1c!
0s!
0r!
0q!
0p!
0o!
0n!
0m!
0l!
0k!
0j!
0i!
0h!
0g!
0f!
0e!
0d!
$end
#10000
b1000000000000000 &
b1100000000000000 &
b1110000000000000 &
b1111000000000000 &
b1111100000000000 &
b1111110000000000 &
b1111111000000000 &
b1111111100000000 &
b1111111110000000 &
b1111111111000000 &
b1111111111100000 &
b1111111111110000 &
b1111111111111000 &
b1111111111111100 &
b1111111111111110 &
b1111111111111111 &
1,!
1)!
1.!
1/!
1h
1g
1n
1k
1q
1s
1d
1z
1\
1Z
1^
1X
1_
1a
0]
1c
1|
1t
1!!
1r
1l
1o
0i
1&!
01!
1d!
1e!
1f!
1g!
1h!
1i!
1j!
1k!
1l!
1m!
1n!
1o!
1p!
10!
1q!
1r!
12!
1s!
13!
18
1H
17
1G
1F
15
1E
1D
1C
1B
1A
1@
1?
1>
1=
1<
1;
1:
19
16
04
0,
0*
0K
0p
0w
0a
1*
#20000
b1000000000000000 '
b1100000000000000 '
b1110000000000000 '
b1111000000000000 '
b1111100000000000 '
b1111110000000000 '
b1111111000000000 '
b1111111100000000 '
b1111111110000000 '
b1111111111000000 '
b1111111111100000 '
b1111111111110000 '
b1111111111111000 '
b1111111111111100 '
b1111111111111110 '
b1111111111111111 '
b111111111111111 &
b11111111111111 &
b1111111111111 &
b111111111111 &
b11111111111 &
b1111111111 &
b111111111 &
b11111111 &
b1111111 &
b111111 &
b11111 &
b1111 &
b111 &
b11 &
b1 &
b0 &
0,!
0)!
0.!
0/!
0h
0g
0n
0k
0q
0s
0d
0z
0\
0Z
0^
0X
1+!
1*!
1'!
1(!
1f
1e
1j
1m
1v
1u
1x
1y
1[
1Y
1V
1W
1$!
0t
0r
0l
0o
02
0$!
12
#30000
b1000000000000000 &
b1100000000000000 &
b1110000000000000 &
b1111000000000000 &
b1111100000000000 &
b1111110000000000 &
b1111111000000000 &
b1111111100000000 &
b1111111110000000 &
b1111111111000000 &
b1111111111100000 &
b1111111111110000 &
b1111111111111000 &
b1111111111111100 &
b1111111111111110 &
b1111111111111111 &
1,!
1)!
1.!
1/!
1h
1g
1n
1k
1q
1s
1d
1z
1\
1Z
1^
1X
1a
1b
1]
0c
0|
1t
0!!
1r
1l
1o
1%!
1i
0&!
11!
03!
08
06
14
03
1,
0+
0*
1#!
1p
1}
0a
1`
0_
1K
0)
1*
0.
01
1~
0}
1w
1.
0/
0{
0-
#40000
b111111111111111 '
b11111111111111 '
b1111111111111 '
b111111111111 '
b11111111111 '
b1111111111 '
b111111111 '
b11111111 '
b1111111 '
b111111 '
b11111 '
b1111 '
b111 '
b11 '
b1 '
b0 '
b111111111111111 &
b11111111111111 &
b1111111111111 &
b111111111111 &
b11111111111 &
b1111111111 &
b111111111 &
b11111111 &
b1111111 &
b111111 &
b11111 &
b1111 &
b111 &
b11 &
b1 &
b0 &
0,!
0)!
0.!
0/!
0h
0g
0n
0k
0q
0s
0d
0z
0\
0Z
0^
0X
0+!
0*!
0'!
0(!
0f
0e
0j
0m
0v
0u
0x
0y
0[
0Y
0V
0W
0`
0b
0~
1}
0w
0#!
1"!
0p
1$!
0%!
0t
0r
0l
0o
0d!
0e!
0f!
0g!
0h!
1{
0i!
0j!
0k!
0l!
0m!
0n!
0o!
0p!
00!
0q!
0r!
02!
0s!
0H
07
0G
0F
05
0E
0D
0C
0B
0A
0@
0?
0>
1-
0=
0<
0;
0:
09
13
02
00
11
0.
1/
1+
1)
0$!
0"!
1p
1~
0{
0-
0/
10
12
0~
0}
1w
1.
1/
1{
1-
#50000
b1000000000000000 &
b1100000000000000 &
b1110000000000000 &
b1111000000000000 &
b1111100000000000 &
b1111110000000000 &
b1111111000000000 &
b1111111100000000 &
b1111111110000000 &
b1111111111000000 &
b1111111111100000 &
b1111111111110000 &
b1111111111111000 &
b1111111111111100 &
b1111111111111110 &
b1111111111111111 &
1,!
1)!
1.!
1/!
1h
1g
1n
1k
1q
1s
1d
1z
1\
1Z
1^
1X
1_
1a
0]
1c
1|
1t
1!!
1r
1l
1o
0i
1&!
01!
1d!
1e!
1f!
1g!
1h!
1i!
1j!
1k!
1l!
1m!
1n!
1o!
1p!
10!
1q!
1r!
12!
1s!
13!
18
1H
17
1G
1F
15
1E
1D
1C
1B
1A
1@
1?
1>
1=
1<
1;
1:
19
16
04
0,
0*
0K
0p
0w
0a
1*
#60000
b1000000000000000 '
b1100000000000000 '
b1110000000000000 '
b1111000000000000 '
b1111100000000000 '
b1111110000000000 '
b1111111000000000 '
b1111111100000000 '
b1111111110000000 '
b1111111111000000 '
b1111111111100000 '
b1111111111110000 '
b1111111111111000 '
b1111111111111100 '
b1111111111111110 '
b1111111111111111 '
b111111111111111 &
b11111111111111 &
b1111111111111 &
b111111111111 &
b11111111111 &
b1111111111 &
b111111111 &
b11111111 &
b1111111 &
b111111 &
b11111 &
b1111 &
b111 &
b11 &
b1 &
b0 &
0,!
0)!
0.!
0/!
0h
0g
0n
0k
0q
0s
0d
0z
0\
0Z
0^
0X
1+!
1*!
1'!
1(!
1f
1e
1j
1m
1v
1u
1x
1y
1[
1Y
1V
1W
1$!
0t
0r
0l
0o
02
0$!
12
#70000
b1000000000000000 &
b1100000000000000 &
b1110000000000000 &
b1111000000000000 &
b1111100000000000 &
b1111110000000000 &
b1111111000000000 &
b1111111100000000 &
b1111111110000000 &
b1111111111000000 &
b1111111111100000 &
b1111111111110000 &
b1111111111111000 &
b1111111111111100 &
b1111111111111110 &
b1111111111111111 &
1,!
1)!
1.!
1/!
1h
1g
1n
1k
1q
1s
1d
1z
1\
1Z
1^
1X
1a
1b
1]
0c
0|
1t
0!!
1r
1l
1o
1%!
1i
0&!
11!
03!
08
06
14
03
1,
0+
0*
1#!
1p
1}
0a
1`
0_
1K
0)
1*
0.
01
1~
0}
1w
1.
0/
0{
0-
#80000
b111111111111111 '
b11111111111111 '
b1111111111111 '
b111111111111 '
b11111111111 '
b1111111111 '
b111111111 '
b11111111 '
b1111111 '
b111111 '
b11111 '
b1111 '
b111 '
b11 '
b1 '
b0 '
b111111111111111 &
b11111111111111 &
b1111111111111 &
b111111111111 &
b11111111111 &
b1111111111 &
b111111111 &
b11111111 &
b1111111 &
b111111 &
b11111 &
b1111 &
b111 &
b11 &
b1 &
b0 &
0,!
0)!
0.!
0/!
0h
0g
0n
0k
0q
0s
0d
0z
0\
0Z
0^
0X
0+!
0*!
0'!
0(!
0f
0e
0j
0m
0v
0u
0x
0y
0[
0Y
0V
0W
0`
0b
0~
1}
0w
0#!
1"!
0p
1$!
0%!
0t
0r
0l
0o
0d!
0e!
0f!
0g!
0h!
1{
0i!
0j!
0k!
0l!
0m!
0n!
0o!
0p!
00!
0q!
0r!
02!
0s!
0H
07
0G
0F
05
0E
0D
0C
0B
0A
0@
0?
0>
1-
0=
0<
0;
0:
09
13
02
00
11
0.
1/
1+
1)
0$!
0"!
1p
1~
0{
0-
0/
10
12
0~
0}
1w
1.
1/
1{
1-
#90000
b1000000000000000 &
b1100000000000000 &
b1110000000000000 &
b1111000000000000 &
b1111100000000000 &
b1111110000000000 &
b1111111000000000 &
b1111111100000000 &
b1111111110000000 &
b1111111111000000 &
b1111111111100000 &
b1111111111110000 &
b1111111111111000 &
b1111111111111100 &
b1111111111111110 &
b1111111111111111 &
1,!
1)!
1.!
1/!
1h
1g
1n
1k
1q
1s
1d
1z
1\
1Z
1^
1X
1_
1a
0]
1c
1|
1t
1!!
1r
1l
1o
0i
1&!
01!
1d!
1e!
1f!
1g!
1h!
1i!
1j!
1k!
1l!
1m!
1n!
1o!
1p!
10!
1q!
1r!
12!
1s!
13!
18
1H
17
1G
1F
15
1E
1D
1C
1B
1A
1@
1?
1>
1=
1<
1;
1:
19
16
04
0,
0*
0K
0p
0w
0a
1*
#100000
b1000000000000000 '
b1100000000000000 '
b1110000000000000 '
b1111000000000000 '
b1111100000000000 '
b1111110000000000 '
b1111111000000000 '
b1111111100000000 '
b1111111110000000 '
b1111111111000000 '
b1111111111100000 '
b1111111111110000 '
b1111111111111000 '
b1111111111111100 '
b1111111111111110 '
b1111111111111111 '
b111111111111111 &
b11111111111111 &
b1111111111111 &
b111111111111 &
b11111111111 &
b1111111111 &
b111111111 &
b11111111 &
b1111111 &
b111111 &
b11111 &
b1111 &
b111 &
b11 &
b1 &
b0 &
0,!
0)!
0.!
0/!
0h
0g
0n
0k
0q
0s
0d
0z
0\
0Z
0^
0X
1+!
1*!
1'!
1(!
1f
1e
1j
1m
1v
1u
1x
1y
1[
1Y
1V
1W
1$!
0t
0r
0l
0o
02
0$!
12
#110000
b1000000000000000 &
b1100000000000000 &
b1110000000000000 &
b1111000000000000 &
b1111100000000000 &
b1111110000000000 &
b1111111000000000 &
b1111111100000000 &
b1111111110000000 &
b1111111111000000 &
b1111111111100000 &
b1111111111110000 &
b1111111111111000 &
b1111111111111100 &
b1111111111111110 &
b1111111111111111 &
1,!
1)!
1.!
1/!
1h
1g
1n
1k
1q
1s
1d
1z
1\
1Z
1^
1X
1a
1b
1]
0c
0|
1t
0!!
1r
1l
1o
1%!
1i
0&!
11!
03!
08
06
14
03
1,
0+
0*
1#!
1p
1}
0a
1`
0_
1K
0)
1*
0.
01
1~
0}
1w
1.
0/
0{
0-
#120000
b111111111111111 '
b11111111111111 '
b1111111111111 '
b111111111111 '
b11111111111 '
b1111111111 '
b111111111 '
b11111111 '
b1111111 '
b111111 '
b11111 '
b1111 '
b111 '
b11 '
b1 '
b0 '
b111111111111111 &
b11111111111111 &
b1111111111111 &
b111111111111 &
b11111111111 &
b1111111111 &
b111111111 &
b11111111 &
b1111111 &
b111111 &
b11111 &
b1111 &
b111 &
b11 &
b1 &
b0 &
0,!
0)!
0.!
0/!
0h
0g
0n
0k
0q
0s
0d
0z
0\
0Z
0^
0X
0+!
0*!
0'!
0(!
0f
0e
0j
0m
0v
0u
0x
0y
0[
0Y
0V
0W
0`
0b
0~
1}
0w
0#!
1"!
0p
1$!
0%!
0t
0r
0l
0o
0d!
0e!
0f!
0g!
0h!
1{
0i!
0j!
0k!
0l!
0m!
0n!
0o!
0p!
00!
0q!
0r!
02!
0s!
0H
07
0G
0F
05
0E
0D
0C
0B
0A
0@
0?
0>
1-
0=
0<
0;
0:
09
13
02
00
11
0.
1/
1+
1)
0$!
0"!
1p
1~
0{
0-
0/
10
12
0~
0}
1w
1.
1/
1{
1-
#130000
b1000000000000000 &
b1100000000000000 &
b1110000000000000 &
b1111000000000000 &
b1111100000000000 &
b1111110000000000 &
b1111111000000000 &
b1111111100000000 &
b1111111110000000 &
b1111111111000000 &
b1111111111100000 &
b1111111111110000 &
b1111111111111000 &
b1111111111111100 &
b1111111111111110 &
b1111111111111111 &
1,!
1)!
1.!
1/!
1h
1g
1n
1k
1q
1s
1d
1z
1\
1Z
1^
1X
1_
1a
0]
1c
1|
1t
1!!
1r
1l
1o
0i
1&!
01!
1d!
1e!
1f!
1g!
1h!
1i!
1j!
1k!
1l!
1m!
1n!
1o!
1p!
10!
1q!
1r!
12!
1s!
13!
18
1H
17
1G
1F
15
1E
1D
1C
1B
1A
1@
1?
1>
1=
1<
1;
1:
19
16
04
0,
0*
0K
0p
0w
0a
1*
#140000
b111111111111111 &
b11111111111111 &
b1111111111111 &
b111111111111 &
b11111111111 &
b1111111111 &
b111111111 &
b11111111 &
b1111111 &
b111111 &
b11111 &
b1111 &
b111 &
b11 &
b1 &
b0 &
0,!
0)!
0.!
0/!
0h
0g
0n
0k
0q
0s
0d
0z
0\
0Z
0^
0X
1`
1a
1]
0c
0|
0t
0!!
0r
0l
0o
1i
0&!
11!
0d!
0e!
0f!
0g!
0h!
0{
0i!
0j!
0k!
0l!
0m!
0n!
0o!
0p!
00!
0q!
0r!
02!
0s!
03!
08
0H
07
0G
0F
05
0E
0D
0C
0B
0A
0@
0?
0>
0-
0=
0<
0;
0:
09
06
14
1,
0*
0)
1p
1~
1}
0a
0`
0_
1K
1)
1*
0.
0/
0~
0}
1w
1.
1/
1{
1-
