A- current/Fpga implementation/Pre-fpga-delivery designs/alu/simulation/qsim/b16_or.msim.vcd
$comment
	File created using the following command:
		vcd file b16_or.msim.vcd -direction
$end
$date
	Sun Jun 05 12:28:16 2022
$end
$version
	ModelSim Version 10.5b
$end
$timescale
	1ps
$end

$scope module b16_or_vhd_vec_tst $end
$var wire 1 ! A [15] $end
$var wire 1 " A [14] $end
$var wire 1 # A [13] $end
$var wire 1 $ A [12] $end
$var wire 1 % A [11] $end
$var wire 1 & A [10] $end
$var wire 1 ' A [9] $end
$var wire 1 ( A [8] $end
$var wire 1 ) A [7] $end
$var wire 1 * A [6] $end
$var wire 1 + A [5] $end
$var wire 1 , A [4] $end
$var wire 1 - A [3] $end
$var wire 1 . A [2] $end
$var wire 1 / A [1] $end
$var wire 1 0 A [0] $end
$var wire 1 1 B [15] $end
$var wire 1 2 B [14] $end
$var wire 1 3 B [13] $end
$var wire 1 4 B [12] $end
$var wire 1 5 B [11] $end
$var wire 1 6 B [10] $end
$var wire 1 7 B [9] $end
$var wire 1 8 B [8] $end
$var wire 1 9 B [7] $end
$var wire 1 : B [6] $end
$var wire 1 ; B [5] $end
$var wire 1 < B [4] $end
$var wire 1 = B [3] $end
$var wire 1 > B [2] $end
$var wire 1 ? B [1] $end
$var wire 1 @ B [0] $end
$var wire 1 A F [15] $end
$var wire 1 B F [14] $end
$var wire 1 C F [13] $end
$var wire 1 D F [12] $end
$var wire 1 E F [11] $end
$var wire 1 F F [10] $end
$var wire 1 G F [9] $end
$var wire 1 H F [8] $end
$var wire 1 I F [7] $end
$var wire 1 J F [6] $end
$var wire 1 K F [5] $end
$var wire 1 L F [4] $end
$var wire 1 M F [3] $end
$var wire 1 N F [2] $end
$var wire 1 O F [1] $end
$var wire 1 P F [0] $end

$scope module i1 $end
$var wire 1 Q gnd $end
$var wire 1 R vcc $end
$var wire 1 S unknown $end
$var wire 1 T devoe $end
$var wire 1 U devclrn $end
$var wire 1 V devpor $end
$var wire 1 W ww_devoe $end
$var wire 1 X ww_devclrn $end
$var wire 1 Y ww_devpor $end
$var wire 1 Z ww_A [15] $end
$var wire 1 [ ww_A [14] $end
$var wire 1 \ ww_A [13] $end
$var wire 1 ] ww_A [12] $end
$var wire 1 ^ ww_A [11] $end
$var wire 1 _ ww_A [10] $end
$var wire 1 ` ww_A [9] $end
$var wire 1 a ww_A [8] $end
$var wire 1 b ww_A [7] $end
$var wire 1 c ww_A [6] $end
$var wire 1 d ww_A [5] $end
$var wire 1 e ww_A [4] $end
$var wire 1 f ww_A [3] $end
$var wire 1 g ww_A [2] $end
$var wire 1 h ww_A [1] $end
$var wire 1 i ww_A [0] $end
$var wire 1 j ww_B [15] $end
$var wire 1 k ww_B [14] $end
$var wire 1 l ww_B [13] $end
$var wire 1 m ww_B [12] $end
$var wire 1 n ww_B [11] $end
$var wire 1 o ww_B [10] $end
$var wire 1 p ww_B [9] $end
$var wire 1 q ww_B [8] $end
$var wire 1 r ww_B [7] $end
$var wire 1 s ww_B [6] $end
$var wire 1 t ww_B [5] $end
$var wire 1 u ww_B [4] $end
$var wire 1 v ww_B [3] $end
$var wire 1 w ww_B [2] $end
$var wire 1 x ww_B [1] $end
$var wire 1 y ww_B [0] $end
$var wire 1 z ww_F [15] $end
$var wire 1 { ww_F [14] $end
$var wire 1 | ww_F [13] $end
$var wire 1 } ww_F [12] $end
$var wire 1 ~ ww_F [11] $end
$var wire 1 !! ww_F [10] $end
$var wire 1 "! ww_F [9] $end
$var wire 1 #! ww_F [8] $end
$var wire 1 $! ww_F [7] $end
$var wire 1 %! ww_F [6] $end
$var wire 1 &! ww_F [5] $end
$var wire 1 '! ww_F [4] $end
$var wire 1 (! ww_F [3] $end
$var wire 1 )! ww_F [2] $end
$var wire 1 *! ww_F [1] $end
$var wire 1 +! ww_F [0] $end
$var wire 1 ,! \~QUARTUS_CREATED_GND~I_combout\ $end
$var wire 1 -! \A[0]~input_o\ $end
$var wire 1 .! \B[0]~input_o\ $end
$var wire 1 /! \F~0_combout\ $end
$var wire 1 0! \B[1]~input_o\ $end
$var wire 1 1! \A[1]~input_o\ $end
$var wire 1 2! \F~1_combout\ $end
$var wire 1 3! \A[2]~input_o\ $end
$var wire 1 4! \B[2]~input_o\ $end
$var wire 1 5! \F~2_combout\ $end
$var wire 1 6! \B[3]~input_o\ $end
$var wire 1 7! \A[3]~input_o\ $end
$var wire 1 8! \F~3_combout\ $end
$var wire 1 9! \A[4]~input_o\ $end
$var wire 1 :! \B[4]~input_o\ $end
$var wire 1 ;! \F~4_combout\ $end
$var wire 1 <! \B[5]~input_o\ $end
$var wire 1 =! \A[5]~input_o\ $end
$var wire 1 >! \F~5_combout\ $end
$var wire 1 ?! \A[6]~input_o\ $end
$var wire 1 @! \B[6]~input_o\ $end
$var wire 1 A! \F~6_combout\ $end
$var wire 1 B! \A[7]~input_o\ $end
$var wire 1 C! \B[7]~input_o\ $end
$var wire 1 D! \F~7_combout\ $end
$var wire 1 E! \B[8]~input_o\ $end
$var wire 1 F! \A[8]~input_o\ $end
$var wire 1 G! \F~8_combout\ $end
$var wire 1 H! \B[9]~input_o\ $end
$var wire 1 I! \A[9]~input_o\ $end
$var wire 1 J! \F~9_combout\ $end
$var wire 1 K! \A[10]~input_o\ $end
$var wire 1 L! \B[10]~input_o\ $end
$var wire 1 M! \F~10_combout\ $end
$var wire 1 N! \B[11]~input_o\ $end
$var wire 1 O! \A[11]~input_o\ $end
$var wire 1 P! \F~11_combout\ $end
$var wire 1 Q! \B[12]~input_o\ $end
$var wire 1 R! \A[12]~input_o\ $end
$var wire 1 S! \F~12_combout\ $end
$var wire 1 T! \A[13]~input_o\ $end
$var wire 1 U! \B[13]~input_o\ $end
$var wire 1 V! \F~13_combout\ $end
$var wire 1 W! \A[14]~input_o\ $end
$var wire 1 X! \B[14]~input_o\ $end
$var wire 1 Y! \F~14_combout\ $end
$var wire 1 Z! \B[15]~input_o\ $end
$var wire 1 [! \A[15]~input_o\ $end
$var wire 1 \! \F~15_combout\ $end
$var wire 1 ]! \ALT_INV_B[15]~input_o\ $end
$var wire 1 ^! \ALT_INV_A[15]~input_o\ $end
$var wire 1 _! \ALT_INV_B[14]~input_o\ $end
$var wire 1 `! \ALT_INV_A[14]~input_o\ $end
$var wire 1 a! \ALT_INV_B[13]~input_o\ $end
$var wire 1 b! \ALT_INV_A[13]~input_o\ $end
$var wire 1 c! \ALT_INV_B[12]~input_o\ $end
$var wire 1 d! \ALT_INV_A[12]~input_o\ $end
$var wire 1 e! \ALT_INV_B[11]~input_o\ $end
$var wire 1 f! \ALT_INV_A[11]~input_o\ $end
$var wire 1 g! \ALT_INV_B[10]~input_o\ $end
$var wire 1 h! \ALT_INV_A[10]~input_o\ $end
$var wire 1 i! \ALT_INV_B[9]~input_o\ $end
$var wire 1 j! \ALT_INV_A[9]~input_o\ $end
$var wire 1 k! \ALT_INV_B[8]~input_o\ $end
$var wire 1 l! \ALT_INV_A[8]~input_o\ $end
$var wire 1 m! \ALT_INV_B[7]~input_o\ $end
$var wire 1 n! \ALT_INV_A[7]~input_o\ $end
$var wire 1 o! \ALT_INV_B[6]~input_o\ $end
$var wire 1 p! \ALT_INV_A[6]~input_o\ $end
$var wire 1 q! \ALT_INV_B[5]~input_o\ $end
$var wire 1 r! \ALT_INV_A[5]~input_o\ $end
$var wire 1 s! \ALT_INV_B[4]~input_o\ $end
$var wire 1 t! \ALT_INV_A[4]~input_o\ $end
$var wire 1 u! \ALT_INV_B[3]~input_o\ $end
$var wire 1 v! \ALT_INV_A[3]~input_o\ $end
$var wire 1 w! \ALT_INV_B[2]~input_o\ $end
$var wire 1 x! \ALT_INV_A[2]~input_o\ $end
$var wire 1 y! \ALT_INV_B[1]~input_o\ $end
$var wire 1 z! \ALT_INV_A[1]~input_o\ $end
$var wire 1 {! \ALT_INV_B[0]~input_o\ $end
$var wire 1 |! \ALT_INV_A[0]~input_o\ $end
$upscope $end
$upscope $end
$enddefinitions $end
#0
$dumpvars
0Q
1R
xS
1T
1U
1V
1W
1X
1Y
x,!
0-!
0.!
0/!
00!
01!
02!
03!
04!
05!
06!
07!
08!
09!
0:!
0;!
0<!
0=!
0>!
0?!
0@!
0A!
0B!
0C!
0D!
0E!
0F!
0G!
0H!
0I!
0J!
0K!
0L!
0M!
0N!
0O!
0P!
0Q!
0R!
0S!
0T!
0U!
0V!
0W!
0X!
0Y!
0Z!
0[!
0\!
1]!
1^!
1_!
1`!
1a!
1b!
1c!
1d!
1e!
1f!
1g!
1h!
1i!
1j!
1k!
1l!
1m!
1n!
1o!
1p!
1q!
1r!
1s!
1t!
1u!
1v!
1w!
1x!
1y!
1z!
1{!
1|!
0!
0"
0#
0$
0%
0&
0'
0(
0)
0*
0+
0,
0-
0.
0/
00
01
02
03
04
05
06
07
08
09
0:
0;
0<
0=
0>
0?
0@
0Z
0[
0\
0]
0^
0_
0`
0a
0b
0c
0d
0e
0f
0g
0h
0i
0j
0k
0l
0m
0n
0o
0p
0q
0r
0s
0t
0u
0v
0w
0x
0y
0z
0{
0|
0}
0~
0!!
0"!
0#!
0$!
0%!
0&!
0'!
0(!
0)!
0*!
0+!
0A
0B
0C
0D
0E
0F
0G
0H
0I
0J
0K
0L
0M
0N
0O
0P
$end
#5000
1!
1"
1#
1$
1%
1&
1'
1(
1)
1*
1+
1,
1-
1.
1/
10
1i
1h
1g
1f
1e
1d
1c
1b
1a
1`
1_
1^
1]
1\
1[
1Z
1[!
1W!
1T!
1R!
1O!
1K!
1I!
1F!
1B!
1?!
1=!
19!
17!
13!
11!
1-!
0|!
0z!
0x!
0v!
0t!
0r!
0p!
0n!
0l!
0j!
0h!
0f!
0d!
0b!
0`!
0^!
1\!
1Y!
1V!
1S!
1P!
1M!
1J!
1G!
1D!
1A!
1>!
1;!
18!
15!
12!
1/!
1+!
1*!
1)!
1(!
1'!
1&!
1%!
1$!
1#!
1"!
1!!
1~
1}
1|
1{
1z
1P
1O
1N
1M
1L
1K
1J
1I
1H
1G
1F
1E
1D
1C
1B
1A
#10000
0!
0"
0#
0$
0%
0&
0'
0(
0)
0*
0+
0,
0-
0.
0/
00
11
12
13
14
15
16
17
18
19
1:
1;
1<
1=
1>
1?
1@
0i
0h
0g
0f
0e
0d
0c
0b
0a
0`
0_
0^
0]
0\
0[
0Z
1y
1x
1w
1v
1u
1t
1s
1r
1q
1p
1o
1n
1m
1l
1k
1j
1Z!
1X!
1U!
1Q!
1N!
1L!
1H!
1E!
1C!
1@!
1<!
1:!
16!
14!
10!
1.!
0[!
0W!
0T!
0R!
0O!
0K!
0I!
0F!
0B!
0?!
0=!
09!
07!
03!
01!
0-!
1|!
1z!
1x!
1v!
1t!
1r!
1p!
1n!
1l!
1j!
1h!
1f!
1d!
1b!
1`!
1^!
0{!
0y!
0w!
0u!
0s!
0q!
0o!
0m!
0k!
0i!
0g!
0e!
0c!
0a!
0_!
0]!
#15000
1!
1"
1#
1$
1%
1&
1'
1(
1)
1*
1+
1,
1-
1.
1/
10
1i
1h
1g
1f
1e
1d
1c
1b
1a
1`
1_
1^
1]
1\
1[
1Z
1[!
1W!
1T!
1R!
1O!
1K!
1I!
1F!
1B!
1?!
1=!
19!
17!
13!
11!
1-!
0|!
0z!
0x!
0v!
0t!
0r!
0p!
0n!
0l!
0j!
0h!
0f!
0d!
0b!
0`!
0^!
#20000
0!
0"
0#
0$
0%
0&
0'
0(
0)
0*
0+
0,
0-
0.
0/
00
01
02
03
04
05
06
07
08
09
0:
0;
0<
0=
0>
0?
0@
0i
0h
0g
0f
0e
0d
0c
0b
0a
0`
0_
0^
0]
0\
0[
0Z
0y
0x
0w
0v
0u
0t
0s
0r
0q
0p
0o
0n
0m
0l
0k
0j
0Z!
0X!
0U!
0Q!
0N!
0L!
0H!
0E!
0C!
0@!
0<!
0:!
06!
04!
00!
0.!
0[!
0W!
0T!
0R!
0O!
0K!
0I!
0F!
0B!
0?!
0=!
09!
07!
03!
01!
0-!
1|!
1z!
1x!
1v!
1t!
1r!
1p!
1n!
1l!
1j!
1h!
1f!
1d!
1b!
1`!
1^!
1{!
1y!
1w!
1u!
1s!
1q!
1o!
1m!
1k!
1i!
1g!
1e!
1c!
1a!
1_!
1]!
0\!
0Y!
0V!
0S!
0P!
0M!
0J!
0G!
0D!
0A!
0>!
0;!
08!
05!
02!
0/!
0+!
0*!
0)!
0(!
0'!
0&!
0%!
0$!
0#!
0"!
0!!
0~
0}
0|
0{
0z
0P
0O
0N
0M
0L
0K
0J
0I
0H
0G
0F
0E
0D
0C
0B
0A
#25000
1!
1"
1#
1$
1%
1&
1'
1(
1)
1*
1+
1,
1-
1.
1/
10
1i
1h
1g
1f
1e
1d
1c
1b
1a
1`
1_
1^
1]
1\
1[
1Z
1[!
1W!
1T!
1R!
1O!
1K!
1I!
1F!
1B!
1?!
1=!
19!
17!
13!
11!
1-!
0|!
0z!
0x!
0v!
0t!
0r!
0p!
0n!
0l!
0j!
0h!
0f!
0d!
0b!
0`!
0^!
1\!
1Y!
1V!
1S!
1P!
1M!
1J!
1G!
1D!
1A!
1>!
1;!
18!
15!
12!
1/!
1+!
1*!
1)!
1(!
1'!
1&!
1%!
1$!
1#!
1"!
1!!
1~
1}
1|
1{
1z
1P
1O
1N
1M
1L
1K
1J
1I
1H
1G
1F
1E
1D
1C
1B
1A
#30000
0!
0"
0#
0$
0%
0&
0'
0(
0)
0*
0+
0,
0-
0.
0/
00
11
12
13
14
15
16
17
18
19
1:
1;
1<
1=
1>
1?
1@
0i
0h
0g
0f
0e
0d
0c
0b
0a
0`
0_
0^
0]
0\
0[
0Z
1y
1x
1w
1v
1u
1t
1s
1r
1q
1p
1o
1n
1m
1l
1k
1j
1Z!
1X!
1U!
1Q!
1N!
1L!
1H!
1E!
1C!
1@!
1<!
1:!
16!
14!
10!
1.!
0[!
0W!
0T!
0R!
0O!
0K!
0I!
0F!
0B!
0?!
0=!
09!
07!
03!
01!
0-!
1|!
1z!
1x!
1v!
1t!
1r!
1p!
1n!
1l!
1j!
1h!
1f!
1d!
1b!
1`!
1^!
0{!
0y!
0w!
0u!
0s!
0q!
0o!
0m!
0k!
0i!
0g!
0e!
0c!
0a!
0_!
0]!
#35000
1!
1"
1#
1$
1%
1&
1'
1(
1)
1*
1+
1,
1-
1.
1/
10
1i
1h
1g
1f
1e
1d
1c
1b
1a
1`
1_
1^
1]
1\
1[
1Z
1[!
1W!
1T!
1R!
1O!
1K!
1I!
1F!
1B!
1?!
1=!
19!
17!
13!
11!
1-!
0|!
0z!
0x!
0v!
0t!
0r!
0p!
0n!
0l!
0j!
0h!
0f!
0d!
0b!
0`!
0^!
#40000
0!
0"
0#
0$
0%
0&
0'
0(
0)
0*
0+
0,
0-
0.
0/
00
01
02
03
04
05
06
07
08
09
0:
0;
0<
0=
0>
0?
0@
0i
0h
0g
0f
0e
0d
0c
0b
0a
0`
0_
0^
0]
0\
0[
0Z
0y
0x
0w
0v
0u
0t
0s
0r
0q
0p
0o
0n
0m
0l
0k
0j
0Z!
0X!
0U!
0Q!
0N!
0L!
0H!
0E!
0C!
0@!
0<!
0:!
06!
04!
00!
0.!
0[!
0W!
0T!
0R!
0O!
0K!
0I!
0F!
0B!
0?!
0=!
09!
07!
03!
01!
0-!
1|!
1z!
1x!
1v!
1t!
1r!
1p!
1n!
1l!
1j!
1h!
1f!
1d!
1b!
1`!
1^!
1{!
1y!
1w!
1u!
1s!
1q!
1o!
1m!
1k!
1i!
1g!
1e!
1c!
1a!
1_!
1]!
0\!
0Y!
0V!
0S!
0P!
0M!
0J!
0G!
0D!
0A!
0>!
0;!
08!
05!
02!
0/!
0+!
0*!
0)!
0(!
0'!
0&!
0%!
0$!
0#!
0"!
0!!
0~
0}
0|
0{
0z
0P
0O
0N
0M
0L
0K
0J
0I
0H
0G
0F
0E
0D
0C
0B
0A
#45000
1!
1"
1#
1$
1%
1&
1'
1(
1)
1*
1+
1,
1-
1.
1/
10
1i
1h
1g
1f
1e
1d
1c
1b
1a
1`
1_
1^
1]
1\
1[
1Z
1[!
1W!
1T!
1R!
1O!
1K!
1I!
1F!
1B!
1?!
1=!
19!
17!
13!
11!
1-!
0|!
0z!
0x!
0v!
0t!
0r!
0p!
0n!
0l!
0j!
0h!
0f!
0d!
0b!
0`!
0^!
1\!
1Y!
1V!
1S!
1P!
1M!
1J!
1G!
1D!
1A!
1>!
1;!
18!
15!
12!
1/!
1+!
1*!
1)!
1(!
1'!
1&!
1%!
1$!
1#!
1"!
1!!
1~
1}
1|
1{
1z
1P
1O
1N
1M
1L
1K
1J
1I
1H
1G
1F
1E
1D
1C
1B
1A
#50000
0!
0"
0#
0$
0%
0&
0'
0(
0)
0*
0+
0,
0-
0.
0/
00
11
12
13
14
15
16
17
18
19
1:
1;
1<
1=
1>
1?
1@
0i
0h
0g
0f
0e
0d
0c
0b
0a
0`
0_
0^
0]
0\
0[
0Z
1y
1x
1w
1v
1u
1t
1s
1r
1q
1p
1o
1n
1m
1l
1k
1j
1Z!
1X!
1U!
1Q!
1N!
1L!
1H!
1E!
1C!
1@!
1<!
1:!
16!
14!
10!
1.!
0[!
0W!
0T!
0R!
0O!
0K!
0I!
0F!
0B!
0?!
0=!
09!
07!
03!
01!
0-!
1|!
1z!
1x!
1v!
1t!
1r!
1p!
1n!
1l!
1j!
1h!
1f!
1d!
1b!
1`!
1^!
0{!
0y!
0w!
0u!
0s!
0q!
0o!
0m!
0k!
0i!
0g!
0e!
0c!
0a!
0_!
0]!
#55000
1!
1"
1#
1$
1%
1&
1'
1(
1)
1*
1+
1,
1-
1.
1/
10
1i
1h
1g
1f
1e
1d
1c
1b
1a
1`
1_
1^
1]
1\
1[
1Z
1[!
1W!
1T!
1R!
1O!
1K!
1I!
1F!
1B!
1?!
1=!
19!
17!
13!
11!
1-!
0|!
0z!
0x!
0v!
0t!
0r!
0p!
0n!
0l!
0j!
0h!
0f!
0d!
0b!
0`!
0^!
#60000
0!
0"
0#
0$
0%
0&
0'
0(
0)
0*
0+
0,
0-
0.
0/
00
01
02
03
04
05
06
07
08
09
0:
0;
0<
0=
0>
0?
0@
0i
0h
0g
0f
0e
0d
0c
0b
0a
0`
0_
0^
0]
0\
0[
0Z
0y
0x
0w
0v
0u
0t
0s
0r
0q
0p
0o
0n
0m
0l
0k
0j
0Z!
0X!
0U!
0Q!
0N!
0L!
0H!
0E!
0C!
0@!
0<!
0:!
06!
04!
00!
0.!
0[!
0W!
0T!
0R!
0O!
0K!
0I!
0F!
0B!
0?!
0=!
09!
07!
03!
01!
0-!
1|!
1z!
1x!
1v!
1t!
1r!
1p!
1n!
1l!
1j!
1h!
1f!
1d!
1b!
1`!
1^!
1{!
1y!
1w!
1u!
1s!
1q!
1o!
1m!
1k!
1i!
1g!
1e!
1c!
1a!
1_!
1]!
0\!
0Y!
0V!
0S!
0P!
0M!
0J!
0G!
0D!
0A!
0>!
0;!
08!
05!
02!
0/!
0+!
0*!
0)!
0(!
0'!
0&!
0%!
0$!
0#!
0"!
0!!
0~
0}
0|
0{
0z
0P
0O
0N
0M
0L
0K
0J
0I
0H
0G
0F
0E
0D
0C
0B
0A
#65000
1!
1"
1#
1$
1%
1&
1'
1(
1)
1*
1+
1,
1-
1.
1/
10
1i
1h
1g
1f
1e
1d
1c
1b
1a
1`
1_
1^
1]
1\
1[
1Z
1[!
1W!
1T!
1R!
1O!
1K!
1I!
1F!
1B!
1?!
1=!
19!
17!
13!
11!
1-!
0|!
0z!
0x!
0v!
0t!
0r!
0p!
0n!
0l!
0j!
0h!
0f!
0d!
0b!
0`!
0^!
1\!
1Y!
1V!
1S!
1P!
1M!
1J!
1G!
1D!
1A!
1>!
1;!
18!
15!
12!
1/!
1+!
1*!
1)!
1(!
1'!
1&!
1%!
1$!
1#!
1"!
1!!
1~
1}
1|
1{
1z
1P
1O
1N
1M
1L
1K
1J
1I
1H
1G
1F
1E
1D
1C
1B
1A
#70000
0!
0"
0#
0$
0%
0&
0'
0(
0)
0*
0+
0,
0-
0.
0/
00
11
12
13
14
15
16
17
18
19
1:
1;
1<
1=
1>
1?
1@
0i
0h
0g
0f
0e
0d
0c
0b
0a
0`
0_
0^
0]
0\
0[
0Z
1y
1x
1w
1v
1u
1t
1s
1r
1q
1p
1o
1n
1m
1l
1k
1j
1Z!
1X!
1U!
1Q!
1N!
1L!
1H!
1E!
1C!
1@!
1<!
1:!
16!
14!
10!
1.!
0[!
0W!
0T!
0R!
0O!
0K!
0I!
0F!
0B!
0?!
0=!
09!
07!
03!
01!
0-!
1|!
1z!
1x!
1v!
1t!
1r!
1p!
1n!
1l!
1j!
1h!
1f!
1d!
1b!
1`!
1^!
0{!
0y!
0w!
0u!
0s!
0q!
0o!
0m!
0k!
0i!
0g!
0e!
0c!
0a!
0_!
0]!
#75000
1!
1"
1#
1$
1%
1&
1'
1(
1)
1*
1+
1,
1-
1.
1/
10
1i
1h
1g
1f
1e
1d
1c
1b
1a
1`
1_
1^
1]
1\
1[
1Z
1[!
1W!
1T!
1R!
1O!
1K!
1I!
1F!
1B!
1?!
1=!
19!
17!
13!
11!
1-!
0|!
0z!
0x!
0v!
0t!
0r!
0p!
0n!
0l!
0j!
0h!
0f!
0d!
0b!
0`!
0^!
#80000
0!
0"
0#
0$
0%
0&
0'
0(
0)
0*
0+
0,
0-
0.
0/
00
01
02
03
04
05
06
07
08
09
0:
0;
0<
0=
0>
0?
0@
0i
0h
0g
0f
0e
0d
0c
0b
0a
0`
0_
0^
0]
0\
0[
0Z
0y
0x
0w
0v
0u
0t
0s
0r
0q
0p
0o
0n
0m
0l
0k
0j
0Z!
0X!
0U!
0Q!
0N!
0L!
0H!
0E!
0C!
0@!
0<!
0:!
06!
04!
00!
0.!
0[!
0W!
0T!
0R!
0O!
0K!
0I!
0F!
0B!
0?!
0=!
09!
07!
03!
01!
0-!
1|!
1z!
1x!
1v!
1t!
1r!
1p!
1n!
1l!
1j!
1h!
1f!
1d!
1b!
1`!
1^!
1{!
1y!
1w!
1u!
1s!
1q!
1o!
1m!
1k!
1i!
1g!
1e!
1c!
1a!
1_!
1]!
0\!
0Y!
0V!
0S!
0P!
0M!
0J!
0G!
0D!
0A!
0>!
0;!
08!
05!
02!
0/!
0+!
0*!
0)!
0(!
0'!
0&!
0%!
0$!
0#!
0"!
0!!
0~
0}
0|
0{
0z
0P
0O
0N
0M
0L
0K
0J
0I
0H
0G
0F
0E
0D
0C
0B
0A
#85000
1!
1"
1#
1$
1%
1&
1'
1(
1)
1*
1+
1,
1-
1.
1/
10
1i
1h
1g
1f
1e
1d
1c
1b
1a
1`
1_
1^
1]
1\
1[
1Z
1[!
1W!
1T!
1R!
1O!
1K!
1I!
1F!
1B!
1?!
1=!
19!
17!
13!
11!
1-!
0|!
0z!
0x!
0v!
0t!
0r!
0p!
0n!
0l!
0j!
0h!
0f!
0d!
0b!
0`!
0^!
1\!
1Y!
1V!
1S!
1P!
1M!
1J!
1G!
1D!
1A!
1>!
1;!
18!
15!
12!
1/!
1+!
1*!
1)!
1(!
1'!
1&!
1%!
1$!
1#!
1"!
1!!
1~
1}
1|
1{
1z
1P
1O
1N
1M
1L
1K
1J
1I
1H
1G
1F
1E
1D
1C
1B
1A
#90000
0!
0"
0#
0$
0%
0&
0'
0(
0)
0*
0+
0,
0-
0.
0/
00
11
12
13
14
15
16
17
18
19
1:
1;
1<
1=
1>
1?
1@
0i
0h
0g
0f
0e
0d
0c
0b
0a
0`
0_
0^
0]
0\
0[
0Z
1y
1x
1w
1v
1u
1t
1s
1r
1q
1p
1o
1n
1m
1l
1k
1j
1Z!
1X!
1U!
1Q!
1N!
1L!
1H!
1E!
1C!
1@!
1<!
1:!
16!
14!
10!
1.!
0[!
0W!
0T!
0R!
0O!
0K!
0I!
0F!
0B!
0?!
0=!
09!
07!
03!
01!
0-!
1|!
1z!
1x!
1v!
1t!
1r!
1p!
1n!
1l!
1j!
1h!
1f!
1d!
1b!
1`!
1^!
0{!
0y!
0w!
0u!
0s!
0q!
0o!
0m!
0k!
0i!
0g!
0e!
0c!
0a!
0_!
0]!
#95000
1!
1"
1#
1$
1%
1&
1'
1(
1)
1*
1+
1,
1-
1.
1/
10
1i
1h
1g
1f
1e
1d
1c
1b
1a
1`
1_
1^
1]
1\
1[
1Z
1[!
1W!
1T!
1R!
1O!
1K!
1I!
1F!
1B!
1?!
1=!
19!
17!
13!
11!
1-!
0|!
0z!
0x!
0v!
0t!
0r!
0p!
0n!
0l!
0j!
0h!
0f!
0d!
0b!
0`!
0^!
#100000
0!
0"
0#
0$
0%
0&
0'
0(
0)
0*
0+
0,
0-
0.
0/
00
01
02
03
04
05
06
07
08
09
0:
0;
0<
0=
0>
0?
0@
0i
0h
0g
0f
0e
0d
0c
0b
0a
0`
0_
0^
0]
0\
0[
0Z
0y
0x
0w
0v
0u
0t
0s
0r
0q
0p
0o
0n
0m
0l
0k
0j
0Z!
0X!
0U!
0Q!
0N!
0L!
0H!
0E!
0C!
0@!
0<!
0:!
06!
04!
00!
0.!
0[!
0W!
0T!
0R!
0O!
0K!
0I!
0F!
0B!
0?!
0=!
09!
07!
03!
01!
0-!
1|!
1z!
1x!
1v!
1t!
1r!
1p!
1n!
1l!
1j!
1h!
1f!
1d!
1b!
1`!
1^!
1{!
1y!
1w!
1u!
1s!
1q!
1o!
1m!
1k!
1i!
1g!
1e!
1c!
1a!
1_!
1]!
0\!
0Y!
0V!
0S!
0P!
0M!
0J!
0G!
0D!
0A!
0>!
0;!
08!
05!
02!
0/!
0+!
0*!
0)!
0(!
0'!
0&!
0%!
0$!
0#!
0"!
0!!
0~
0}
0|
0{
0z
0P
0O
0N
0M
0L
0K
0J
0I
0H
0G
0F
0E
0D
0C
0B
0A
#105000
1!
1"
1#
1$
1%
1&
1'
1(
1)
1*
1+
1,
1-
1.
1/
10
1i
1h
1g
1f
1e
1d
1c
1b
1a
1`
1_
1^
1]
1\
1[
1Z
1[!
1W!
1T!
1R!
1O!
1K!
1I!
1F!
1B!
1?!
1=!
19!
17!
13!
11!
1-!
0|!
0z!
0x!
0v!
0t!
0r!
0p!
0n!
0l!
0j!
0h!
0f!
0d!
0b!
0`!
0^!
1\!
1Y!
1V!
1S!
1P!
1M!
1J!
1G!
1D!
1A!
1>!
1;!
18!
15!
12!
1/!
1+!
1*!
1)!
1(!
1'!
1&!
1%!
1$!
1#!
1"!
1!!
1~
1}
1|
1{
1z
1P
1O
1N
1M
1L
1K
1J
1I
1H
1G
1F
1E
1D
1C
1B
1A
#110000
0!
0"
0#
0$
0%
0&
0'
0(
0)
0*
0+
0,
0-
0.
0/
00
11
12
13
14
15
16
17
18
19
1:
1;
1<
1=
1>
1?
1@
0i
0h
0g
0f
0e
0d
0c
0b
0a
0`
0_
0^
0]
0\
0[
0Z
1y
1x
1w
1v
1u
1t
1s
1r
1q
1p
1o
1n
1m
1l
1k
1j
1Z!
1X!
1U!
1Q!
1N!
1L!
1H!
1E!
1C!
1@!
1<!
1:!
16!
14!
10!
1.!
0[!
0W!
0T!
0R!
0O!
0K!
0I!
0F!
0B!
0?!
0=!
09!
07!
03!
01!
0-!
1|!
1z!
1x!
1v!
1t!
1r!
1p!
1n!
1l!
1j!
1h!
1f!
1d!
1b!
1`!
1^!
0{!
0y!
0w!
0u!
0s!
0q!
0o!
0m!
0k!
0i!
0g!
0e!
0c!
0a!
0_!
0]!
#115000
1!
1"
1#
1$
1%
1&
1'
1(
1)
1*
1+
1,
1-
1.
1/
10
1i
1h
1g
1f
1e
1d
1c
1b
1a
1`
1_
1^
1]
1\
1[
1Z
1[!
1W!
1T!
1R!
1O!
1K!
1I!
1F!
1B!
1?!
1=!
19!
17!
13!
11!
1-!
0|!
0z!
0x!
0v!
0t!
0r!
0p!
0n!
0l!
0j!
0h!
0f!
0d!
0b!
0`!
0^!
#120000
0!
0"
0#
0$
0%
0&
0'
0(
0)
0*
0+
0,
0-
0.
0/
00
01
02
03
04
05
06
07
08
09
0:
0;
0<
0=
0>
0?
0@
0i
0h
0g
0f
0e
0d
0c
0b
0a
0`
0_
0^
0]
0\
0[
0Z
0y
0x
0w
0v
0u
0t
0s
0r
0q
0p
0o
0n
0m
0l
0k
0j
0Z!
0X!
0U!
0Q!
0N!
0L!
0H!
0E!
0C!
0@!
0<!
0:!
06!
04!
00!
0.!
0[!
0W!
0T!
0R!
0O!
0K!
0I!
0F!
0B!
0?!
0=!
09!
07!
03!
01!
0-!
1|!
1z!
1x!
1v!
1t!
1r!
1p!
1n!
1l!
1j!
1h!
1f!
1d!
1b!
1`!
1^!
1{!
1y!
1w!
1u!
1s!
1q!
1o!
1m!
1k!
1i!
1g!
1e!
1c!
1a!
1_!
1]!
0\!
0Y!
0V!
0S!
0P!
0M!
0J!
0G!
0D!
0A!
0>!
0;!
08!
05!
02!
0/!
0+!
0*!
0)!
0(!
0'!
0&!
0%!
0$!
0#!
0"!
0!!
0~
0}
0|
0{
0z
0P
0O
0N
0M
0L
0K
0J
0I
0H
0G
0F
0E
0D
0C
0B
0A
