A- current/a-Fpga implementation/16_bit/simulation/qsim/b16_32_merge.msim.vcd
$comment
	File created using the following command:
		vcd file b16_32_merge.msim.vcd -direction
$end
$date
	Thu Dec 08 21:29:32 2022
$end
$version
	ModelSim Version 2020.1
$end
$timescale
	1ps
$end

$scope module b16_32_merge_vhd_vec_tst $end
$var wire 1 ! a [15] $end
$var wire 1 " a [14] $end
$var wire 1 # a [13] $end
$var wire 1 $ a [12] $end
$var wire 1 % a [11] $end
$var wire 1 & a [10] $end
$var wire 1 ' a [9] $end
$var wire 1 ( a [8] $end
$var wire 1 ) a [7] $end
$var wire 1 * a [6] $end
$var wire 1 + a [5] $end
$var wire 1 , a [4] $end
$var wire 1 - a [3] $end
$var wire 1 . a [2] $end
$var wire 1 / a [1] $end
$var wire 1 0 a [0] $end
$var wire 1 1 b [15] $end
$var wire 1 2 b [14] $end
$var wire 1 3 b [13] $end
$var wire 1 4 b [12] $end
$var wire 1 5 b [11] $end
$var wire 1 6 b [10] $end
$var wire 1 7 b [9] $end
$var wire 1 8 b [8] $end
$var wire 1 9 b [7] $end
$var wire 1 : b [6] $end
$var wire 1 ; b [5] $end
$var wire 1 < b [4] $end
$var wire 1 = b [3] $end
$var wire 1 > b [2] $end
$var wire 1 ? b [1] $end
$var wire 1 @ b [0] $end
$var wire 1 A f [31] $end
$var wire 1 B f [30] $end
$var wire 1 C f [29] $end
$var wire 1 D f [28] $end
$var wire 1 E f [27] $end
$var wire 1 F f [26] $end
$var wire 1 G f [25] $end
$var wire 1 H f [24] $end
$var wire 1 I f [23] $end
$var wire 1 J f [22] $end
$var wire 1 K f [21] $end
$var wire 1 L f [20] $end
$var wire 1 M f [19] $end
$var wire 1 N f [18] $end
$var wire 1 O f [17] $end
$var wire 1 P f [16] $end
$var wire 1 Q f [15] $end
$var wire 1 R f [14] $end
$var wire 1 S f [13] $end
$var wire 1 T f [12] $end
$var wire 1 U f [11] $end
$var wire 1 V f [10] $end
$var wire 1 W f [9] $end
$var wire 1 X f [8] $end
$var wire 1 Y f [7] $end
$var wire 1 Z f [6] $end
$var wire 1 [ f [5] $end
$var wire 1 \ f [4] $end
$var wire 1 ] f [3] $end
$var wire 1 ^ f [2] $end
$var wire 1 _ f [1] $end
$var wire 1 ` f [0] $end

$scope module i1 $end
$var wire 1 a gnd $end
$var wire 1 b vcc $end
$var wire 1 c unknown $end
$var wire 1 d devoe $end
$var wire 1 e devclrn $end
$var wire 1 f devpor $end
$var wire 1 g ww_devoe $end
$var wire 1 h ww_devclrn $end
$var wire 1 i ww_devpor $end
$var wire 1 j ww_b [15] $end
$var wire 1 k ww_b [14] $end
$var wire 1 l ww_b [13] $end
$var wire 1 m ww_b [12] $end
$var wire 1 n ww_b [11] $end
$var wire 1 o ww_b [10] $end
$var wire 1 p ww_b [9] $end
$var wire 1 q ww_b [8] $end
$var wire 1 r ww_b [7] $end
$var wire 1 s ww_b [6] $end
$var wire 1 t ww_b [5] $end
$var wire 1 u ww_b [4] $end
$var wire 1 v ww_b [3] $end
$var wire 1 w ww_b [2] $end
$var wire 1 x ww_b [1] $end
$var wire 1 y ww_b [0] $end
$var wire 1 z ww_a [15] $end
$var wire 1 { ww_a [14] $end
$var wire 1 | ww_a [13] $end
$var wire 1 } ww_a [12] $end
$var wire 1 ~ ww_a [11] $end
$var wire 1 !! ww_a [10] $end
$var wire 1 "! ww_a [9] $end
$var wire 1 #! ww_a [8] $end
$var wire 1 $! ww_a [7] $end
$var wire 1 %! ww_a [6] $end
$var wire 1 &! ww_a [5] $end
$var wire 1 '! ww_a [4] $end
$var wire 1 (! ww_a [3] $end
$var wire 1 )! ww_a [2] $end
$var wire 1 *! ww_a [1] $end
$var wire 1 +! ww_a [0] $end
$var wire 1 ,! ww_f [31] $end
$var wire 1 -! ww_f [30] $end
$var wire 1 .! ww_f [29] $end
$var wire 1 /! ww_f [28] $end
$var wire 1 0! ww_f [27] $end
$var wire 1 1! ww_f [26] $end
$var wire 1 2! ww_f [25] $end
$var wire 1 3! ww_f [24] $end
$var wire 1 4! ww_f [23] $end
$var wire 1 5! ww_f [22] $end
$var wire 1 6! ww_f [21] $end
$var wire 1 7! ww_f [20] $end
$var wire 1 8! ww_f [19] $end
$var wire 1 9! ww_f [18] $end
$var wire 1 :! ww_f [17] $end
$var wire 1 ;! ww_f [16] $end
$var wire 1 <! ww_f [15] $end
$var wire 1 =! ww_f [14] $end
$var wire 1 >! ww_f [13] $end
$var wire 1 ?! ww_f [12] $end
$var wire 1 @! ww_f [11] $end
$var wire 1 A! ww_f [10] $end
$var wire 1 B! ww_f [9] $end
$var wire 1 C! ww_f [8] $end
$var wire 1 D! ww_f [7] $end
$var wire 1 E! ww_f [6] $end
$var wire 1 F! ww_f [5] $end
$var wire 1 G! ww_f [4] $end
$var wire 1 H! ww_f [3] $end
$var wire 1 I! ww_f [2] $end
$var wire 1 J! ww_f [1] $end
$var wire 1 K! ww_f [0] $end
$var wire 1 L! \~QUARTUS_CREATED_GND~I_combout\ $end
$var wire 1 M! \a[0]~input_o\ $end
$var wire 1 N! \a[1]~input_o\ $end
$var wire 1 O! \a[2]~input_o\ $end
$var wire 1 P! \a[3]~input_o\ $end
$var wire 1 Q! \a[4]~input_o\ $end
$var wire 1 R! \a[5]~input_o\ $end
$var wire 1 S! \a[6]~input_o\ $end
$var wire 1 T! \a[7]~input_o\ $end
$var wire 1 U! \a[8]~input_o\ $end
$var wire 1 V! \a[9]~input_o\ $end
$var wire 1 W! \a[10]~input_o\ $end
$var wire 1 X! \a[11]~input_o\ $end
$var wire 1 Y! \a[12]~input_o\ $end
$var wire 1 Z! \a[13]~input_o\ $end
$var wire 1 [! \a[14]~input_o\ $end
$var wire 1 \! \a[15]~input_o\ $end
$var wire 1 ]! \b[0]~input_o\ $end
$var wire 1 ^! \b[1]~input_o\ $end
$var wire 1 _! \b[2]~input_o\ $end
$var wire 1 `! \b[3]~input_o\ $end
$var wire 1 a! \b[4]~input_o\ $end
$var wire 1 b! \b[5]~input_o\ $end
$var wire 1 c! \b[6]~input_o\ $end
$var wire 1 d! \b[7]~input_o\ $end
$var wire 1 e! \b[8]~input_o\ $end
$var wire 1 f! \b[9]~input_o\ $end
$var wire 1 g! \b[10]~input_o\ $end
$var wire 1 h! \b[11]~input_o\ $end
$var wire 1 i! \b[12]~input_o\ $end
$var wire 1 j! \b[13]~input_o\ $end
$var wire 1 k! \b[14]~input_o\ $end
$var wire 1 l! \b[15]~input_o\ $end
$upscope $end
$upscope $end
$enddefinitions $end
#0
$dumpvars
0a
1b
xc
1d
1e
1f
1g
1h
1i
xL!
0M!
0N!
0O!
0P!
0Q!
0R!
0S!
0T!
0U!
0V!
0W!
0X!
0Y!
0Z!
0[!
0\!
0]!
0^!
0_!
0`!
0a!
0b!
0c!
0d!
0e!
0f!
0g!
0h!
0i!
0j!
0k!
0l!
0!
0"
0#
0$
0%
0&
0'
0(
0)
0*
0+
0,
0-
0.
0/
00
01
02
03
04
05
06
07
08
09
0:
0;
0<
0=
0>
0?
0@
0A
0B
0C
0D
0E
0F
0G
0H
0I
0J
0K
0L
0M
0N
0O
0P
0Q
0R
0S
0T
0U
0V
0W
0X
0Y
0Z
0[
0\
0]
0^
0_
0`
0j
0k
0l
0m
0n
0o
0p
0q
0r
0s
0t
0u
0v
0w
0x
0y
0z
0{
0|
0}
0~
0!!
0"!
0#!
0$!
0%!
0&!
0'!
0(!
0)!
0*!
0+!
0,!
0-!
0.!
0/!
00!
01!
02!
03!
04!
05!
06!
07!
08!
09!
0:!
0;!
0<!
0=!
0>!
0?!
0@!
0A!
0B!
0C!
0D!
0E!
0F!
0G!
0H!
0I!
0J!
0K!
$end
#10000
1,
1@
1'!
1y
1]!
1Q!
1G!
1;!
1\
1P
#20000
0,
0@
1+
1?
0'!
1&!
0y
1x
1^!
0]!
1R!
0Q!
0G!
1F!
0;!
1:!
0\
1[
0P
1O
#30000
1,
1@
1'!
1y
1]!
1Q!
1G!
1;!
1\
1P
#40000
0,
0@
0+
0?
1*
1>
0'!
0&!
1%!
0y
0x
1w
1_!
0^!
0]!
1S!
0R!
0Q!
0G!
0F!
1E!
0;!
0:!
19!
0\
0[
1Z
0P
0O
1N
#50000
1,
1@
1'!
1y
1]!
1Q!
1G!
1;!
1\
1P
#60000
0,
0@
1+
1?
0'!
1&!
0y
1x
1^!
0]!
1R!
0Q!
0G!
1F!
0;!
1:!
0\
1[
0P
1O
#70000
1,
1@
1'!
1y
1]!
1Q!
1G!
1;!
1\
1P
#80000
0,
0@
0+
0?
0*
0>
1)
1=
0'!
0&!
0%!
1$!
0y
0x
0w
1v
1`!
0_!
0^!
0]!
1T!
0S!
0R!
0Q!
0G!
0F!
0E!
1D!
0;!
0:!
09!
18!
0\
0[
0Z
1Y
0P
0O
0N
1M
#90000
1,
1@
1'!
1y
1]!
1Q!
1G!
1;!
1\
1P
#100000
0,
0@
1+
1?
0'!
1&!
0y
1x
1^!
0]!
1R!
0Q!
0G!
1F!
0;!
1:!
0\
1[
0P
1O
#110000
1,
1@
1'!
1y
1]!
1Q!
1G!
1;!
1\
1P
#120000
0,
0@
0+
0?
1*
1>
0'!
0&!
1%!
0y
0x
1w
1_!
0^!
0]!
1S!
0R!
0Q!
0G!
0F!
1E!
0;!
0:!
19!
0\
0[
1Z
0P
0O
1N
#130000
1,
1@
1'!
1y
1]!
1Q!
1G!
1;!
1\
1P
#140000
0,
0@
1+
1?
0'!
1&!
0y
1x
1^!
0]!
1R!
0Q!
0G!
1F!
0;!
1:!
0\
1[
0P
1O
#150000
1,
1@
1'!
1y
1]!
1Q!
1G!
1;!
1\
1P
#160000
0,
0@
0+
0?
0*
0>
0)
0=
1(
1<
0'!
0&!
0%!
0$!
1#!
0y
0x
0w
0v
1u
1a!
0`!
0_!
0^!
0]!
1U!
0T!
0S!
0R!
0Q!
0G!
0F!
0E!
0D!
1C!
0;!
0:!
09!
08!
17!
0\
0[
0Z
0Y
1X
0P
0O
0N
0M
1L
#170000
1,
1@
1'!
1y
1]!
1Q!
1G!
1;!
1\
1P
#180000
0,
0@
1+
1?
0'!
1&!
0y
1x
1^!
0]!
1R!
0Q!
0G!
1F!
0;!
1:!
0\
1[
0P
1O
#190000
1,
1@
1'!
1y
1]!
1Q!
1G!
1;!
1\
1P
#200000
0,
0@
0+
0?
1*
1>
0'!
0&!
1%!
0y
0x
1w
1_!
0^!
0]!
1S!
0R!
0Q!
0G!
0F!
1E!
0;!
0:!
19!
0\
0[
1Z
0P
0O
1N
#210000
1,
1@
1'!
1y
1]!
1Q!
1G!
1;!
1\
1P
#220000
0,
0@
1+
1?
0'!
1&!
0y
1x
1^!
0]!
1R!
0Q!
0G!
1F!
0;!
1:!
0\
1[
0P
1O
#230000
1,
1@
1'!
1y
1]!
1Q!
1G!
1;!
1\
1P
#240000
0,
0@
0+
0?
0*
0>
1)
1=
0'!
0&!
0%!
1$!
0y
0x
0w
1v
1`!
0_!
0^!
0]!
1T!
0S!
0R!
0Q!
0G!
0F!
0E!
1D!
0;!
0:!
09!
18!
0\
0[
0Z
1Y
0P
0O
0N
1M
#250000
1,
1@
1'!
1y
1]!
1Q!
1G!
1;!
1\
1P
#260000
0,
0@
1+
1?
0'!
1&!
0y
1x
1^!
0]!
1R!
0Q!
0G!
1F!
0;!
1:!
0\
1[
0P
1O
#270000
1,
1@
1'!
1y
1]!
1Q!
1G!
1;!
1\
1P
#280000
0,
0@
0+
0?
1*
1>
0'!
0&!
1%!
0y
0x
1w
1_!
0^!
0]!
1S!
0R!
0Q!
0G!
0F!
1E!
0;!
0:!
19!
0\
0[
1Z
0P
0O
1N
#290000
1,
1@
1'!
1y
1]!
1Q!
1G!
1;!
1\
1P
#300000
0,
0@
1+
1?
0'!
1&!
0y
1x
1^!
0]!
1R!
0Q!
0G!
1F!
0;!
1:!
0\
1[
0P
1O
#310000
1,
1@
1'!
1y
1]!
1Q!
1G!
1;!
1\
1P
#320000
0,
0@
0+
0?
0*
0>
0)
0=
0(
0<
1'
1;
0'!
0&!
0%!
0$!
0#!
1"!
0y
0x
0w
0v
0u
1t
1b!
0a!
0`!
0_!
0^!
0]!
1V!
0U!
0T!
0S!
0R!
0Q!
0G!
0F!
0E!
0D!
0C!
1B!
0;!
0:!
09!
08!
07!
16!
0\
0[
0Z
0Y
0X
1W
0P
0O
0N
0M
0L
1K
#330000
1,
1@
1'!
1y
1]!
1Q!
1G!
1;!
1\
1P
#340000
0,
0@
1+
1?
0'!
1&!
0y
1x
1^!
0]!
1R!
0Q!
0G!
1F!
0;!
1:!
0\
1[
0P
1O
#350000
1,
1@
1'!
1y
1]!
1Q!
1G!
1;!
1\
1P
#360000
0,
0@
0+
0?
1*
1>
0'!
0&!
1%!
0y
0x
1w
1_!
0^!
0]!
1S!
0R!
0Q!
0G!
0F!
1E!
0;!
0:!
19!
0\
0[
1Z
0P
0O
1N
#370000
1,
1@
1'!
1y
1]!
1Q!
1G!
1;!
1\
1P
#380000
0,
0@
1+
1?
0'!
1&!
0y
1x
1^!
0]!
1R!
0Q!
0G!
1F!
0;!
1:!
0\
1[
0P
1O
#390000
1,
1@
1'!
1y
1]!
1Q!
1G!
1;!
1\
1P
#400000
0,
0@
0+
0?
0*
0>
1)
1=
0'!
0&!
0%!
1$!
0y
0x
0w
1v
1`!
0_!
0^!
0]!
1T!
0S!
0R!
0Q!
0G!
0F!
0E!
1D!
0;!
0:!
09!
18!
0\
0[
0Z
1Y
0P
0O
0N
1M
#410000
1,
1@
1'!
1y
1]!
1Q!
1G!
1;!
1\
1P
#420000
0,
0@
1+
1?
0'!
1&!
0y
1x
1^!
0]!
1R!
0Q!
0G!
1F!
0;!
1:!
0\
1[
0P
1O
#430000
1,
1@
1'!
1y
1]!
1Q!
1G!
1;!
1\
1P
#440000
0,
0@
0+
0?
1*
1>
0'!
0&!
1%!
0y
0x
1w
1_!
0^!
0]!
1S!
0R!
0Q!
0G!
0F!
1E!
0;!
0:!
19!
0\
0[
1Z
0P
0O
1N
#450000
1,
1@
1'!
1y
1]!
1Q!
1G!
1;!
1\
1P
#460000
0,
0@
1+
1?
0'!
1&!
0y
1x
1^!
0]!
1R!
0Q!
0G!
1F!
0;!
1:!
0\
1[
0P
1O
#470000
1,
1@
1'!
1y
1]!
1Q!
1G!
1;!
1\
1P
#480000
0,
0@
0+
0?
0*
0>
0)
0=
1(
1<
0'!
0&!
0%!
0$!
1#!
0y
0x
0w
0v
1u
1a!
0`!
0_!
0^!
0]!
1U!
0T!
0S!
0R!
0Q!
0G!
0F!
0E!
0D!
1C!
0;!
0:!
09!
08!
17!
0\
0[
0Z
0Y
1X
0P
0O
0N
0M
1L
#490000
1,
1@
1'!
1y
1]!
1Q!
1G!
1;!
1\
1P
#500000
0,
0@
1+
1?
0'!
1&!
0y
1x
1^!
0]!
1R!
0Q!
0G!
1F!
0;!
1:!
0\
1[
0P
1O
#510000
1,
1@
1'!
1y
1]!
1Q!
1G!
1;!
1\
1P
#520000
0,
0@
0+
0?
1*
1>
0'!
0&!
1%!
0y
0x
1w
1_!
0^!
0]!
1S!
0R!
0Q!
0G!
0F!
1E!
0;!
0:!
19!
0\
0[
1Z
0P
0O
1N
#530000
1,
1@
1'!
1y
1]!
1Q!
1G!
1;!
1\
1P
#540000
0,
0@
1+
1?
0'!
1&!
0y
1x
1^!
0]!
1R!
0Q!
0G!
1F!
0;!
1:!
0\
1[
0P
1O
#550000
1,
1@
1'!
1y
1]!
1Q!
1G!
1;!
1\
1P
#560000
0,
0@
0+
0?
0*
0>
1)
1=
0'!
0&!
0%!
1$!
0y
0x
0w
1v
1`!
0_!
0^!
0]!
1T!
0S!
0R!
0Q!
0G!
0F!
0E!
1D!
0;!
0:!
09!
18!
0\
0[
0Z
1Y
0P
0O
0N
1M
#570000
1,
1@
1'!
1y
1]!
1Q!
1G!
1;!
1\
1P
#580000
0,
0@
1+
1?
0'!
1&!
0y
1x
1^!
0]!
1R!
0Q!
0G!
1F!
0;!
1:!
0\
1[
0P
1O
#590000
1,
1@
1'!
1y
1]!
1Q!
1G!
1;!
1\
1P
#600000
0,
0@
0+
0?
1*
1>
0'!
0&!
1%!
0y
0x
1w
1_!
0^!
0]!
1S!
0R!
0Q!
0G!
0F!
1E!
0;!
0:!
19!
0\
0[
1Z
0P
0O
1N
#610000
1,
1@
1'!
1y
1]!
1Q!
1G!
1;!
1\
1P
#620000
0,
0@
1+
1?
0'!
1&!
0y
1x
1^!
0]!
1R!
0Q!
0G!
1F!
0;!
1:!
0\
1[
0P
1O
#630000
1,
1@
1'!
1y
1]!
1Q!
1G!
1;!
1\
1P
#640000
0,
0@
0+
0?
0*
0>
0)
0=
0(
0<
0'
0;
1&
1:
0'!
0&!
0%!
0$!
0#!
0"!
1!!
0y
0x
0w
0v
0u
0t
1s
1c!
0b!
0a!
0`!
0_!
0^!
0]!
1W!
0V!
0U!
0T!
0S!
0R!
0Q!
0G!
0F!
0E!
0D!
0C!
0B!
1A!
0;!
0:!
09!
08!
07!
06!
15!
0\
0[
0Z
0Y
0X
0W
1V
0P
0O
0N
0M
0L
0K
1J
#650000
1,
1@
1'!
1y
1]!
1Q!
1G!
1;!
1\
1P
#660000
0,
0@
1+
1?
0'!
1&!
0y
1x
1^!
0]!
1R!
0Q!
0G!
1F!
0;!
1:!
0\
1[
0P
1O
#670000
1,
1@
1'!
1y
1]!
1Q!
1G!
1;!
1\
1P
#680000
0,
0@
0+
0?
1*
1>
0'!
0&!
1%!
0y
0x
1w
1_!
0^!
0]!
1S!
0R!
0Q!
0G!
0F!
1E!
0;!
0:!
19!
0\
0[
1Z
0P
0O
1N
#690000
1,
1@
1'!
1y
1]!
1Q!
1G!
1;!
1\
1P
#700000
0,
0@
1+
1?
0'!
1&!
0y
1x
1^!
0]!
1R!
0Q!
0G!
1F!
0;!
1:!
0\
1[
0P
1O
#710000
1,
1@
1'!
1y
1]!
1Q!
1G!
1;!
1\
1P
#720000
0,
0@
0+
0?
0*
0>
1)
1=
0'!
0&!
0%!
1$!
0y
0x
0w
1v
1`!
0_!
0^!
0]!
1T!
0S!
0R!
0Q!
0G!
0F!
0E!
1D!
0;!
0:!
09!
18!
0\
0[
0Z
1Y
0P
0O
0N
1M
#730000
1,
1@
1'!
1y
1]!
1Q!
1G!
1;!
1\
1P
#740000
0,
0@
1+
1?
0'!
1&!
0y
1x
1^!
0]!
1R!
0Q!
0G!
1F!
0;!
1:!
0\
1[
0P
1O
#750000
1,
1@
1'!
1y
1]!
1Q!
1G!
1;!
1\
1P
#760000
0,
0@
0+
0?
1*
1>
0'!
0&!
1%!
0y
0x
1w
1_!
0^!
0]!
1S!
0R!
0Q!
0G!
0F!
1E!
0;!
0:!
19!
0\
0[
1Z
0P
0O
1N
#770000
1,
1@
1'!
1y
1]!
1Q!
1G!
1;!
1\
1P
#780000
0,
0@
1+
1?
0'!
1&!
0y
1x
1^!
0]!
1R!
0Q!
0G!
1F!
0;!
1:!
0\
1[
0P
1O
#790000
1,
1@
1'!
1y
1]!
1Q!
1G!
1;!
1\
1P
#800000
0,
0@
0+
0?
0*
0>
0)
0=
1(
1<
0'!
0&!
0%!
0$!
1#!
0y
0x
0w
0v
1u
1a!
0`!
0_!
0^!
0]!
1U!
0T!
0S!
0R!
0Q!
0G!
0F!
0E!
0D!
1C!
0;!
0:!
09!
08!
17!
0\
0[
0Z
0Y
1X
0P
0O
0N
0M
1L
#810000
1,
1@
1'!
1y
1]!
1Q!
1G!
1;!
1\
1P
#820000
0,
0@
1+
1?
0'!
1&!
0y
1x
1^!
0]!
1R!
0Q!
0G!
1F!
0;!
1:!
0\
1[
0P
1O
#830000
1,
1@
1'!
1y
1]!
1Q!
1G!
1;!
1\
1P
#840000
0,
0@
0+
0?
1*
1>
0'!
0&!
1%!
0y
0x
1w
1_!
0^!
0]!
1S!
0R!
0Q!
0G!
0F!
1E!
0;!
0:!
19!
0\
0[
1Z
0P
0O
1N
#850000
1,
1@
1'!
1y
1]!
1Q!
1G!
1;!
1\
1P
#860000
0,
0@
1+
1?
0'!
1&!
0y
1x
1^!
0]!
1R!
0Q!
0G!
1F!
0;!
1:!
0\
1[
0P
1O
#870000
1,
1@
1'!
1y
1]!
1Q!
1G!
1;!
1\
1P
#880000
0,
0@
0+
0?
0*
0>
1)
1=
0'!
0&!
0%!
1$!
0y
0x
0w
1v
1`!
0_!
0^!
0]!
1T!
0S!
0R!
0Q!
0G!
0F!
0E!
1D!
0;!
0:!
09!
18!
0\
0[
0Z
1Y
0P
0O
0N
1M
#890000
1,
1@
1'!
1y
1]!
1Q!
1G!
1;!
1\
1P
#900000
0,
0@
1+
1?
0'!
1&!
0y
1x
1^!
0]!
1R!
0Q!
0G!
1F!
0;!
1:!
0\
1[
0P
1O
#910000
1,
1@
1'!
1y
1]!
1Q!
1G!
1;!
1\
1P
#920000
0,
0@
0+
0?
1*
1>
0'!
0&!
1%!
0y
0x
1w
1_!
0^!
0]!
1S!
0R!
0Q!
0G!
0F!
1E!
0;!
0:!
19!
0\
0[
1Z
0P
0O
1N
#930000
1,
1@
1'!
1y
1]!
1Q!
1G!
1;!
1\
1P
#940000
0,
0@
1+
1?
0'!
1&!
0y
1x
1^!
0]!
1R!
0Q!
0G!
1F!
0;!
1:!
0\
1[
0P
1O
#950000
1,
1@
1'!
1y
1]!
1Q!
1G!
1;!
1\
1P
#960000
0,
0@
0+
0?
0*
0>
0)
0=
0(
0<
1'
1;
0'!
0&!
0%!
0$!
0#!
1"!
0y
0x
0w
0v
0u
1t
1b!
0a!
0`!
0_!
0^!
0]!
1V!
0U!
0T!
0S!
0R!
0Q!
0G!
0F!
0E!
0D!
0C!
1B!
0;!
0:!
09!
08!
07!
16!
0\
0[
0Z
0Y
0X
1W
0P
0O
0N
0M
0L
1K
#970000
1,
1@
1'!
1y
1]!
1Q!
1G!
1;!
1\
1P
#980000
0,
0@
1+
1?
0'!
1&!
0y
1x
1^!
0]!
1R!
0Q!
0G!
1F!
0;!
1:!
0\
1[
0P
1O
#990000
1,
1@
1'!
1y
1]!
1Q!
1G!
1;!
1\
1P
