A- current/a-Fpga implementation/16_bit/simulation/qsim/bus64_split_out.msim.vcd
$comment
	File created using the following command:
		vcd file bus64_split_out.msim.vcd -direction
$end
$date
	Thu Dec 08 19:55:09 2022
$end
$version
	ModelSim Version 2020.1
$end
$timescale
	1ps
$end

$scope module bus64_split_out_vlg_vec_tst $end
$var reg 64 ! a [63:0] $end
$var wire 1 " aa [15] $end
$var wire 1 # aa [14] $end
$var wire 1 $ aa [13] $end
$var wire 1 % aa [12] $end
$var wire 1 & aa [11] $end
$var wire 1 ' aa [10] $end
$var wire 1 ( aa [9] $end
$var wire 1 ) aa [8] $end
$var wire 1 * aa [7] $end
$var wire 1 + aa [6] $end
$var wire 1 , aa [5] $end
$var wire 1 - aa [4] $end
$var wire 1 . aa [3] $end
$var wire 1 / aa [2] $end
$var wire 1 0 aa [1] $end
$var wire 1 1 aa [0] $end
$var wire 1 2 bb [15] $end
$var wire 1 3 bb [14] $end
$var wire 1 4 bb [13] $end
$var wire 1 5 bb [12] $end
$var wire 1 6 bb [11] $end
$var wire 1 7 bb [10] $end
$var wire 1 8 bb [9] $end
$var wire 1 9 bb [8] $end
$var wire 1 : bb [7] $end
$var wire 1 ; bb [6] $end
$var wire 1 < bb [5] $end
$var wire 1 = bb [4] $end
$var wire 1 > bb [3] $end
$var wire 1 ? bb [2] $end
$var wire 1 @ bb [1] $end
$var wire 1 A bb [0] $end
$var wire 1 B cc [15] $end
$var wire 1 C cc [14] $end
$var wire 1 D cc [13] $end
$var wire 1 E cc [12] $end
$var wire 1 F cc [11] $end
$var wire 1 G cc [10] $end
$var wire 1 H cc [9] $end
$var wire 1 I cc [8] $end
$var wire 1 J cc [7] $end
$var wire 1 K cc [6] $end
$var wire 1 L cc [5] $end
$var wire 1 M cc [4] $end
$var wire 1 N cc [3] $end
$var wire 1 O cc [2] $end
$var wire 1 P cc [1] $end
$var wire 1 Q cc [0] $end
$var wire 1 R dd [15] $end
$var wire 1 S dd [14] $end
$var wire 1 T dd [13] $end
$var wire 1 U dd [12] $end
$var wire 1 V dd [11] $end
$var wire 1 W dd [10] $end
$var wire 1 X dd [9] $end
$var wire 1 Y dd [8] $end
$var wire 1 Z dd [7] $end
$var wire 1 [ dd [6] $end
$var wire 1 \ dd [5] $end
$var wire 1 ] dd [4] $end
$var wire 1 ^ dd [3] $end
$var wire 1 _ dd [2] $end
$var wire 1 ` dd [1] $end
$var wire 1 a dd [0] $end

$scope module i1 $end
$var wire 1 b gnd $end
$var wire 1 c vcc $end
$var wire 1 d unknown $end
$var tri1 1 e devclrn $end
$var tri1 1 f devpor $end
$var tri1 1 g devoe $end
$var wire 1 h ~QUARTUS_CREATED_GND~I_combout $end
$var wire 1 i a[15]~input_o $end
$var wire 1 j a[14]~input_o $end
$var wire 1 k a[13]~input_o $end
$var wire 1 l a[12]~input_o $end
$var wire 1 m a[11]~input_o $end
$var wire 1 n a[10]~input_o $end
$var wire 1 o a[9]~input_o $end
$var wire 1 p a[8]~input_o $end
$var wire 1 q a[7]~input_o $end
$var wire 1 r a[6]~input_o $end
$var wire 1 s a[5]~input_o $end
$var wire 1 t a[4]~input_o $end
$var wire 1 u a[3]~input_o $end
$var wire 1 v a[2]~input_o $end
$var wire 1 w a[1]~input_o $end
$var wire 1 x a[0]~input_o $end
$var wire 1 y a[31]~input_o $end
$var wire 1 z a[30]~input_o $end
$var wire 1 { a[29]~input_o $end
$var wire 1 | a[28]~input_o $end
$var wire 1 } a[27]~input_o $end
$var wire 1 ~ a[26]~input_o $end
$var wire 1 !! a[25]~input_o $end
$var wire 1 "! a[24]~input_o $end
$var wire 1 #! a[23]~input_o $end
$var wire 1 $! a[22]~input_o $end
$var wire 1 %! a[21]~input_o $end
$var wire 1 &! a[20]~input_o $end
$var wire 1 '! a[19]~input_o $end
$var wire 1 (! a[18]~input_o $end
$var wire 1 )! a[17]~input_o $end
$var wire 1 *! a[16]~input_o $end
$var wire 1 +! a[47]~input_o $end
$var wire 1 ,! a[46]~input_o $end
$var wire 1 -! a[45]~input_o $end
$var wire 1 .! a[44]~input_o $end
$var wire 1 /! a[43]~input_o $end
$var wire 1 0! a[42]~input_o $end
$var wire 1 1! a[41]~input_o $end
$var wire 1 2! a[40]~input_o $end
$var wire 1 3! a[39]~input_o $end
$var wire 1 4! a[38]~input_o $end
$var wire 1 5! a[37]~input_o $end
$var wire 1 6! a[36]~input_o $end
$var wire 1 7! a[35]~input_o $end
$var wire 1 8! a[34]~input_o $end
$var wire 1 9! a[33]~input_o $end
$var wire 1 :! a[32]~input_o $end
$var wire 1 ;! a[63]~input_o $end
$var wire 1 <! a[62]~input_o $end
$var wire 1 =! a[61]~input_o $end
$var wire 1 >! a[60]~input_o $end
$var wire 1 ?! a[59]~input_o $end
$var wire 1 @! a[58]~input_o $end
$var wire 1 A! a[57]~input_o $end
$var wire 1 B! a[56]~input_o $end
$var wire 1 C! a[55]~input_o $end
$var wire 1 D! a[54]~input_o $end
$var wire 1 E! a[53]~input_o $end
$var wire 1 F! a[52]~input_o $end
$var wire 1 G! a[51]~input_o $end
$var wire 1 H! a[50]~input_o $end
$var wire 1 I! a[49]~input_o $end
$var wire 1 J! a[48]~input_o $end
$upscope $end
$upscope $end
$enddefinitions $end
#0
$dumpvars
b0 !
01
00
0/
0.
0-
0,
0+
0*
0)
0(
0'
0&
0%
0$
0#
0"
0A
0@
0?
0>
0=
0<
0;
0:
09
08
07
06
05
04
03
02
0Q
0P
0O
0N
0M
0L
0K
0J
0I
0H
0G
0F
0E
0D
0C
0B
0a
0`
0_
0^
0]
0\
0[
0Z
0Y
0X
0W
0V
0U
0T
0S
0R
0b
1c
xd
1e
1f
1g
0h
0i
0j
0k
0l
0m
0n
0o
0p
0q
0r
0s
0t
0u
0v
0w
0x
0y
0z
0{
0|
0}
0~
0!!
0"!
0#!
0$!
0%!
0&!
0'!
0(!
0)!
0*!
0+!
0,!
0-!
0.!
0/!
00!
01!
02!
03!
04!
05!
06!
07!
08!
09!
0:!
0;!
0<!
0=!
0>!
0?!
0@!
0A!
0B!
0C!
0D!
0E!
0F!
0G!
0H!
0I!
0J!
$end
#10000
b1000000000000000000000000000000000000000000000000 !
b1001000000000000000000000000000000000000000000000 !
b1001000010000000000000000000000000000000000000000 !
b1001000010100000000000000000000000000000000000000 !
b1001000010101000000000000000000000000000000000000 !
b1001000010101010000000000000000000000000000000000 !
b1001000010101010100000000000000000000000000000000 !
b1001000010101010100100000000000000000000000000000 !
b1001000010101010100110000000000000000000000000000 !
b1001000010101010100110001000000000000000000000000 !
b1001000010101010100110001001000000000000000000000 !
b1001000010101010100110001001100000000000000000000 !
b1001000010101010100110001001100010000000000000000 !
b1001000010101010100110001001100010010000000000000 !
b1001000010101010100110001001100010011000000000000 !
b1001000010101010100110001001100010011000100000000 !
b1001000010101010100110001001100010011000100010000 !
b1001000010101010100110001001100010011000100010001 !
1x
1t
1p
1l
1k
1*!
1&!
1%!
1"!
1|
1{
1:!
18!
16!
14!
12!
1-!
1J!
1a
1D
1I
1K
1M
1O
1Q
14
15
19
1<
1=
1A
1$
1%
1)
1-
11
#20000
b11001000010101010100110001001100010011000100010001 !
b11011000010101010100110001001100010011000100010001 !
b11011000110101010100110001001100010011000100010001 !
b11011000111101010100110001001100010011000100010001 !
b11011000111111010100110001001100010011000100010001 !
b11011000111111110100110001001100010011000100010001 !
b11011000111111111100110001001100010011000100010001 !
b11011000111111111101110001001100010011000100010001 !
b11011000111111111101110011001100010011000100010001 !
b11011000111111111101110011011100010011000100010001 !
b11011000111111111101110011011100110011000100010001 !
b11011000111111111101110011011100110111000100010001 !
b11011000111111111101110011011100110111001100010001 !
b11011000111111111101110011011100110111001100110001 !
b11011000111111111101110011011100110111001100110011 !
b10011000111111111101110011011100110111001100110011 !
b10010000111111111101110011011100110111001100110011 !
b10010000101111111101110011011100110111001100110011 !
b10010000101011111101110011011100110111001100110011 !
b10010000101010111101110011011100110111001100110011 !
b10010000101010101101110011011100110111001100110011 !
b10010000101010101001110011011100110111001100110011 !
b10010000101010101001100011011100110111001100110011 !
b10010000101010101001100010011100110111001100110011 !
b10010000101010101001100010011000110111001100110011 !
b10010000101010101001100010011000100111001100110011 !
b10010000101010101001100010011000100110001100110011 !
b10010000101010101001100010011000100110001000110011 !
b10010000101010101001100010011000100110001000100011 !
b10010000101010101001100010011000100110001000100010 !
0x
1w
0t
1s
0p
1o
0l
1j
0*!
1)!
0&!
1$!
0"!
1!!
0|
1z
0:!
19!
08!
17!
06!
15!
04!
13!
02!
11!
0-!
1,!
0J!
1I!
1`
0a
1C
0D
1H
0I
1J
0K
1L
0M
1N
0O
1P
0Q
13
05
18
09
1;
0=
1@
0A
1#
0%
1(
0)
1,
0-
10
01
#30000
b10010000101010101011100010011000100110001000100010 !
b10010000101010101011100010111000100110001000100010 !
b10010000101010101011100010111000101110001000100010 !
b10010000101010101011000010111000101110001000100010 !
b10010000101010101011000010110000101110001000100010 !
b10010000101010101011000010110000101100001000100010 !
b10010000101010101010000010110000101100001000100010 !
b10010000101010101010000010100000101100001000100010 !
b10010000101010101010000010100000101000001000100010 !
b11010000101010101010000010100000101000001000100010 !
b11011000101010101010000010100000101000001000100010 !
b11011000111010101010000010100000101000001000100010 !
b11011000111110101010000010100000101000001000100010 !
b11011000111111101010000010100000101000001000100010 !
b11011000111111111010000010100000101000001000100010 !
b11011000111111111110000010100000101000001000100010 !
b11011000111111111110010010100000101000001000100010 !
b11011000111111111110010011100000101000001000100010 !
b11011000111111111110010011100100101000001000100010 !
b11011000111111111110010011100100111000001000100010 !
b11011000111111111110010011100100111001001000100010 !
b11011000111111111110010011100100111001001100100010 !
b11011000111111111110010011100100111001001100110010 !
b11011000111111111110010011100100111001001100110011 !
1x
1t
1p
1l
0k
0j
1i
1*!
1&!
0%!
0$!
1#!
1"!
1|
0{
0z
1y
1:!
18!
16!
14!
12!
1-!
1J!
1a
1D
1I
1K
1M
1O
1Q
12
03
04
15
19
1:
0;
0<
1=
1A
1"
0#
0$
1%
1)
1-
11
#40000
b111011000111111111110010011100100111001001100110011 !
b111111000111111111110010011100100111001001100110011 !
b111111001111111111110010011100100111001001100110011 !
b111111001111111111110010111100100111001001100110011 !
b111111001111111111110010111100101111001001100110011 !
b111111001111111111110010111100101111001011100110011 !
b111111001111111111110010111100101111001011101110011 !
b111111001111111111110010111100101111001011101110111 !
b101111001111111111110010111100101111001011101110111 !
b101101001111111111110010111100101111001011101110111 !
b101101001011111111110010111100101111001011101110111 !
b101101001010111111110010111100101111001011101110111 !
b101101001010101111110010111100101111001011101110111 !
b101101001010101011110010111100101111001011101110111 !
b101101001010101010110010111100101111001011101110111 !
b101101001010101010110010101100101111001011101110111 !
b101101001010101010110010101100101011001011101110111 !
b101101001010101010110010101100101011001010101110111 !
b101101001010101010110010101100101011001010101010111 !
b101101001010101010110010101100101011001010101010101 !
b101101001010101010111010101100101011001010101010101 !
b101101001010101010111010101110101011001010101010101 !
b101101001010101010111010101110101011101010101010101 !
b100101001010101010111010101110101011101010101010101 !
b100100001010101010111010101110101011101010101010101 !
b100100001010101010011010101110101011101010101010101 !
b100100001010101010011000101110101011101010101010101 !
b100100001010101010011000100110101011101010101010101 !
b100100001010101010011000100110001011101010101010101 !
b100100001010101010011000100110001001101010101010101 !
b100100001010101010011000100110001001100010101010101 !
b100100001010101010011000100110001001100010001010101 !
b100100001010101010011000100110001001100010001000101 !
b100100001010101010011000100110001001100010001000100 !
0x
0w
1v
0t
0s
1r
0p
0o
1n
0l
1j
0*!
0)!
1(!
0&!
1$!
0"!
0!!
1~
0|
1z
0:!
09!
07!
05!
03!
01!
10!
0-!
0,!
1+!
0J!
0I!
1H!
1_
0`
0a
1B
0C
0D
1G
0H
0J
0L
0N
0P
0Q
13
05
17
08
09
1;
0=
1?
0@
0A
1#
0%
1'
0(
0)
1+
0,
0-
1/
00
01
#50000
b100100001010101010011100100110001001100010001000100 !
b100100001010101010011100100111001001100010001000100 !
b100100001010101010011100100111001001110010001000100 !
b100100001000101010011100100111001001110010001000100 !
b100100001000001010011100100111001001110010001000100 !
b100100001000000010011100100111001001110010001000100 !
b100100001000000000011100100111001001110010001000100 !
b100100001100000000011100100111001001110010001000100 !
b100100001101000000011100100111001001110010001000100 !
b100100001101010000011100100111001001110010001000100 !
b100100001101010100011100100111001001110010001000100 !
b101100001101010100011100100111001001110010001000100 !
b101101001101010100011100100111001001110010001000100 !
b101101001101010100111100100111001001110010001000100 !
b101101001101010100111110100111001001110010001000100 !
b101101001101010100111110101111001001110010001000100 !
b101101001101010100111110101111101001110010001000100 !
b101101001101010100111110101111101011110010001000100 !
b101101001101010100111110101111101011111010001000100 !
b101101001101010100111110101111101011111010101000100 !
b101101001101010100111110101111101011111010101010100 !
b101101001101010100111110101111101011111010101010101 !
1x
1t
1p
1l
1k
1*!
1&!
1%!
1"!
1|
1{
1:!
08!
17!
06!
15!
04!
13!
02!
11!
1-!
1J!
1a
1D
1H
0I
1J
0K
1L
0M
1N
0O
1Q
14
15
19
1<
1=
1A
1$
1%
1)
1-
11
#60000
b101101001101010100101110101111101011111010101010101 !
b101101001101010100101110101011101011111010101010101 !
b101101001101010100101110101011101010111010101010101 !
b111101001101010100101110101011101010111010101010101 !
b111111001101010100101110101011101010111010101010101 !
b111111001101010101101110101011101010111010101010101 !
b111111001101010101101110111011101010111010101010101 !
b111111001101010101101110111011101110111010101010101 !
b111111001101010101101110111011101110111011101010101 !
b111111001101010101101110111011101110111011101110101 !
b111111001101010101101110111011101110111011101110111 !
b111111001101010101100110111011101110111011101110111 !
b111111001101010101100110111001101110111011101110111 !
b111111001101010101100110111001101110011011101110111 !
b111111001111010101100110111001101110011011101110111 !
b111111001111110101100110111001101110011011101110111 !
b111111001111111101100110111001101110011011101110111 !
b111111001111111111100110111001101110011011101110111 !
b110111001111111111100110111001101110011011101110111 !
b110110001111111111100110111001101110011011101110111 !
b110110001111111111100100111001101110011011101110111 !
b110110001111111111100100111001001110011011101110111 !
b110110001111111111100100111001001110010011101110111 !
b110110001111111111100100111001001110010011001110111 !
b110110001111111111100100111001001110010011001100111 !
b110110001111111111100100111001001110010011001100110 !
0x
1w
0t
1s
0p
1o
0l
0j
0i
1)!
0&!
0$!
0#!
1!!
0|
0z
0y
19!
18!
16!
14!
12!
0-!
1,!
0J!
1I!
1`
0a
1C
0D
1I
1K
1M
1O
1P
02
03
05
18
0:
0;
0=
1@
0"
0#
0%
1(
0)
1,
0-
10
01
#70000
b110110011111111111100100111001001110010011001100110 !
b110110011111111111100101111001001110010011001100110 !
b110110011111111111100101111001011110010011001100110 !
b110110010111111111100101111001011110010011001100110 !
b110110010111111111100101011001011110010011001100110 !
b110110010111111111100101011001010110010011001100110 !
b110110010111111111100001011001010110010011001100110 !
b110110010111111111100001011000010110010011001100110 !
b110110010111111111100001011000010110000011001100110 !
b110110010011111111100001011000010110000011001100110 !
b110110010010111111100001011000010110000011001100110 !
b110110010010101111100001011000010110000011001100110 !
b110110010010101011100001011000010110000011001100110 !
b110110010010101011000001011000010110000011001100110 !
b110110010010101011000001010000010110000011001100110 !
b110110010010101011000001010000010100000011001100110 !
b110110010010101010000001010000010100000011001100110 !
b110110010010101010000001000000010100000011001100110 !
b110110010010101010000001000000010000000011001100110 !
b110110010010101010001001000000010000000011001100110 !
b110110010010101010001001000010010000000011001100110 !
b110110010010101010001001000010010000100011001100110 !
b111110010010101010001001000010010000100011001100110 !
b111111010010101010001001000010010000100011001100110 !
b111111010010101010001011000010010000100011001100110 !
b111111010010101010001011000010110000100011001100110 !
b111111010010101010001011000010110000101011001100110 !
b111111010010101010001011000010110000101011101100110 !
b111111010010101010001011000010110000101011101110110 !
b111111010010101010001011000010110000101011101110111 !
1x
1t
1p
1l
0k
1j
0*!
0)!
0(!
1'!
1&!
0%!
1$!
0"!
0!!
0~
1}
1|
0{
1z
0:!
09!
07!
05!
03!
01!
00!
1/!
1-!
1J!
1a
1D
1F
0G
0H
0J
0L
0N
0P
0Q
13
04
15
16
07
08
09
1;
0<
1=
1>
0?
0@
0A
1#
0$
1%
1)
1-
11
#80000
b1111111010010101010001011000010110000101011101110111 !
b1111111010010101010001011000010110000101111101110111 !
b1111111010010101010001011000010110000101111111110111 !
b1111111010010101010001011000010110000101111111111111 !
b1011111010010101010001011000010110000101111111111111 !
b1011011010010101010001011000010110000101111111111111 !
b1011011010010101010001011000010110000101101111111111 !
b1011011010010101010001011000010110000101101110111111 !
b1011011010010101010001011000010110000101101110111011 !
b1011011010010101010011011000010110000101101110111011 !
b1011011010010101010011011000110110000101101110111011 !
b1011011010010101010011011000110110001101101110111011 !
b1001011010010101010011011000110110001101101110111011 !
b1001001010010101010011011000110110001101101110111011 !
b1001001010010101010011011000110110001101100110111011 !
b1001001010010101010011011000110110001101100110011011 !
b1001001010010101010011011000110110001101100110011001 !
b1001001010000101010011011000110110001101100110011001 !
b1001001010000001010011011000110110001101100110011001 !
b1001001010000000010011011000110110001101100110011001 !
b1001001010000000000011011000110110001101100110011001 !
b1001001010100000000011011000110110001101100110011001 !
b1001001010101000000011011000110110001101100110011001 !
b1001001010101010000011011000110110001101100110011001 !
b1001001010101010100011011000110110001101100110011001 !
b1001001010101010100111011000110110001101100110011001 !
b1001001010101010100111011001110110001101100110011001 !
b1001001010101010100111011001110110011101100110011001 !
b1001001010101010100110011001110110011101100110011001 !
b1001001010101010100110011001100110011101100110011001 !
b1001001010101010100110011001100110011001100110011001 !
b1001000010101010100110011001100110011001100110011001 !
b1001000010101010100110001001100110011001100110011001 !
b1001000010101010100110001001100010011001100110011001 !
b1001000010101010100110001001100010011000100110011001 !
b1001000010101010100110001001100010011000100010011001 !
b1001000010101010100110001001100010011000100010001001 !
b1001000010101010100110001001100010011000100010001000 !
0x
0w
0v
1u
0t
0s
0r
1q
0p
0o
0n
1m
0l
0j
1i
1*!
0&!
0$!
1#!
1"!
0|
0z
1y
1:!
08!
17!
06!
15!
04!
13!
02!
11!
0-!
0,!
0+!
0I!
0H!
1G!
1^
0_
0`
0B
0C
0D
1H
0I
1J
0K
1L
0M
1N
0O
1Q
12
03
05
19
1:
0;
0=
1A
1"
0#
0%
1&
0'
0(
0)
1*
0+
0,
0-
1.
0/
00
01
#90000
b1001000010101010100110101001100010011000100010001000 !
b1001000010101010100110101001101010011000100010001000 !
b1001000010101010100110101001101010011010100010001000 !
b1001000010101010101110101001101010011010100010001000 !
b1001000010101010101110101011101010011010100010001000 !
b1001000010101010101110101011101010111010100010001000 !
b1000000010101010101110101011101010111010100010001000 !
b1010000010101010101110101011101010111010100010001000 !
b1010000010111010101110101011101010111010100010001000 !
b1010000010111110101110101011101010111010100010001000 !
b1010000010111111101110101011101010111010100010001000 !
b1010000010111111111110101011101010111010100010001000 !
b1010000010111111111010101011101010111010100010001000 !
b1010000010111111111010101010101010111010100010001000 !
b1010000010111111111010101010101010101010100010001000 !
b1010001010111111111010101010101010101010100010001000 !
b1010001010111111111010111010101010101010100010001000 !
b1010001010111111111010111010101110101010100010001000 !
b1010001010111111111010111010101110101011100010001000 !
b1010001010111111111010111010101110101011100110001000 !
b1010001010111111111010111010101110101011100110011000 !
b1010001010111111111010111010101110101011100110011001 !
1x
1t
1p
1l
1k
0*!
1)!
1&!
1%!
0"!
1!!
1|
1{
0:!
19!
18!
16!
14!
12!
1-!
0J!
1I!
1`
0a
1D
1I
1K
1M
1O
1P
0Q
14
15
18
09
1<
1=
1@
0A
1$
1%
1)
1-
11
#100000
b1010001011111111111010111010101110101011100110011001 !
b1010011011111111111010111010101110101011100110011001 !
b1010011011111111111010111010101110101011101110011001 !
b1010011011111111111010111010101110101011101110111001 !
b1010011011111111111010111010101110101011101110111011 !
b1010011011011111111010111010101110101011101110111011 !
b1010011011010111111010111010101110101011101110111011 !
b1010011011010101111010111010101110101011101110111011 !
b1010011011010101011010111010101110101011101110111011 !
b1010011011010101011011111010101110101011101110111011 !
b1010011011010101011011111010111110101011101110111011 !
b1010011011010101011011111010111110101111101110111011 !
b1011011011010101011011111010111110101111101110111011 !
b1011011011010101001011111010111110101111101110111011 !
b1011011011010101001111111010111110101111101110111011 !
b1011011011010101001111111011111110101111101110111011 !
b1011011011010101001111111011111110111111101110111011 !
b1011010011010101001111111011111110111111101110111011 !
b1011010011010101001111101011111110111111101110111011 !
b1011010011010101001111101011111010111111101110111011 !
b1011010011010101001111101011111010111110101110111011 !
b1011010011010101001111101011111010111110101010111011 !
b1011010011010101001111101011111010111110101010101011 !
b1011010011010101001111101011111010111110101010101010 !
0x
1w
0t
1s
0p
1o
0l
1j
1*!
0&!
1$!
1"!
0|
1z
1:!
08!
07!
05!
03!
01!
10!
0-!
1,!
1J!
1a
1C
0D
1G
0H
0J
0L
0N
0O
1Q
13
05
19
1;
0=
1A
1#
0%
1(
0)
1,
0-
10
01
#110000
b1011010011010101001111101111111010111110101010101010 !
b1011010011010101001111101111111011111110101010101010 !
b1111010011010101001111101111111011111110101010101010 !
b1111010011010101001101101111111011111110101010101010 !
b1111010011010101001101101111011011111110101010101010 !
b1111010011010101001101101111011011110110101010101010 !
b1111010011010101001101001111011011110110101010101010 !
b1111010011010101001101001111010011110110101010101010 !
b1111010011010101001101001111010011110100101010101010 !
b1111010011010101000101001111010011110100101010101010 !
b1111010011010101000101001101010011110100101010101010 !
b1111010011010101000101001101010011010100101010101010 !
b1101010011010101000101001101010011010100101010101010 !
b1101010011000101000101001101010011010100101010101010 !
b1101010011000001000101001101010011010100101010101010 !
b1101010011000000000101001101010011010100101010101010 !
b1101010011100000000101001101010011010100101010101010 !
b1101010011101000000101001101010011010100101010101010 !
b1101010011101010000101001101010011010100101010101010 !
b1101010011101010100101001101010011010100101010101010 !
b1101010011101010100100001101010011010100101010101010 !
b1101010011101010100100001101000011010100101010101010 !
b1101010011101010100100001101000011010000101010101010 !
b1100010011101010100100001101000011010000101010101010 !
b1100011011101010100100001101000011010000101010101010 !
b1100011011101010100100011101000011010000101010101010 !
b1100011011101010100100011101000111010000101010101010 !
b1100011011101010100100011101000111010001101010101010 !
b1100011011101010100100011101000111010001101110101010 !
b1100011011101010100100011101000111010001101110111010 !
b1100011011101010100100011101000111010001101110111011 !
1x
1t
1p
1l
0k
0j
0i
0)!
1(!
1&!
0%!
0$!
0#!
0!!
1~
1|
0{
0z
0y
09!
17!
06!
15!
04!
13!
02!
11!
1-!
0J!
0I!
1H!
1_
0`
0a
1D
1H
0I
1J
0K
1L
0M
1N
0P
02
03
04
15
17
08
0:
0;
0<
1=
1?
0@
0"
0#
0$
1%
1)
1-
11
#120000
b1100111011101010100100011101000111010001101110111011 !
b1100111011101010100100011101000111010001111110111011 !
b1100111011101010100100011101000111010001111111111011 !
b1100111011101010100100011101000111010001111111111111 !
b1100101011101010100100011101000111010001111111111111 !
b1100101011101010100100011101000111010001110111111111 !
b1100101011101010100100011101000111010001110111011111 !
b1100101011101010100100011101000111010001110111011101 !
b1100101011101010110100011101000111010001110111011101 !
b1100101011101010110000011101000111010001110111011101 !
b1100101011101010110000011100000111010001110111011101 !
b1100101011101010110000011100000111000001110111011101 !
b1100101011101010111000011100000111000001110111011101 !
b1100101011101010111000011110000111000001110111011101 !
b1100101011101010111000011110000111100001110111011101 !
b1100101011111010111000011110000111100001110111011101 !
b1100101011111110111000011110000111100001110111011101 !
b1100101011111111111000011110000111100001110111011101 !
b1100101011111111111001011110000111100001110111011101 !
b1100101011111111111001011110010111100001110111011101 !
b1100101011111111111001011110010111100101110111011101 !
b1101101011111111111001011110010111100101110111011101 !
b1101100011111111111001011110010111100101110111011101 !
b1101100011111111111001001110010111100101110111011101 !
b1101100011111111111001001110010011100101110111011101 !
b1101100011111111111001001110010011100100110111011101 !
b1101100011111111111001001110010011100100110011011101 !
b1101100011111111111001001110010011100100110011001101 !
b1101100011111111111001001110010011100100110011001100 !
0x
0w
1v
0t
0s
1r
0p
0o
1n
0l
1j
0*!
1)!
0&!
1$!
0"!
1!!
0|
1z
0:!
19!
18!
16!
14!
12!
0-!
0,!
1+!
1J!
1a
1B
0C
0D
1I
1K
1M
1O
1P
0Q
13
05
18
09
1;
0=
1@
0A
1#
0%
1'
0(
0)
1+
0,
0-
1/
00
01
#130000
b1101100111111111111001001110010011100100110011001100 !
b1101100101111111111001001110010011100100110011001100 !
b1101100100111111111001001110010011100100110011001100 !
b1101100100111111111001101110010011100100110011001100 !
b1101100100111111111001101110011011100100110011001100 !
b1101100100111111111001101110011011100110110011001100 !
b1111100100111111111001101110011011100110110011001100 !
b1111100100011111111001101110011011100110110011001100 !
b1111100100010111111001101110011011100110110011001100 !
b1111100100010101111001101110011011100110110011001100 !
b1111100100010101011001101110011011100110110011001100 !
b1111100100010101001001101110011011100110110011001100 !
b1111100100010101001101101110011011100110110011001100 !
b1111100100010101001101101111011011100110110011001100 !
b1111100100010101001101101111011011110110110011001100 !
b1110100100010101001101101111011011110110110011001100 !
b1110101100010101001101101111011011110110110011001100 !
b1110101100010101001101111111011011110110110011001100 !
b1110101100010101001101111111011111110110110011001100 !
b1110101100010101001101111111011111110111110011001100 !
b1110101100010101001101111111011111110111110111001100 !
b1110101100010101001101111111011111110111110111011100 !
b1110101100010101001101111111011111110111110111011101 !
1x
1t
1p
1l
1k
1*!
1&!
1%!
1"!
1|
1{
1:!
08!
07!
05!
03!
01!
00!
0/!
1.!
1-!
0J!
1I!
1`
0a
1D
1E
0F
0G
0H
0J
0L
0N
0O
1Q
14
15
19
1<
1=
1A
1$
1%
1)
1-
11
#140000
b1110101100010101001101110111011111110111110111011101 !
b1110101100010101001101110111011101110111110111011101 !
b1110101100010101001101110011011101110111110111011101 !
b1110101100010101001101110011011100110111110111011101 !
b1110101100010101001111110011011100110111110111011101 !
b1110101100010101001111110011111100110111110111011101 !
b1110101100010101001111110011111100111111110111011101 !
b1110111100010101001111110011111100111111110111011101 !
b1110111100010101001111110011111100111111111111011101 !
b1110111100010101001111110011111100111111111111111101 !
b1110111100010101001111110011111100111111111111111111 !
b1110111100010101000111110011111100111111111111111111 !
b1110111100010101000111110001111100111111111111111111 !
b1110111100010101000111110001111100011111111111111111 !
b1110111100000101000111110001111100011111111111111111 !
b1110111100000001000111110001111100011111111111111111 !
b1110111100000000000111110001111100011111111111111111 !
b1110111100000000000110110001111100011111111111111111 !
b1110111100000000000110110001101100011111111111111111 !
b1110111100000000000110110001101100011011111111111111 !
b1110111100100000000110110001101100011011111111111111 !
b1110111100101000000110110001101100011011111111111111 !
b1110111100101010000110110001101100011011111111111111 !
b1110111100101010100110110001101100011011111111111111 !
b1110111100101010100010110001101100011011111111111111 !
b1110111100101010100010110000101100011011111111111111 !
b1110111100101010100010110000101100001011111111111111 !
b1111111100101010100010110000101100001011111111111111 !
b1111110100101010100010110000101100001011111111111111 !
b1111110100101010100010110000101100001010111111111111 !
b1111110100101010100010110000101100001010111011111111 !
b1111110100101010100010110000101100001010111011101111 !
b1111110100101010100010110000101100001010111011101110 !
0x
1w
0t
1s
0p
1o
0l
0j
1i
0*!
0)!
0(!
0'!
0$!
1#!
0"!
0!!
0~
0}
0z
1y
0:!
09!
17!
06!
15!
04!
13!
02!
11!
0-!
1,!
1J!
1a
1C
0D
1H
0I
1J
0K
1L
0M
1N
0P
0Q
12
03
06
07
08
09
1:
0;
0>
0?
0@
0A
1"
0#
0%
1(
0)
1,
0-
10
01
#150000
b11111110100101010100010110000101100001010111011101110 !
b10111110100101010100010110000101100001010111011101110 !
b10011110100101010100010110000101100001010111011101110 !
b10011110100101010100010110000101100001000111011101110 !
b10001110100101010100010110000101100001000111011101110 !
b10001110100101010110010110000101100001000111011101110 !
b10001110100101010110010100000101100001000111011101110 !
b10001110100101010110010100000101000001000111011101110 !
b10001110100111010110010100000101000001000111011101110 !
b10001110100111110110010100000101000001000111011101110 !
b10001110100111111110010100000101000001000111011101110 !
b10001110100111111110011100000101000001000111011101110 !
b10001110100111111110011100000111000001000111011101110 !
b10001110100111111110011100000111000001100111011101110 !
b10001110100111111110111100000111000001100111011101110 !
b10001110100111111110111100001111000001100111011101110 !
b10001110100111111110111100001111000011100111011101110 !
b10000110100111111110111100001111000011100111011101110 !
b10000111100111111110111100001111000011100111011101110 !
b10000111100111111110111100001111000011101111011101110 !
b10000111100111111110111100001111000011101111111101110 !
b10000111100111111110111100001111000011101111111111110 !
b10000111100111111110111100001111000011101111111111111 !
1x
1t
1p
1l
0k
1j
1*!
0&!
1$!
1"!
0|
1z
1:!
18!
16!
14!
12!
1-!
0J!
0I!
0H!
0G!
1F!
1]
0^
0_
0`
0a
1D
1I
1K
1M
1O
1Q
13
05
19
1;
0=
1A
1#
0$
1%
1)
1-
11
