A- current/a-Fpga implementation/16_bit/simulation/qsim/clockmod2.msim.vcd
$comment
	File created using the following command:
		vcd file clockmod2.msim.vcd -direction
$end
$date
	Mon Oct 17 14:39:30 2022
$end
$version
	ModelSim Version 2020.1
$end
$timescale
	1ps
$end

$scope module clockmod2_vlg_vec_tst $end
$var reg 1 ! CLOCK_50 $end
$var reg 1 " generala $end
$var reg 1 # s0 $end
$var reg 1 $ s1 $end
$var reg 1 % s2 $end
$var reg 1 & s3 $end
$var wire 1 ' enableset1 [15] $end
$var wire 1 ( enableset1 [14] $end
$var wire 1 ) enableset1 [13] $end
$var wire 1 * enableset1 [12] $end
$var wire 1 + enableset1 [11] $end
$var wire 1 , enableset1 [10] $end
$var wire 1 - enableset1 [9] $end
$var wire 1 . enableset1 [8] $end
$var wire 1 / enableset1 [7] $end
$var wire 1 0 enableset1 [6] $end
$var wire 1 1 enableset1 [5] $end
$var wire 1 2 enableset1 [4] $end
$var wire 1 3 enableset1 [3] $end
$var wire 1 4 enableset1 [2] $end
$var wire 1 5 enableset1 [1] $end
$var wire 1 6 enableset1 [0] $end
$var wire 1 7 enableset2 [15] $end
$var wire 1 8 enableset2 [14] $end
$var wire 1 9 enableset2 [13] $end
$var wire 1 : enableset2 [12] $end
$var wire 1 ; enableset2 [11] $end
$var wire 1 < enableset2 [10] $end
$var wire 1 = enableset2 [9] $end
$var wire 1 > enableset2 [8] $end
$var wire 1 ? enableset2 [7] $end
$var wire 1 @ enableset2 [6] $end
$var wire 1 A enableset2 [5] $end
$var wire 1 B enableset2 [4] $end
$var wire 1 C enableset2 [3] $end
$var wire 1 D enableset2 [2] $end
$var wire 1 E enableset2 [1] $end
$var wire 1 F enableset2 [0] $end
$var wire 1 G frequency_set [15] $end
$var wire 1 H frequency_set [14] $end
$var wire 1 I frequency_set [13] $end
$var wire 1 J frequency_set [12] $end
$var wire 1 K frequency_set [11] $end
$var wire 1 L frequency_set [10] $end
$var wire 1 M frequency_set [9] $end
$var wire 1 N frequency_set [8] $end
$var wire 1 O frequency_set [7] $end
$var wire 1 P frequency_set [6] $end
$var wire 1 Q frequency_set [5] $end
$var wire 1 R frequency_set [4] $end
$var wire 1 S frequency_set [3] $end
$var wire 1 T frequency_set [2] $end
$var wire 1 U frequency_set [1] $end
$var wire 1 V frequency_set [0] $end
$var wire 1 W generalc $end
$var wire 1 X main_clock $end

$scope module i1 $end
$var wire 1 Y gnd $end
$var wire 1 Z vcc $end
$var wire 1 [ unknown $end
$var tri1 1 \ devclrn $end
$var tri1 1 ] devpor $end
$var tri1 1 ^ devoe $end
$var wire 1 _ generala~input_o $end
$var wire 1 ` ~QUARTUS_CREATED_GND~I_combout $end
$var wire 1 a s3~input_o $end
$var wire 1 b s0~input_o $end
$var wire 1 c s2~input_o $end
$var wire 1 d CLOCK_50~input_o $end
$var wire 1 e CLOCK_50~inputCLKENA0_outclk $end
$var wire 1 f inst|LPM_COUNTER_component|auto_generated|counter_comb_bita0~sumout $end
$var wire 1 g inst|LPM_COUNTER_component|auto_generated|counter_comb_bita0~COUT $end
$var wire 1 h inst|LPM_COUNTER_component|auto_generated|counter_comb_bita1~sumout $end
$var wire 1 i inst|LPM_COUNTER_component|auto_generated|counter_comb_bita1~COUT $end
$var wire 1 j inst|LPM_COUNTER_component|auto_generated|counter_comb_bita2~sumout $end
$var wire 1 k inst|LPM_COUNTER_component|auto_generated|counter_comb_bita2~COUT $end
$var wire 1 l inst|LPM_COUNTER_component|auto_generated|counter_comb_bita3~sumout $end
$var wire 1 m inst|LPM_COUNTER_component|auto_generated|counter_comb_bita3~COUT $end
$var wire 1 n inst|LPM_COUNTER_component|auto_generated|counter_comb_bita4~sumout $end
$var wire 1 o inst|LPM_COUNTER_component|auto_generated|counter_comb_bita4~COUT $end
$var wire 1 p inst|LPM_COUNTER_component|auto_generated|counter_comb_bita5~sumout $end
$var wire 1 q inst|LPM_COUNTER_component|auto_generated|counter_comb_bita5~COUT $end
$var wire 1 r inst|LPM_COUNTER_component|auto_generated|counter_comb_bita6~sumout $end
$var wire 1 s inst|LPM_COUNTER_component|auto_generated|counter_comb_bita6~COUT $end
$var wire 1 t inst|LPM_COUNTER_component|auto_generated|counter_comb_bita7~sumout $end
$var wire 1 u inst|LPM_COUNTER_component|auto_generated|counter_comb_bita7~COUT $end
$var wire 1 v inst|LPM_COUNTER_component|auto_generated|counter_comb_bita8~sumout $end
$var wire 1 w inst|LPM_COUNTER_component|auto_generated|counter_comb_bita8~COUT $end
$var wire 1 x inst|LPM_COUNTER_component|auto_generated|counter_comb_bita9~sumout $end
$var wire 1 y inst|LPM_COUNTER_component|auto_generated|counter_comb_bita9~COUT $end
$var wire 1 z inst|LPM_COUNTER_component|auto_generated|counter_comb_bita10~sumout $end
$var wire 1 { inst|LPM_COUNTER_component|auto_generated|counter_reg_bit[10]~DUPLICATE_q $end
$var wire 1 | inst|LPM_COUNTER_component|auto_generated|counter_comb_bita10~COUT $end
$var wire 1 } inst|LPM_COUNTER_component|auto_generated|counter_comb_bita11~sumout $end
$var wire 1 ~ inst|LPM_COUNTER_component|auto_generated|counter_comb_bita11~COUT $end
$var wire 1 !! inst|LPM_COUNTER_component|auto_generated|counter_comb_bita12~sumout $end
$var wire 1 "! inst|LPM_COUNTER_component|auto_generated|counter_comb_bita12~COUT $end
$var wire 1 #! inst|LPM_COUNTER_component|auto_generated|counter_comb_bita13~sumout $end
$var wire 1 $! inst|LPM_COUNTER_component|auto_generated|counter_comb_bita13~COUT $end
$var wire 1 %! inst|LPM_COUNTER_component|auto_generated|counter_comb_bita14~sumout $end
$var wire 1 &! inst|LPM_COUNTER_component|auto_generated|counter_comb_bita14~COUT $end
$var wire 1 '! inst|LPM_COUNTER_component|auto_generated|counter_comb_bita15~sumout $end
$var wire 1 (! inst|LPM_COUNTER_component|auto_generated|counter_comb_bita15~COUT $end
$var wire 1 )! inst|LPM_COUNTER_component|auto_generated|counter_comb_bita16~sumout $end
$var wire 1 *! inst|LPM_COUNTER_component|auto_generated|counter_reg_bit[16]~DUPLICATE_q $end
$var wire 1 +! inst|LPM_COUNTER_component|auto_generated|counter_comb_bita16~COUT $end
$var wire 1 ,! inst|LPM_COUNTER_component|auto_generated|counter_comb_bita17~sumout $end
$var wire 1 -! inst|LPM_COUNTER_component|auto_generated|counter_comb_bita17~COUT $end
$var wire 1 .! inst|LPM_COUNTER_component|auto_generated|counter_comb_bita18~sumout $end
$var wire 1 /! inst|LPM_COUNTER_component|auto_generated|counter_reg_bit[18]~DUPLICATE_q $end
$var wire 1 0! inst|LPM_COUNTER_component|auto_generated|counter_comb_bita18~COUT $end
$var wire 1 1! inst|LPM_COUNTER_component|auto_generated|counter_comb_bita19~sumout $end
$var wire 1 2! inst|LPM_COUNTER_component|auto_generated|counter_comb_bita19~COUT $end
$var wire 1 3! inst|LPM_COUNTER_component|auto_generated|counter_comb_bita20~sumout $end
$var wire 1 4! s1~input_o $end
$var wire 1 5! inst17~1_combout $end
$var wire 1 6! inst|LPM_COUNTER_component|auto_generated|counter_reg_bit[22]~DUPLICATE_q $end
$var wire 1 7! inst|LPM_COUNTER_component|auto_generated|counter_comb_bita20~COUT $end
$var wire 1 8! inst|LPM_COUNTER_component|auto_generated|counter_comb_bita21~sumout $end
$var wire 1 9! inst|LPM_COUNTER_component|auto_generated|counter_comb_bita21~COUT $end
$var wire 1 :! inst|LPM_COUNTER_component|auto_generated|counter_comb_bita22~sumout $end
$var wire 1 ;! inst|LPM_COUNTER_component|auto_generated|counter_comb_bita22~COUT $end
$var wire 1 <! inst|LPM_COUNTER_component|auto_generated|counter_comb_bita23~sumout $end
$var wire 1 =! inst|LPM_COUNTER_component|auto_generated|counter_comb_bita23~COUT $end
$var wire 1 >! inst|LPM_COUNTER_component|auto_generated|counter_comb_bita24~sumout $end
$var wire 1 ?! inst17~4_combout $end
$var wire 1 @! inst17~0_combout $end
$var wire 1 A! inst17~3_combout $end
$var wire 1 B! inst|LPM_COUNTER_component|auto_generated|counter_comb_bita24~COUT $end
$var wire 1 C! inst|LPM_COUNTER_component|auto_generated|counter_comb_bita25~sumout $end
$var wire 1 D! inst|LPM_COUNTER_component|auto_generated|counter_reg_bit[25]~DUPLICATE_q $end
$var wire 1 E! inst17~2_combout $end
$var wire 1 F! inst|LPM_COUNTER_component|auto_generated|counter_reg_bit[4]~DUPLICATE_q $end
$var wire 1 G! inst|LPM_COUNTER_component|auto_generated|counter_reg_bit[0]~DUPLICATE_q $end
$var wire 1 H! inst17~5_combout $end
$var wire 1 I! inst8|f[3]~1_combout $end
$var wire 1 J! inst8|f[2]~0_combout $end
$var wire 1 K! inst17~6_combout $end
$var wire 1 L! inst17~combout $end
$var wire 1 M! inst8|f[7]~2_combout $end
$var wire 1 N! inst8|f[6]~3_combout $end
$var wire 1 O! inst8|f[5]~4_combout $end
$var wire 1 P! inst8|f[4]~5_combout $end
$var wire 1 Q! inst8|f[1]~6_combout $end
$var wire 1 R! inst8|f[0]~7_combout $end
$var wire 1 S! inst9|f[7]~0_combout $end
$var wire 1 T! inst9|f[6]~1_combout $end
$var wire 1 U! inst9|f[5]~2_combout $end
$var wire 1 V! inst9|f[4]~3_combout $end
$var wire 1 W! inst9|f[3]~4_combout $end
$var wire 1 X! inst9|f[2]~5_combout $end
$var wire 1 Y! inst9|f[1]~6_combout $end
$var wire 1 Z! inst9|f[0]~7_combout $end
$var wire 1 [! inst|LPM_COUNTER_component|auto_generated|counter_reg_bit [31] $end
$var wire 1 \! inst|LPM_COUNTER_component|auto_generated|counter_reg_bit [30] $end
$var wire 1 ]! inst|LPM_COUNTER_component|auto_generated|counter_reg_bit [29] $end
$var wire 1 ^! inst|LPM_COUNTER_component|auto_generated|counter_reg_bit [28] $end
$var wire 1 _! inst|LPM_COUNTER_component|auto_generated|counter_reg_bit [27] $end
$var wire 1 `! inst|LPM_COUNTER_component|auto_generated|counter_reg_bit [26] $end
$var wire 1 a! inst|LPM_COUNTER_component|auto_generated|counter_reg_bit [25] $end
$var wire 1 b! inst|LPM_COUNTER_component|auto_generated|counter_reg_bit [24] $end
$var wire 1 c! inst|LPM_COUNTER_component|auto_generated|counter_reg_bit [23] $end
$var wire 1 d! inst|LPM_COUNTER_component|auto_generated|counter_reg_bit [22] $end
$var wire 1 e! inst|LPM_COUNTER_component|auto_generated|counter_reg_bit [21] $end
$var wire 1 f! inst|LPM_COUNTER_component|auto_generated|counter_reg_bit [20] $end
$var wire 1 g! inst|LPM_COUNTER_component|auto_generated|counter_reg_bit [19] $end
$var wire 1 h! inst|LPM_COUNTER_component|auto_generated|counter_reg_bit [18] $end
$var wire 1 i! inst|LPM_COUNTER_component|auto_generated|counter_reg_bit [17] $end
$var wire 1 j! inst|LPM_COUNTER_component|auto_generated|counter_reg_bit [16] $end
$var wire 1 k! inst|LPM_COUNTER_component|auto_generated|counter_reg_bit [15] $end
$var wire 1 l! inst|LPM_COUNTER_component|auto_generated|counter_reg_bit [14] $end
$var wire 1 m! inst|LPM_COUNTER_component|auto_generated|counter_reg_bit [13] $end
$var wire 1 n! inst|LPM_COUNTER_component|auto_generated|counter_reg_bit [12] $end
$var wire 1 o! inst|LPM_COUNTER_component|auto_generated|counter_reg_bit [11] $end
$var wire 1 p! inst|LPM_COUNTER_component|auto_generated|counter_reg_bit [10] $end
$var wire 1 q! inst|LPM_COUNTER_component|auto_generated|counter_reg_bit [9] $end
$var wire 1 r! inst|LPM_COUNTER_component|auto_generated|counter_reg_bit [8] $end
$var wire 1 s! inst|LPM_COUNTER_component|auto_generated|counter_reg_bit [7] $end
$var wire 1 t! inst|LPM_COUNTER_component|auto_generated|counter_reg_bit [6] $end
$var wire 1 u! inst|LPM_COUNTER_component|auto_generated|counter_reg_bit [5] $end
$var wire 1 v! inst|LPM_COUNTER_component|auto_generated|counter_reg_bit [4] $end
$var wire 1 w! inst|LPM_COUNTER_component|auto_generated|counter_reg_bit [3] $end
$var wire 1 x! inst|LPM_COUNTER_component|auto_generated|counter_reg_bit [2] $end
$var wire 1 y! inst|LPM_COUNTER_component|auto_generated|counter_reg_bit [1] $end
$var wire 1 z! inst|LPM_COUNTER_component|auto_generated|counter_reg_bit [0] $end
$upscope $end
$upscope $end
$enddefinitions $end
#0
$dumpvars
0!
x"
0#
1$
0%
0&
06
05
14
03
02
01
00
0/
0.
0-
0,
0+
0*
0)
0(
0'
0F
0E
0D
0C
0B
0A
0@
0?
0>
0=
0<
0;
0:
09
08
07
0V
0U
0T
0S
0R
0Q
0P
0O
0N
0M
0L
0K
0J
0I
0H
0G
0W
0X
0Y
1Z
x[
1\
1]
1^
x_
0`
0a
0b
0c
0d
0e
1f
0g
0h
0i
0j
0k
0l
0m
0n
0o
0p
0q
0r
0s
0t
0u
0v
0w
0x
0y
0z
0{
0|
0}
0~
0!!
0"!
0#!
0$!
0%!
0&!
0'!
0(!
0)!
0*!
0+!
0,!
0-!
0.!
0/!
00!
01!
02!
03!
14!
05!
06!
07!
08!
09!
0:!
0;!
0<!
0=!
0>!
0?!
0@!
0A!
0B!
0C!
0D!
0E!
0F!
0G!
0H!
0I!
1J!
1K!
0L!
0M!
0N!
0O!
0P!
0Q!
0R!
0S!
0T!
0U!
0V!
0W!
0X!
0Y!
0Z!
0z!
0y!
0x!
0w!
0v!
0u!
0t!
0s!
0r!
0q!
0p!
0o!
0n!
0m!
0l!
0k!
0j!
0i!
0h!
0g!
0f!
0e!
0d!
0c!
0b!
0a!
z`!
z_!
z^!
z]!
z\!
z[!
$end
#2000
1!
1d
1e
1z!
1G!
1V
1g
0f
1h
#4000
0!
0d
0e
#6000
1!
1d
1e
1y!
0z!
0G!
0V
0g
1f
1i
0h
0i
1h
1j
0j
#8000
0!
0d
0e
#10000
1!
1d
1e
1z!
1G!
1V
1g
0f
1i
0h
1j
#12000
0!
0d
0e
#14000
1!
1d
1e
0y!
0z!
0G!
1x!
1U
0V
0g
1f
0i
1h
1k
0j
0h
0k
1j
1l
0l
#16000
0!
0d
0e
#18000
1!
1d
1e
1z!
1G!
1V
1g
0f
1h
#20000
0!
0d
0e
#22000
1!
1d
1e
1y!
0z!
0G!
0V
0g
1f
1i
0h
0i
1h
1k
0j
0k
1j
1l
0l
#24000
0!
0d
0e
#26000
1!
1d
1e
1z!
1G!
1V
1g
0f
1i
0h
1k
0j
1l
#28000
0!
0d
0e
#30000
1!
1d
1e
1w!
0y!
0z!
0G!
0x!
0U
0V
0g
1f
0i
1h
1m
0l
0k
1j
0h
0j
0m
1l
1n
0n
#32000
0!
0d
0e
#34000
1!
1d
1e
1z!
1G!
1V
1g
0f
1h
#36000
0!
0d
0e
#38000
1!
1d
1e
1y!
0z!
0G!
0V
0g
1f
1i
0h
0i
1h
1j
0j
#40000
0!
0d
0e
#42000
1!
1d
1e
1z!
1G!
1V
1g
0f
1i
0h
1j
#44000
0!
0d
0e
#46000
1!
1d
1e
0y!
0z!
0G!
1x!
1U
0V
0g
1f
0i
1h
1k
0j
0h
0k
1j
1m
0l
0m
1l
1n
0n
#48000
0!
0d
0e
#50000
1!
1d
1e
1z!
1G!
1V
1g
0f
1h
#52000
0!
0d
0e
#54000
1!
1d
1e
1y!
0z!
0G!
0V
0g
1f
1i
0h
0i
1h
1k
0j
0k
1j
1m
0l
0m
1l
1n
0n
#56000
0!
0d
0e
#58000
1!
1d
1e
1z!
1G!
1V
1g
0f
1i
0h
1k
0j
1m
0l
1n
#60000
0!
0d
0e
#62000
1!
1d
1e
1v!
0w!
0y!
0z!
0G!
1F!
0x!
0U
1T
0V
0g
1f
0i
1h
0m
1l
1o
0k
1j
0K!
0n
0h
0j
0o
0l
1n
1p
1L!
1X
0p
#64000
0!
0d
0e
#66000
1!
1d
1e
1z!
1G!
1V
1g
0f
1h
#68000
0!
0d
0e
#70000
1!
1d
1e
1y!
0z!
0G!
0V
0g
1f
1i
0h
0i
1h
1j
0j
#72000
0!
0d
0e
#74000
1!
1d
1e
1z!
1G!
1V
1g
0f
1i
0h
1j
#76000
0!
0d
0e
#78000
1!
1d
1e
0y!
0z!
0G!
1x!
1U
0V
0g
1f
0i
1h
1k
0j
0h
0k
1j
1l
0l
#80000
0!
0d
0e
#82000
1!
1d
1e
1z!
1G!
1V
1g
0f
1h
#84000
0!
0d
0e
#86000
1!
1d
1e
1y!
0z!
0G!
0V
0g
1f
1i
0h
0i
1h
1k
0j
0k
1j
1l
0l
#88000
0!
0d
0e
#90000
1!
1d
1e
1z!
1G!
1V
1g
0f
1i
0h
1k
0j
1l
#92000
0!
0d
0e
#94000
1!
1d
1e
1w!
0y!
0z!
0G!
0x!
0U
0V
0g
1f
0i
1h
1m
0l
0k
1j
0h
0j
1o
0m
1l
0n
0o
1p
1n
0p
#96000
0!
0d
0e
#98000
1!
1d
1e
1z!
1G!
1V
1g
0f
1h
#100000
0!
0d
0e
#102000
1!
1d
1e
1y!
0z!
0G!
0V
0g
1f
1i
0h
0i
1h
1j
0j
#104000
0!
0d
0e
#106000
1!
1d
1e
1z!
1G!
1V
1g
0f
1i
0h
1j
#108000
0!
0d
0e
#110000
1!
1d
1e
0y!
0z!
0G!
1x!
1U
0V
0g
1f
0i
1h
1k
0j
0h
0k
1j
1m
0l
0m
1l
1o
0n
0o
1n
1p
0p
#112000
0!
0d
0e
#114000
1!
1d
1e
1z!
1G!
1V
1g
0f
1h
#116000
0!
0d
0e
#118000
1!
1d
1e
1y!
0z!
0G!
0V
0g
1f
1i
0h
0i
1h
1k
0j
0k
1j
1m
0l
0m
1l
1o
0n
0o
1n
1p
0p
#120000
0!
0d
0e
#122000
1!
1d
1e
1z!
1G!
1V
1g
0f
1i
0h
1k
0j
1m
0l
1o
0n
1p
#124000
0!
0d
0e
#126000
1!
1d
1e
1u!
0v!
0w!
0y!
0z!
0G!
0F!
0x!
0U
0T
0V
0g
1f
0i
1h
0m
1l
0o
1q
0k
1j
1K!
1n
0p
0h
0j
0q
0l
0n
1p
1r
0L!
0X
0r
#128000
0!
0d
0e
#130000
1!
1d
1e
1z!
1G!
1V
1g
0f
1h
#132000
0!
0d
0e
#134000
1!
1d
1e
1y!
0z!
0G!
0V
0g
1f
1i
0h
0i
1h
1j
0j
#136000
0!
0d
0e
#138000
1!
1d
1e
1z!
1G!
1V
1g
0f
1i
0h
1j
#140000
0!
0d
0e
#142000
1!
1d
1e
0y!
0z!
0G!
1x!
1U
0V
0g
1f
0i
1h
1k
0j
0h
0k
1j
1l
0l
#144000
0!
0d
0e
#146000
1!
1d
1e
1z!
1G!
1V
1g
0f
1h
#148000
0!
0d
0e
#150000
1!
1d
1e
1y!
0z!
0G!
0V
0g
1f
1i
0h
0i
1h
1k
0j
0k
1j
1l
0l
#152000
0!
0d
0e
#154000
1!
1d
1e
1z!
1G!
1V
1g
0f
1i
0h
1k
0j
1l
#156000
0!
0d
0e
#158000
1!
1d
1e
1w!
0y!
0z!
0G!
0x!
0U
0V
0g
1f
0i
1h
1m
0l
0k
1j
0h
0j
0m
1l
1n
0n
#160000
0!
0d
0e
#162000
1!
1d
1e
1z!
1G!
1V
1g
0f
1h
#164000
0!
0d
0e
#166000
1!
1d
1e
1y!
0z!
0G!
0V
0g
1f
1i
0h
0i
1h
1j
0j
#168000
0!
0d
0e
#170000
1!
1d
1e
1z!
1G!
1V
1g
0f
1i
0h
1j
#172000
0!
0d
0e
#174000
1!
1d
1e
0y!
0z!
0G!
1x!
1U
0V
0g
1f
0i
1h
1k
0j
0h
0k
1j
1m
0l
0m
1l
1n
0n
#176000
0!
0d
0e
#178000
1!
1d
1e
1z!
1G!
1V
1g
0f
1h
#180000
0!
0d
0e
#182000
1!
1d
1e
1y!
0z!
0G!
0V
0g
1f
1i
0h
0i
1h
1k
0j
0k
1j
1m
0l
0m
1l
1n
0n
#184000
0!
0d
0e
#186000
1!
1d
1e
1z!
1G!
1V
1g
0f
1i
0h
1k
0j
1m
0l
1n
#188000
0!
0d
0e
#190000
1!
1d
1e
1v!
0w!
0y!
0z!
0G!
1F!
0x!
0U
1T
0V
0g
1f
0i
1h
0m
1l
1o
0k
1j
0K!
0n
0h
0j
0o
1q
0l
1n
0p
1L!
1X
0q
1p
1r
0r
#192000
0!
0d
0e
#194000
1!
1d
1e
1z!
1G!
1V
1g
0f
1h
#196000
0!
0d
0e
#198000
1!
1d
1e
1y!
0z!
0G!
0V
0g
1f
1i
0h
0i
1h
1j
0j
#200000
0!
0d
0e
#202000
1!
1d
1e
1z!
1G!
1V
1g
0f
1i
0h
1j
#204000
0!
0d
0e
#206000
1!
1d
1e
0y!
0z!
0G!
1x!
1U
0V
0g
1f
0i
1h
1k
0j
0h
0k
1j
1l
0l
#208000
0!
0d
0e
#210000
1!
1d
1e
1z!
1G!
1V
1g
0f
1h
#212000
0!
0d
0e
#214000
1!
1d
1e
1y!
0z!
0G!
0V
0g
1f
1i
0h
0i
1h
1k
0j
0k
1j
1l
0l
#216000
0!
0d
0e
#218000
1!
1d
1e
1z!
1G!
1V
1g
0f
1i
0h
1k
0j
1l
#220000
0!
0d
0e
#222000
1!
1d
1e
1w!
0y!
0z!
0G!
0x!
0U
0V
0g
1f
0i
1h
1m
0l
0k
1j
0h
0j
1o
0m
1l
0n
1q
0o
0p
1n
0q
1r
1p
0r
#224000
0!
0d
0e
#226000
1!
1d
1e
1z!
1G!
1V
1g
0f
1h
#228000
0!
0d
0e
#230000
1!
1d
1e
1y!
0z!
0G!
0V
0g
1f
1i
0h
0i
1h
1j
0j
#232000
0!
0d
0e
#234000
1!
1d
1e
1z!
1G!
1V
1g
0f
1i
0h
1j
#236000
0!
0d
0e
#238000
1!
1d
1e
0y!
0z!
0G!
1x!
1U
0V
0g
1f
0i
1h
1k
0j
0h
0k
1j
1m
0l
0m
1l
1o
0n
0o
1q
1n
0p
0q
1p
1r
0r
#240000
0!
0d
0e
#242000
1!
1d
1e
1z!
1G!
1V
1g
0f
1h
#244000
0!
0d
0e
#246000
1!
1d
1e
1y!
0z!
0G!
0V
0g
1f
1i
0h
0i
1h
1k
0j
0k
1j
1m
0l
0m
1l
1o
0n
0o
1q
1n
0p
0q
1p
1r
0r
#248000
0!
0d
0e
#250000
1!
1d
1e
1z!
1G!
1V
1g
0f
1i
0h
1k
0j
1m
0l
1o
0n
1q
0p
1r
#252000
0!
0d
0e
#254000
1!
1d
1e
0u!
0v!
0w!
0y!
0z!
0G!
0F!
1t!
0x!
0U
1S
0T
0V
0g
1f
0i
1h
0m
1l
0o
0q
0k
1j
1K!
1s
1n
1p
0r
0h
0j
0s
0l
0n
0p
1r
1t
0L!
0X
0t
#256000
0!
0d
0e
#258000
1!
1d
1e
1z!
1G!
1V
1g
0f
1h
#260000
0!
0d
0e
#262000
1!
1d
1e
1y!
0z!
0G!
0V
0g
1f
1i
0h
0i
1h
1j
0j
#264000
0!
0d
0e
#266000
1!
1d
1e
1z!
1G!
1V
1g
0f
1i
0h
1j
#268000
0!
0d
0e
#270000
1!
1d
1e
0y!
0z!
0G!
1x!
1U
0V
0g
1f
0i
1h
1k
0j
0h
0k
1j
1l
0l
#272000
0!
0d
0e
#274000
1!
1d
1e
1z!
1G!
1V
1g
0f
1h
#276000
0!
0d
0e
#278000
1!
1d
1e
1y!
0z!
0G!
0V
0g
1f
1i
0h
0i
1h
1k
0j
0k
1j
1l
0l
#280000
0!
0d
0e
#282000
1!
1d
1e
1z!
1G!
1V
1g
0f
1i
0h
1k
0j
1l
#284000
0!
0d
0e
#286000
1!
1d
1e
1w!
0y!
0z!
0G!
0x!
0U
0V
0g
1f
0i
1h
1m
0l
0k
1j
0h
0j
0m
1l
1n
0n
#288000
0!
0d
0e
#290000
1!
1d
1e
1z!
1G!
1V
1g
0f
1h
#292000
0!
0d
0e
#294000
1!
1d
1e
1y!
0z!
0G!
0V
0g
1f
1i
0h
0i
1h
1j
0j
#296000
0!
0d
0e
#298000
1!
1d
1e
1z!
1G!
1V
1g
0f
1i
0h
1j
#300000
0!
0d
0e
#302000
1!
1d
1e
0y!
0z!
0G!
1x!
1U
0V
0g
1f
0i
1h
1k
0j
0h
0k
1j
1m
0l
0m
1l
1n
0n
#304000
0!
0d
0e
#306000
1!
1d
1e
1z!
1G!
1V
1g
0f
1h
#308000
0!
0d
0e
#310000
1!
1d
1e
1y!
0z!
0G!
0V
0g
1f
1i
0h
0i
1h
1k
0j
0k
1j
1m
0l
0m
1l
1n
0n
#312000
0!
0d
0e
#314000
1!
1d
1e
1z!
1G!
1V
1g
0f
1i
0h
1k
0j
1m
0l
1n
#316000
0!
0d
0e
#318000
1!
1d
1e
1v!
0w!
0y!
0z!
0G!
1F!
0x!
0U
1T
0V
0g
1f
0i
1h
0m
1l
1o
0k
1j
0K!
0n
0h
0j
0o
0l
1n
1p
1L!
1X
0p
#320000
0!
0d
0e
#322000
1!
1d
1e
1z!
1G!
1V
1g
0f
1h
#324000
0!
0d
0e
#326000
1!
1d
1e
1y!
0z!
0G!
0V
0g
1f
1i
0h
0i
1h
1j
0j
#328000
0!
0d
0e
#330000
1!
1d
1e
1z!
1G!
1V
1g
0f
1i
0h
1j
#332000
0!
0d
0e
#334000
1!
1d
1e
0y!
0z!
0G!
1x!
1U
0V
0g
1f
0i
1h
1k
0j
0h
0k
1j
1l
0l
#336000
0!
0d
0e
#338000
1!
1d
1e
1z!
1G!
1V
1g
0f
1h
#340000
0!
0d
0e
#342000
1!
1d
1e
1y!
0z!
0G!
0V
0g
1f
1i
0h
0i
1h
1k
0j
0k
1j
1l
0l
#344000
0!
0d
0e
#346000
1!
1d
1e
1z!
1G!
1V
1g
0f
1i
0h
1k
0j
1l
#348000
0!
0d
0e
#350000
1!
1d
1e
1w!
0y!
0z!
0G!
0x!
0U
0V
0g
1f
0i
1h
1m
0l
0k
1j
0h
0j
1o
0m
1l
0n
0o
1p
1n
0p
#352000
0!
0d
0e
#354000
1!
1d
1e
1z!
1G!
1V
1g
0f
1h
#356000
0!
0d
0e
#358000
1!
1d
1e
1y!
0z!
0G!
0V
0g
1f
1i
0h
0i
1h
1j
0j
#360000
0!
0d
0e
#362000
1!
1d
1e
1z!
1G!
1V
1g
0f
1i
0h
1j
#364000
0!
0d
0e
#366000
1!
1d
1e
0y!
0z!
0G!
1x!
1U
0V
0g
1f
0i
1h
1k
0j
0h
0k
1j
1m
0l
0m
1l
1o
0n
0o
1n
1p
0p
#368000
0!
0d
0e
#370000
1!
1d
1e
1z!
1G!
1V
1g
0f
1h
#372000
0!
0d
0e
#374000
1!
1d
1e
1y!
0z!
0G!
0V
0g
1f
1i
0h
0i
1h
1k
0j
0k
1j
1m
0l
0m
1l
1o
0n
0o
1n
1p
0p
#376000
0!
0d
0e
#378000
1!
1d
1e
1z!
1G!
1V
1g
0f
1i
0h
1k
0j
1m
0l
1o
0n
1p
#380000
0!
0d
0e
#382000
1!
1d
1e
1u!
0v!
0w!
0y!
0z!
0G!
0F!
0x!
0U
0T
0V
0g
1f
0i
1h
0m
1l
0o
1q
0k
1j
1K!
1n
0p
0h
0j
0q
1s
0l
0n
1p
0r
0L!
0X
0s
1r
1t
0t
#384000
0!
0d
0e
#386000
1!
1d
1e
1z!
1G!
1V
1g
0f
1h
#388000
0!
0d
0e
#390000
1!
1d
1e
1y!
0z!
0G!
0V
0g
1f
1i
0h
0i
1h
1j
0j
#392000
0!
0d
0e
#394000
1!
1d
1e
1z!
1G!
1V
1g
0f
1i
0h
1j
#396000
0!
0d
0e
#398000
1!
1d
1e
0y!
0z!
0G!
1x!
1U
0V
0g
1f
0i
1h
1k
0j
0h
0k
1j
1l
0l
#400000
0!
0d
0e
#402000
1!
1d
1e
1z!
1G!
1V
1g
0f
1h
#404000
0!
0d
0e
#406000
1!
1d
1e
1y!
0z!
0G!
0V
0g
1f
1i
0h
0i
1h
1k
0j
0k
1j
1l
0l
#408000
0!
0d
0e
#410000
1!
1d
1e
1z!
1G!
1V
1g
0f
1i
0h
1k
0j
1l
#412000
0!
0d
0e
#414000
1!
1d
1e
1w!
0y!
0z!
0G!
0x!
0U
0V
0g
1f
0i
1h
1m
0l
0k
1j
0h
0j
0m
1l
1n
0n
#416000
0!
0d
0e
#418000
1!
1d
1e
1z!
1G!
1V
1g
0f
1h
#420000
0!
0d
0e
#422000
1!
1d
1e
1y!
0z!
0G!
0V
0g
1f
1i
0h
0i
1h
1j
0j
#424000
0!
0d
0e
#426000
1!
1d
1e
1z!
1G!
1V
1g
0f
1i
0h
1j
#428000
0!
0d
0e
#430000
1!
1d
1e
0y!
0z!
0G!
1x!
1U
0V
0g
1f
0i
1h
1k
0j
0h
0k
1j
1m
0l
0m
1l
1n
0n
#432000
0!
0d
0e
#434000
1!
1d
1e
1z!
1G!
1V
1g
0f
1h
#436000
0!
0d
0e
#438000
1!
1d
1e
1y!
0z!
0G!
0V
0g
1f
1i
0h
0i
1h
1k
0j
0k
1j
1m
0l
0m
1l
1n
0n
#440000
0!
0d
0e
#442000
1!
1d
1e
1z!
1G!
1V
1g
0f
1i
0h
1k
0j
1m
0l
1n
#444000
0!
0d
0e
#446000
1!
1d
1e
1v!
0w!
0y!
0z!
0G!
1F!
0x!
0U
1T
0V
0g
1f
0i
1h
0m
1l
1o
0k
1j
0K!
0n
0h
0j
0o
1q
0l
1n
0p
1L!
1X
0q
1s
1p
0r
0s
1r
1t
0t
#448000
0!
0d
0e
#450000
1!
1d
1e
1z!
1G!
1V
1g
0f
1h
#452000
0!
0d
0e
#454000
1!
1d
1e
1y!
0z!
0G!
0V
0g
1f
1i
0h
0i
1h
1j
0j
#456000
0!
0d
0e
#458000
1!
1d
1e
1z!
1G!
1V
1g
0f
1i
0h
1j
#460000
0!
0d
0e
