A- current/a-Fpga implementation/16_bit/simulation/qsim/control_mod.msim.vcd
$comment
	File created using the following command:
		vcd file control_mod.msim.vcd -direction
$end
$date
	Fri Dec 16 17:29:17 2022
$end
$version
	ModelSim Version 2020.1
$end
$timescale
	1ps
$end

$scope module control_mod_vhd_vec_tst $end
$var wire 1 ! clock $end
$var wire 1 " general $end
$var wire 1 # progcountTOram $end
$var wire 1 $ programcontenable $end
$var wire 1 % programcontincrement $end
$var wire 1 & ram_write_enable $end
$var wire 1 ' reset $end
$var wire 1 ( state0 $end
$var wire 1 ) state1 $end
$var wire 1 * state2 $end

$scope module i1 $end
$var wire 1 + gnd $end
$var wire 1 , vcc $end
$var wire 1 - unknown $end
$var wire 1 . devoe $end
$var wire 1 / devclrn $end
$var wire 1 0 devpor $end
$var wire 1 1 ww_devoe $end
$var wire 1 2 ww_devclrn $end
$var wire 1 3 ww_devpor $end
$var wire 1 4 ww_reset $end
$var wire 1 5 ww_clock $end
$var wire 1 6 ww_general $end
$var wire 1 7 ww_ram_write_enable $end
$var wire 1 8 ww_progcountTOram $end
$var wire 1 9 ww_programcontincrement $end
$var wire 1 : ww_programcontenable $end
$var wire 1 ; ww_state0 $end
$var wire 1 < ww_state1 $end
$var wire 1 = ww_state2 $end
$var wire 1 > \~QUARTUS_CREATED_GND~I_combout\ $end
$var wire 1 ? \reset~input_o\ $end
$var wire 1 @ \clock~input_o\ $end
$var wire 1 A \clock~inputCLKENA0_outclk\ $end
$var wire 1 B \reg_fstate.wait0~1_combout\ $end
$var wire 1 C \general~input_o\ $end
$var wire 1 D \reg_fstate.wait0~0_combout\ $end
$var wire 1 E \fstate.wait0~q\ $end
$var wire 1 F \reg_fstate.i0m0~0_combout\ $end
$var wire 1 G \fstate.i0m0~q\ $end
$var wire 1 H \programcontincrement~0_combout\ $end
$var wire 1 I \fstate.i0m1~q\ $end
$var wire 1 J \ram_write_enable~0_combout\ $end
$var wire 1 K \ALT_INV_fstate.i0m1~q\ $end
$var wire 1 L \ALT_INV_fstate.i0m0~q\ $end
$var wire 1 M \ALT_INV_fstate.wait0~q\ $end
$var wire 1 N \ALT_INV_reset~input_o\ $end
$var wire 1 O \ALT_INV_general~input_o\ $end
$upscope $end
$upscope $end
$enddefinitions $end
#0
$dumpvars
0!
0"
0#
0$
0%
0&
0'
0(
0)
0*
0+
1,
x-
1.
1/
10
11
12
13
04
05
06
07
08
09
0:
0;
0<
0=
x>
0?
0@
0A
1B
0C
0D
0E
1F
0G
0H
0I
0J
1K
1L
1M
1N
1O
$end
#10000
1!
15
1@
1A
#20000
0!
05
0@
0A
#30000
1!
1"
15
16
1C
1@
1A
0O
1D
#40000
0!
05
0@
0A
#50000
1!
15
1@
1A
1E
1G
0L
0M
0F
1H
19
1:
1;
1%
1$
1(
#60000
0!
05
0@
0A
#70000
1!
15
1@
1A
0G
1I
0K
1L
0H
0B
1J
17
18
1<
09
0:
0;
1&
1#
1)
0%
0$
0(
#80000
0!
05
0@
0A
#90000
1!
0"
15
06
0C
1@
1A
1O
0D
0E
0I
1K
1M
1F
1B
0J
07
08
0<
0&
0#
0)
#100000
0!
05
0@
0A
#110000
1!
1"
15
16
1C
1@
1A
0O
1D
#120000
0!
05
0@
0A
#130000
1!
0"
15
06
0C
1@
1A
1O
0D
1E
1G
0L
0M
0F
1H
19
1:
1;
1%
1$
1(
#140000
0!
05
0@
0A
#150000
1!
1"
15
16
1C
1@
1A
0O
1D
#160000
0!
05
0@
0A
#170000
1!
0"
15
06
0C
1@
1A
1O
0D
0G
1I
0K
1L
0H
0B
1J
17
18
1<
09
0:
0;
1&
1#
1)
0%
0$
0(
#180000
0!
05
0@
0A
#190000
1!
1"
15
16
1C
1@
1A
0O
1D
#200000
0!
05
0@
0A
#210000
1!
0"
15
06
0C
1@
1A
1O
0D
0E
0I
1K
1M
1F
1B
0J
07
08
0<
0&
0#
0)
#220000
0!
05
0@
0A
#230000
1!
15
1@
1A
#240000
0!
05
0@
0A
#250000
1!
15
1@
1A
#260000
0!
05
0@
0A
#270000
1!
15
1@
1A
#280000
0!
05
0@
0A
#290000
1!
15
1@
1A
#300000
0!
05
0@
0A
#310000
1!
15
1@
1A
#320000
0!
05
0@
0A
#330000
1!
15
1@
1A
#340000
0!
05
0@
0A
#350000
1!
15
1@
1A
#360000
0!
05
0@
0A
#370000
1!
15
1@
1A
#380000
0!
05
0@
0A
#390000
1!
15
1@
1A
#400000
0!
05
0@
0A
#410000
1!
15
1@
1A
#420000
0!
05
0@
0A
#430000
1!
15
1@
1A
#440000
0!
05
0@
0A
#450000
1!
15
1@
1A
#460000
0!
05
0@
0A
#470000
1!
15
1@
1A
#480000
0!
05
0@
0A
#490000
1!
15
1@
1A
#500000
0!
05
0@
0A
#510000
1!
15
1@
1A
#520000
0!
05
0@
0A
#530000
1!
15
1@
1A
#540000
0!
05
0@
0A
#550000
1!
15
1@
1A
#560000
0!
05
0@
0A
#570000
1!
15
1@
1A
#580000
0!
05
0@
0A
#590000
1!
15
1@
1A
#600000
0!
05
0@
0A
#610000
1!
15
1@
1A
#620000
0!
05
0@
0A
#630000
1!
15
1@
1A
#640000
0!
05
0@
0A
#650000
1!
15
1@
1A
#660000
0!
05
0@
0A
#670000
1!
15
1@
1A
#680000
0!
05
0@
0A
#690000
1!
15
1@
1A
#700000
0!
05
0@
0A
#710000
1!
15
1@
1A
#720000
0!
05
0@
0A
#730000
1!
15
1@
1A
#740000
0!
05
0@
0A
#750000
1!
15
1@
1A
#760000
0!
05
0@
0A
#770000
1!
15
1@
1A
#780000
0!
05
0@
0A
#790000
1!
15
1@
1A
#800000
0!
05
0@
0A
#810000
1!
15
1@
1A
#820000
0!
05
0@
0A
#830000
1!
15
1@
1A
#840000
0!
05
0@
0A
#850000
1!
15
1@
1A
#860000
0!
05
0@
0A
#870000
1!
15
1@
1A
#880000
0!
05
0@
0A
#890000
1!
15
1@
1A
#900000
0!
05
0@
0A
#910000
1!
15
1@
1A
#920000
0!
05
0@
0A
#930000
1!
15
1@
1A
#940000
0!
05
0@
0A
#950000
1!
15
1@
1A
#960000
0!
05
0@
0A
#970000
1!
15
1@
1A
#980000
0!
05
0@
0A
#990000
1!
15
1@
1A
