A- current/a-Fpga implementation/16_bit/simulation/qsim/testcontrolcircuit.msim.vcd
$comment
	File created using the following command:
		vcd file testcontrolcircuit.msim.vcd -direction
$end
$date
	Tue Dec 06 15:57:39 2022
$end
$version
	ModelSim Version 2020.1
$end
$timescale
	1ps
$end

$scope module testcontrolcircuit_vhd_vec_tst $end
$var wire 1 ! a $end
$var wire 1 " b $end
$var wire 1 # c $end
$var wire 1 $ d $end
$var wire 1 % fffa $end
$var wire 1 & fffb $end
$var wire 1 ' fffc $end
$var wire 1 ( fffd $end
$var wire 1 ) fffe $end
$var wire 1 * ffff $end
$var wire 1 + fffg $end
$var wire 1 , fffh $end

$scope module i1 $end
$var wire 1 - gnd $end
$var wire 1 . vcc $end
$var wire 1 / unknown $end
$var wire 1 0 devoe $end
$var wire 1 1 devclrn $end
$var wire 1 2 devpor $end
$var wire 1 3 ww_devoe $end
$var wire 1 4 ww_devclrn $end
$var wire 1 5 ww_devpor $end
$var wire 1 6 ww_a $end
$var wire 1 7 ww_b $end
$var wire 1 8 ww_c $end
$var wire 1 9 ww_d $end
$var wire 1 : ww_fffa $end
$var wire 1 ; ww_fffb $end
$var wire 1 < ww_fffc $end
$var wire 1 = ww_fffd $end
$var wire 1 > ww_fffe $end
$var wire 1 ? ww_ffff $end
$var wire 1 @ ww_fffg $end
$var wire 1 A ww_fffh $end
$var wire 1 B \~QUARTUS_CREATED_GND~I_combout\ $end
$var wire 1 C \d~input_o\ $end
$var wire 1 D \a~input_o\ $end
$var wire 1 E \c~input_o\ $end
$var wire 1 F \b~input_o\ $end
$var wire 1 G \fffa~0_combout\ $end
$var wire 1 H \fffb~0_combout\ $end
$var wire 1 I \fffd~0_combout\ $end
$var wire 1 J \fffa~1_combout\ $end
$var wire 1 K \ffff~0_combout\ $end
$var wire 1 L \ALT_INV_d~input_o\ $end
$var wire 1 M \ALT_INV_b~input_o\ $end
$var wire 1 N \ALT_INV_c~input_o\ $end
$var wire 1 O \ALT_INV_a~input_o\ $end
$upscope $end
$upscope $end
$enddefinitions $end
#0
$dumpvars
0!
0"
0#
0$
1%
1&
1'
1(
0)
0*
0+
0,
0-
1.
x/
10
11
12
13
14
15
06
07
08
09
1:
1;
1<
1=
0>
0?
0@
0A
xB
0C
0D
0E
0F
1G
1H
1I
0J
0K
1L
1M
1N
1O
$end
#5000
1!
16
1D
0O
0G
0H
0I
0=
0;
0:
0<
0(
0&
0%
0'
#10000
0!
1"
06
17
1F
0D
1O
0M
#15000
1!
16
1D
0O
#20000
0!
0"
1#
06
07
18
1E
0F
0D
1O
1M
0N
#25000
1!
16
1D
0O
1G
1K
1?
1A
1:
1<
1*
1,
1%
1'
#30000
0!
1"
06
17
1F
0D
1O
0M
0G
0K
0?
0A
0:
0<
0*
0,
0%
0'
#35000
1!
16
1D
0O
#40000
0!
0"
0#
1$
06
07
08
19
1C
0E
0F
0D
1O
1M
1N
0L
#45000
1!
16
1D
0O
#50000
0!
1"
06
17
1F
0D
1O
0M
#55000
1!
16
1D
0O
#60000
0!
0"
1#
06
07
18
1E
0F
0D
1O
1M
0N
#65000
1!
16
1D
0O
#70000
0!
1"
06
17
1F
0D
1O
0M
1G
1I
1K
1?
1A
1=
1:
1<
1*
1,
1(
1%
1'
#75000
1!
16
1D
0O
1H
1J
1>
1@
1;
1)
1+
1&
#80000
0!
0"
0#
0$
06
07
08
09
0C
0E
0F
0D
1O
1M
1N
1L
0J
0K
0?
0A
0>
0@
0*
0,
0)
0+
#85000
1!
16
1D
0O
0G
0H
0I
0=
0;
0:
0<
0(
0&
0%
0'
#90000
0!
1"
06
17
1F
0D
1O
0M
#95000
1!
16
1D
0O
#100000
0!
0"
1#
06
07
18
1E
0F
0D
1O
1M
0N
#105000
1!
16
1D
0O
1G
1K
1?
1A
1:
1<
1*
1,
1%
1'
#110000
0!
1"
06
17
1F
0D
1O
0M
0G
0K
0?
0A
0:
0<
0*
0,
0%
0'
#115000
1!
16
1D
0O
#120000
0!
0"
0#
1$
06
07
08
19
1C
0E
0F
0D
1O
1M
1N
0L
#125000
1!
16
1D
0O
#130000
0!
1"
06
17
1F
0D
1O
0M
#135000
1!
16
1D
0O
#140000
0!
0"
1#
06
07
18
1E
0F
0D
1O
1M
0N
#145000
1!
16
1D
0O
#150000
0!
1"
06
17
1F
0D
1O
0M
1G
1I
1K
1?
1A
1=
1:
1<
1*
1,
1(
1%
1'
#155000
1!
16
1D
0O
1H
1J
1>
1@
1;
1)
1+
1&
#160000
0!
0"
0#
0$
06
07
08
09
0C
0E
0F
0D
1O
1M
1N
1L
0J
0K
0?
0A
0>
0@
0*
0,
0)
0+
#165000
1!
16
1D
0O
0G
0H
0I
0=
0;
0:
0<
0(
0&
0%
0'
#170000
0!
1"
06
17
1F
0D
1O
0M
#175000
1!
16
1D
0O
#180000
0!
0"
1#
06
07
18
1E
0F
0D
1O
1M
0N
#185000
1!
16
1D
0O
1G
1K
1?
1A
1:
1<
1*
1,
1%
1'
#190000
0!
1"
06
17
1F
0D
1O
0M
0G
0K
0?
0A
0:
0<
0*
0,
0%
0'
#195000
1!
16
1D
0O
#200000
0!
0"
0#
1$
06
07
08
19
1C
0E
0F
0D
1O
1M
1N
0L
#205000
1!
16
1D
0O
#210000
0!
1"
06
17
1F
0D
1O
0M
#215000
1!
16
1D
0O
#220000
0!
0"
1#
06
07
18
1E
0F
0D
1O
1M
0N
#225000
1!
16
1D
0O
#230000
0!
1"
06
17
1F
0D
1O
0M
1G
1I
1K
1?
1A
1=
1:
1<
1*
1,
1(
1%
1'
#235000
1!
16
1D
0O
1H
1J
1>
1@
1;
1)
1+
1&
#240000
0!
0"
0#
0$
06
07
08
09
0C
0E
0F
0D
1O
1M
1N
1L
0J
0K
0?
0A
0>
0@
0*
0,
0)
0+
#245000
1!
16
1D
0O
0G
0H
0I
0=
0;
0:
0<
0(
0&
0%
0'
#250000
0!
1"
06
17
1F
0D
1O
0M
#255000
1!
16
1D
0O
#260000
0!
0"
1#
06
07
18
1E
0F
0D
1O
1M
0N
#265000
1!
16
1D
0O
1G
1K
1?
1A
1:
1<
1*
1,
1%
1'
#270000
0!
1"
06
17
1F
0D
1O
0M
0G
0K
0?
0A
0:
0<
0*
0,
0%
0'
#275000
1!
16
1D
0O
#280000
0!
0"
0#
1$
06
07
08
19
1C
0E
0F
0D
1O
1M
1N
0L
#285000
1!
16
1D
0O
#290000
0!
1"
06
17
1F
0D
1O
0M
#295000
1!
16
1D
0O
#300000
0!
0"
1#
06
07
18
1E
0F
0D
1O
1M
0N
#305000
1!
16
1D
0O
#310000
0!
1"
06
17
1F
0D
1O
0M
1G
1I
1K
1?
1A
1=
1:
1<
1*
1,
1(
1%
1'
#315000
1!
16
1D
0O
1H
1J
1>
1@
1;
1)
1+
1&
#320000
0!
0"
0#
0$
06
07
08
09
0C
0E
0F
0D
1O
1M
1N
1L
0J
0K
0?
0A
0>
0@
0*
0,
0)
0+
#325000
1!
16
1D
0O
0G
0H
0I
0=
0;
0:
0<
0(
0&
0%
0'
#330000
0!
1"
06
17
1F
0D
1O
0M
#335000
1!
16
1D
0O
#340000
0!
0"
1#
06
07
18
1E
0F
0D
1O
1M
0N
#345000
1!
16
1D
0O
1G
1K
1?
1A
1:
1<
1*
1,
1%
1'
#350000
0!
1"
06
17
1F
0D
1O
0M
0G
0K
0?
0A
0:
0<
0*
0,
0%
0'
#355000
1!
16
1D
0O
#360000
0!
0"
0#
1$
06
07
08
19
1C
0E
0F
0D
1O
1M
1N
0L
#365000
1!
16
1D
0O
#370000
0!
1"
06
17
1F
0D
1O
0M
#375000
1!
16
1D
0O
#380000
0!
0"
1#
06
07
18
1E
0F
0D
1O
1M
0N
#385000
1!
16
1D
0O
#390000
0!
1"
06
17
1F
0D
1O
0M
1G
1I
1K
1?
1A
1=
1:
1<
1*
1,
1(
1%
1'
#395000
1!
16
1D
0O
1H
1J
1>
1@
1;
1)
1+
1&
#400000
0!
0"
0#
0$
06
07
08
09
0C
0E
0F
0D
1O
1M
1N
1L
0J
0K
0?
0A
0>
0@
0*
0,
0)
0+
#405000
1!
16
1D
0O
0G
0H
0I
0=
0;
0:
0<
0(
0&
0%
0'
#410000
0!
1"
06
17
1F
0D
1O
0M
#415000
1!
16
1D
0O
#420000
0!
0"
1#
06
07
18
1E
0F
0D
1O
1M
0N
#425000
1!
16
1D
0O
1G
1K
1?
1A
1:
1<
1*
1,
1%
1'
#430000
0!
1"
06
17
1F
0D
1O
0M
0G
0K
0?
0A
0:
0<
0*
0,
0%
0'
#435000
1!
16
1D
0O
#440000
0!
0"
0#
1$
06
07
08
19
1C
0E
0F
0D
1O
1M
1N
0L
#445000
1!
16
1D
0O
#450000
0!
1"
06
17
1F
0D
1O
0M
#455000
1!
16
1D
0O
#460000
0!
0"
1#
06
07
18
1E
0F
0D
1O
1M
0N
#465000
1!
16
1D
0O
#470000
0!
1"
06
17
1F
0D
1O
0M
1G
1I
1K
1?
1A
1=
1:
1<
1*
1,
1(
1%
1'
#475000
1!
16
1D
0O
1H
1J
1>
1@
1;
1)
1+
1&
#480000
0!
0"
0#
0$
06
07
08
09
0C
0E
0F
0D
1O
1M
1N
1L
0J
0K
0?
0A
0>
0@
0*
0,
0)
0+
#485000
1!
16
1D
0O
0G
0H
0I
0=
0;
0:
0<
0(
0&
0%
0'
#490000
0!
1"
06
17
1F
0D
1O
0M
#495000
1!
16
1D
0O
#500000
0!
0"
1#
06
07
18
1E
0F
0D
1O
1M
0N
#505000
1!
16
1D
0O
1G
1K
1?
1A
1:
1<
1*
1,
1%
1'
#510000
0!
1"
06
17
1F
0D
1O
0M
0G
0K
0?
0A
0:
0<
0*
0,
0%
0'
#515000
1!
16
1D
0O
#520000
0!
0"
0#
1$
06
07
08
19
1C
0E
0F
0D
1O
1M
1N
0L
#525000
1!
16
1D
0O
#530000
0!
1"
06
17
1F
0D
1O
0M
#535000
1!
16
1D
0O
#540000
0!
0"
1#
06
07
18
1E
0F
0D
1O
1M
0N
#545000
1!
16
1D
0O
#550000
0!
1"
06
17
1F
0D
1O
0M
1G
1I
1K
1?
1A
1=
1:
1<
1*
1,
1(
1%
1'
#555000
1!
16
1D
0O
1H
1J
1>
1@
1;
1)
1+
1&
#560000
0!
0"
0#
0$
06
07
08
09
0C
0E
0F
0D
1O
1M
1N
1L
0J
0K
0?
0A
0>
0@
0*
0,
0)
0+
#565000
1!
16
1D
0O
0G
0H
0I
0=
0;
0:
0<
0(
0&
0%
0'
#570000
0!
1"
06
17
1F
0D
1O
0M
#575000
1!
16
1D
0O
#580000
0!
0"
1#
06
07
18
1E
0F
0D
1O
1M
0N
#585000
1!
16
1D
0O
1G
1K
1?
1A
1:
1<
1*
1,
1%
1'
#590000
0!
1"
06
17
1F
0D
1O
0M
0G
0K
0?
0A
0:
0<
0*
0,
0%
0'
#595000
1!
16
1D
0O
#600000
0!
0"
0#
1$
06
07
08
19
1C
0E
0F
0D
1O
1M
1N
0L
#605000
1!
16
1D
0O
#610000
0!
1"
06
17
1F
0D
1O
0M
#615000
1!
16
1D
0O
#620000
0!
0"
1#
06
07
18
1E
0F
0D
1O
1M
0N
#625000
1!
16
1D
0O
#630000
0!
1"
06
17
1F
0D
1O
0M
1G
1I
1K
1?
1A
1=
1:
1<
1*
1,
1(
1%
1'
#635000
1!
16
1D
0O
1H
1J
1>
1@
1;
1)
1+
1&
#640000
0!
0"
0#
0$
06
07
08
09
0C
0E
0F
0D
1O
1M
1N
1L
0J
0K
0?
0A
0>
0@
0*
0,
0)
0+
#645000
1!
16
1D
0O
0G
0H
0I
0=
0;
0:
0<
0(
0&
0%
0'
#650000
0!
1"
06
17
1F
0D
1O
0M
#655000
1!
16
1D
0O
#660000
0!
0"
1#
06
07
18
1E
0F
0D
1O
1M
0N
#665000
1!
16
1D
0O
1G
1K
1?
1A
1:
1<
1*
1,
1%
1'
#670000
0!
1"
06
17
1F
0D
1O
0M
0G
0K
0?
0A
0:
0<
0*
0,
0%
0'
#675000
1!
16
1D
0O
#680000
0!
0"
0#
1$
06
07
08
19
1C
0E
0F
0D
1O
1M
1N
0L
#685000
1!
16
1D
0O
#690000
0!
1"
06
17
1F
0D
1O
0M
#695000
1!
16
1D
0O
#700000
0!
0"
1#
06
07
18
1E
0F
0D
1O
1M
0N
#705000
1!
16
1D
0O
#710000
0!
1"
06
17
1F
0D
1O
0M
1G
1I
1K
1?
1A
1=
1:
1<
1*
1,
1(
1%
1'
#715000
1!
16
1D
0O
1H
1J
1>
1@
1;
1)
1+
1&
#720000
0!
0"
0#
0$
06
07
08
09
0C
0E
0F
0D
1O
1M
1N
1L
0J
0K
0?
0A
0>
0@
0*
0,
0)
0+
#725000
1!
16
1D
0O
0G
0H
0I
0=
0;
0:
0<
0(
0&
0%
0'
#730000
0!
1"
06
17
1F
0D
1O
0M
#735000
1!
16
1D
0O
#740000
0!
0"
1#
06
07
18
1E
0F
0D
1O
1M
0N
#745000
1!
16
1D
0O
1G
1K
1?
1A
1:
1<
1*
1,
1%
1'
#750000
0!
1"
06
17
1F
0D
1O
0M
0G
0K
0?
0A
0:
0<
0*
0,
0%
0'
#755000
1!
16
1D
0O
#760000
0!
0"
0#
1$
06
07
08
19
1C
0E
0F
0D
1O
1M
1N
0L
#765000
1!
16
1D
0O
#770000
0!
1"
06
17
1F
0D
1O
0M
#775000
1!
16
1D
0O
#780000
0!
0"
1#
06
07
18
1E
0F
0D
1O
1M
0N
#785000
1!
16
1D
0O
#790000
0!
1"
06
17
1F
0D
1O
0M
1G
1I
1K
1?
1A
1=
1:
1<
1*
1,
1(
1%
1'
#795000
1!
16
1D
0O
1H
1J
1>
1@
1;
1)
1+
1&
#800000
0!
0"
0#
0$
06
07
08
09
0C
0E
0F
0D
1O
1M
1N
1L
0J
0K
0?
0A
0>
0@
0*
0,
0)
0+
#805000
1!
16
1D
0O
0G
0H
0I
0=
0;
0:
0<
0(
0&
0%
0'
#810000
0!
1"
06
17
1F
0D
1O
0M
#815000
1!
16
1D
0O
#820000
0!
0"
1#
06
07
18
1E
0F
0D
1O
1M
0N
#825000
1!
16
1D
0O
1G
1K
1?
1A
1:
1<
1*
1,
1%
1'
#830000
0!
1"
06
17
1F
0D
1O
0M
0G
0K
0?
0A
0:
0<
0*
0,
0%
0'
#835000
1!
16
1D
0O
#840000
0!
0"
0#
1$
06
07
08
19
1C
0E
0F
0D
1O
1M
1N
0L
#845000
1!
16
1D
0O
#850000
0!
1"
06
17
1F
0D
1O
0M
#855000
1!
16
1D
0O
#860000
0!
0"
1#
06
07
18
1E
0F
0D
1O
1M
0N
#865000
1!
16
1D
0O
#870000
0!
1"
06
17
1F
0D
1O
0M
1G
1I
1K
1?
1A
1=
1:
1<
1*
1,
1(
1%
1'
#875000
1!
16
1D
0O
1H
1J
1>
1@
1;
1)
1+
1&
#880000
0!
0"
0#
0$
06
07
08
09
0C
0E
0F
0D
1O
1M
1N
1L
0J
0K
0?
0A
0>
0@
0*
0,
0)
0+
#885000
1!
16
1D
0O
0G
0H
0I
0=
0;
0:
0<
0(
0&
0%
0'
#890000
0!
1"
06
17
1F
0D
1O
0M
#895000
1!
16
1D
0O
#900000
0!
0"
1#
06
07
18
1E
0F
0D
1O
1M
0N
#905000
1!
16
1D
0O
1G
1K
1?
1A
1:
1<
1*
1,
1%
1'
#910000
0!
1"
06
17
1F
0D
1O
0M
0G
0K
0?
0A
0:
0<
0*
0,
0%
0'
#915000
1!
16
1D
0O
#920000
0!
0"
0#
1$
06
07
08
19
1C
0E
0F
0D
1O
1M
1N
0L
#925000
1!
16
1D
0O
#930000
0!
1"
06
17
1F
0D
1O
0M
#935000
1!
16
1D
0O
#940000
0!
0"
1#
06
07
18
1E
0F
0D
1O
1M
0N
#945000
1!
16
1D
0O
#950000
0!
1"
06
17
1F
0D
1O
0M
1G
1I
1K
1?
1A
1=
1:
1<
1*
1,
1(
1%
1'
#955000
1!
16
1D
0O
1H
1J
1>
1@
1;
1)
1+
1&
#960000
0!
0"
0#
0$
06
07
08
09
0C
0E
0F
0D
1O
1M
1N
1L
0J
0K
0?
0A
0>
0@
0*
0,
0)
0+
#965000
1!
16
1D
0O
0G
0H
0I
0=
0;
0:
0<
0(
0&
0%
0'
#970000
0!
1"
06
17
1F
0D
1O
0M
#975000
1!
16
1D
0O
#980000
0!
0"
1#
06
07
18
1E
0F
0D
1O
1M
0N
#985000
1!
16
1D
0O
1G
1K
1?
1A
1:
1<
1*
1,
1%
1'
#990000
0!
1"
06
17
1F
0D
1O
0M
0G
0K
0?
0A
0:
0<
0*
0,
0%
0'
#995000
1!
16
1D
0O
