Fpga implementation/alu/simulation/qsim/adder.msim.vcd
$comment
	File created using the following command:
		vcd file adder.msim.vcd -direction
$end
$date
	Sun Jun 05 01:18:36 2022
$end
$version
	ModelSim Version 10.5b
$end
$timescale
	1ps
$end

$scope module adder_vhd_vec_tst $end
$var wire 1 ! a [15] $end
$var wire 1 " a [14] $end
$var wire 1 # a [13] $end
$var wire 1 $ a [12] $end
$var wire 1 % a [11] $end
$var wire 1 & a [10] $end
$var wire 1 ' a [9] $end
$var wire 1 ( a [8] $end
$var wire 1 ) a [7] $end
$var wire 1 * a [6] $end
$var wire 1 + a [5] $end
$var wire 1 , a [4] $end
$var wire 1 - a [3] $end
$var wire 1 . a [2] $end
$var wire 1 / a [1] $end
$var wire 1 0 a [0] $end
$var wire 1 1 b [15] $end
$var wire 1 2 b [14] $end
$var wire 1 3 b [13] $end
$var wire 1 4 b [12] $end
$var wire 1 5 b [11] $end
$var wire 1 6 b [10] $end
$var wire 1 7 b [9] $end
$var wire 1 8 b [8] $end
$var wire 1 9 b [7] $end
$var wire 1 : b [6] $end
$var wire 1 ; b [5] $end
$var wire 1 < b [4] $end
$var wire 1 = b [3] $end
$var wire 1 > b [2] $end
$var wire 1 ? b [1] $end
$var wire 1 @ b [0] $end
$var wire 1 A f [15] $end
$var wire 1 B f [14] $end
$var wire 1 C f [13] $end
$var wire 1 D f [12] $end
$var wire 1 E f [11] $end
$var wire 1 F f [10] $end
$var wire 1 G f [9] $end
$var wire 1 H f [8] $end
$var wire 1 I f [7] $end
$var wire 1 J f [6] $end
$var wire 1 K f [5] $end
$var wire 1 L f [4] $end
$var wire 1 M f [3] $end
$var wire 1 N f [2] $end
$var wire 1 O f [1] $end
$var wire 1 P f [0] $end
$var wire 1 Q over $end
$var wire 1 R sub $end

$scope module i1 $end
$var wire 1 S gnd $end
$var wire 1 T vcc $end
$var wire 1 U unknown $end
$var wire 1 V devoe $end
$var wire 1 W devclrn $end
$var wire 1 X devpor $end
$var wire 1 Y ww_devoe $end
$var wire 1 Z ww_devclrn $end
$var wire 1 [ ww_devpor $end
$var wire 1 \ ww_over $end
$var wire 1 ] ww_sub $end
$var wire 1 ^ ww_a [15] $end
$var wire 1 _ ww_a [14] $end
$var wire 1 ` ww_a [13] $end
$var wire 1 a ww_a [12] $end
$var wire 1 b ww_a [11] $end
$var wire 1 c ww_a [10] $end
$var wire 1 d ww_a [9] $end
$var wire 1 e ww_a [8] $end
$var wire 1 f ww_a [7] $end
$var wire 1 g ww_a [6] $end
$var wire 1 h ww_a [5] $end
$var wire 1 i ww_a [4] $end
$var wire 1 j ww_a [3] $end
$var wire 1 k ww_a [2] $end
$var wire 1 l ww_a [1] $end
$var wire 1 m ww_a [0] $end
$var wire 1 n ww_b [15] $end
$var wire 1 o ww_b [14] $end
$var wire 1 p ww_b [13] $end
$var wire 1 q ww_b [12] $end
$var wire 1 r ww_b [11] $end
$var wire 1 s ww_b [10] $end
$var wire 1 t ww_b [9] $end
$var wire 1 u ww_b [8] $end
$var wire 1 v ww_b [7] $end
$var wire 1 w ww_b [6] $end
$var wire 1 x ww_b [5] $end
$var wire 1 y ww_b [4] $end
$var wire 1 z ww_b [3] $end
$var wire 1 { ww_b [2] $end
$var wire 1 | ww_b [1] $end
$var wire 1 } ww_b [0] $end
$var wire 1 ~ ww_f [15] $end
$var wire 1 !! ww_f [14] $end
$var wire 1 "! ww_f [13] $end
$var wire 1 #! ww_f [12] $end
$var wire 1 $! ww_f [11] $end
$var wire 1 %! ww_f [10] $end
$var wire 1 &! ww_f [9] $end
$var wire 1 '! ww_f [8] $end
$var wire 1 (! ww_f [7] $end
$var wire 1 )! ww_f [6] $end
$var wire 1 *! ww_f [5] $end
$var wire 1 +! ww_f [4] $end
$var wire 1 ,! ww_f [3] $end
$var wire 1 -! ww_f [2] $end
$var wire 1 .! ww_f [1] $end
$var wire 1 /! ww_f [0] $end
$var wire 1 0! \~QUARTUS_CREATED_GND~I_combout\ $end
$var wire 1 1! \a[15]~input_o\ $end
$var wire 1 2! \b[15]~input_o\ $end
$var wire 1 3! \sub~input_o\ $end
$var wire 1 4! \a[14]~input_o\ $end
$var wire 1 5! \a[11]~input_o\ $end
$var wire 1 6! \a[9]~input_o\ $end
$var wire 1 7! \b[9]~input_o\ $end
$var wire 1 8! \inst10~combout\ $end
$var wire 1 9! \wefgy|asdasd~combout\ $end
$var wire 1 :! \a[10]~input_o\ $end
$var wire 1 ;! \b[11]~input_o\ $end
$var wire 1 <! \inst12~combout\ $end
$var wire 1 =! \b[7]~input_o\ $end
$var wire 1 >! \inst8~combout\ $end
$var wire 1 ?! \b[8]~input_o\ $end
$var wire 1 @! \inst9~combout\ $end
$var wire 1 A! \a[8]~input_o\ $end
$var wire 1 B! \wefgy|asdasdd~0_combout\ $end
$var wire 1 C! \a[7]~input_o\ $end
$var wire 1 D! \b[5]~input_o\ $end
$var wire 1 E! \inst6~combout\ $end
$var wire 1 F! \b[4]~input_o\ $end
$var wire 1 G! \a[4]~input_o\ $end
$var wire 1 H! \dse|asdasd~combout\ $end
$var wire 1 I! \a[5]~input_o\ $end
$var wire 1 J! \b[6]~input_o\ $end
$var wire 1 K! \inst7~combout\ $end
$var wire 1 L! \a[6]~input_o\ $end
$var wire 1 M! \a[2]~input_o\ $end
$var wire 1 N! \b[3]~input_o\ $end
$var wire 1 O! \inst4~combout\ $end
$var wire 1 P! \b[0]~input_o\ $end
$var wire 1 Q! \a[0]~input_o\ $end
$var wire 1 R! \b[1]~input_o\ $end
$var wire 1 S! \a[1]~input_o\ $end
$var wire 1 T! \aasd|asdasdd~0_combout\ $end
$var wire 1 U! \dse|asdasdd~0_combout\ $end
$var wire 1 V! \b[2]~input_o\ $end
$var wire 1 W! \inst3~combout\ $end
$var wire 1 X! \a[3]~input_o\ $end
$var wire 1 Y! \dse|asdasdd~1_combout\ $end
$var wire 1 Z! \yd|asdasdd~0_combout\ $end
$var wire 1 [! \wefgy|asdasdd~1_combout\ $end
$var wire 1 \! \b[10]~input_o\ $end
$var wire 1 ]! \inst11~combout\ $end
$var wire 1 ^! \wghyy|asdasdd~0_combout\ $end
$var wire 1 _! \b[12]~input_o\ $end
$var wire 1 `! \inst13~combout\ $end
$var wire 1 a! \a[12]~input_o\ $end
$var wire 1 b! \a[13]~input_o\ $end
$var wire 1 c! \b[13]~input_o\ $end
$var wire 1 d! \inst14~combout\ $end
$var wire 1 e! \atht|asdasdd~0_combout\ $end
$var wire 1 f! \b[14]~input_o\ $end
$var wire 1 g! \argsetr|daasassasasd~0_combout\ $end
$var wire 1 h! \argsetr|1212~combout\ $end
$var wire 1 i! \areaert|1212~0_combout\ $end
$var wire 1 j! \areaert|1212~combout\ $end
$var wire 1 k! \atht|1212~combout\ $end
$var wire 1 l! \srgarh|1212~combout\ $end
$var wire 1 m! \wghyy|1212~combout\ $end
$var wire 1 n! \ergw|1212~combout\ $end
$var wire 1 o! \egut|asdasdd~0_combout\ $end
$var wire 1 p! \wefgy|1212~combout\ $end
$var wire 1 q! \srgt|1212~combout\ $end
$var wire 1 r! \egut|1212~combout\ $end
$var wire 1 s! \dse|asdasdd~2_combout\ $end
$var wire 1 t! \yd|1212~combout\ $end
$var wire 1 u! \eg|1212~combout\ $end
$var wire 1 v! \aa|asdasdd~0_combout\ $end
$var wire 1 w! \dse|1212~combout\ $end
$var wire 1 x! \av|1212~combout\ $end
$var wire 1 y! \aa|1212~combout\ $end
$var wire 1 z! \aasd|1212~combout\ $end
$var wire 1 {! \inst|1212~combout\ $end
$var wire 1 |! \ALT_INV_b[3]~input_o\ $end
$var wire 1 }! \ALT_INV_a[3]~input_o\ $end
$var wire 1 ~! \ALT_INV_b[4]~input_o\ $end
$var wire 1 !" \ALT_INV_a[4]~input_o\ $end
$var wire 1 "" \ALT_INV_b[5]~input_o\ $end
$var wire 1 #" \ALT_INV_a[5]~input_o\ $end
$var wire 1 $" \ALT_INV_b[6]~input_o\ $end
$var wire 1 %" \ALT_INV_a[6]~input_o\ $end
$var wire 1 &" \ALT_INV_b[7]~input_o\ $end
$var wire 1 '" \ALT_INV_a[7]~input_o\ $end
$var wire 1 (" \ALT_INV_b[8]~input_o\ $end
$var wire 1 )" \ALT_INV_a[8]~input_o\ $end
$var wire 1 *" \ALT_INV_b[9]~input_o\ $end
$var wire 1 +" \ALT_INV_a[9]~input_o\ $end
$var wire 1 ," \ALT_INV_b[10]~input_o\ $end
$var wire 1 -" \ALT_INV_a[10]~input_o\ $end
$var wire 1 ." \ALT_INV_b[11]~input_o\ $end
$var wire 1 /" \ALT_INV_a[11]~input_o\ $end
$var wire 1 0" \ALT_INV_b[12]~input_o\ $end
$var wire 1 1" \ALT_INV_a[12]~input_o\ $end
$var wire 1 2" \ALT_INV_b[13]~input_o\ $end
$var wire 1 3" \ALT_INV_a[13]~input_o\ $end
$var wire 1 4" \ALT_INV_b[14]~input_o\ $end
$var wire 1 5" \ALT_INV_a[14]~input_o\ $end
$var wire 1 6" \ALT_INV_b[15]~input_o\ $end
$var wire 1 7" \ALT_INV_sub~input_o\ $end
$var wire 1 8" \aa|ALT_INV_asdasdd~0_combout\ $end
$var wire 1 9" \dse|ALT_INV_asdasdd~2_combout\ $end
$var wire 1 :" \egut|ALT_INV_asdasdd~0_combout\ $end
$var wire 1 ;" \areaert|ALT_INV_1212~0_combout\ $end
$var wire 1 <" \argsetr|ALT_INV_daasassasasd~0_combout\ $end
$var wire 1 =" \atht|ALT_INV_asdasdd~0_combout\ $end
$var wire 1 >" \wghyy|ALT_INV_asdasdd~0_combout\ $end
$var wire 1 ?" \wefgy|ALT_INV_asdasdd~1_combout\ $end
$var wire 1 @" \wefgy|ALT_INV_asdasdd~0_combout\ $end
$var wire 1 A" \yd|ALT_INV_asdasdd~0_combout\ $end
$var wire 1 B" \dse|ALT_INV_asdasdd~1_combout\ $end
$var wire 1 C" \dse|ALT_INV_asdasdd~0_combout\ $end
$var wire 1 D" \aasd|ALT_INV_asdasdd~0_combout\ $end
$var wire 1 E" \ALT_INV_inst3~combout\ $end
$var wire 1 F" \ALT_INV_inst4~combout\ $end
$var wire 1 G" \dse|ALT_INV_asdasd~combout\ $end
$var wire 1 H" \ALT_INV_inst6~combout\ $end
$var wire 1 I" \ALT_INV_inst7~combout\ $end
$var wire 1 J" \ALT_INV_inst8~combout\ $end
$var wire 1 K" \ALT_INV_inst9~combout\ $end
$var wire 1 L" \wefgy|ALT_INV_asdasd~combout\ $end
$var wire 1 M" \ALT_INV_inst10~combout\ $end
$var wire 1 N" \ALT_INV_inst11~combout\ $end
$var wire 1 O" \ALT_INV_inst12~combout\ $end
$var wire 1 P" \ALT_INV_inst13~combout\ $end
$var wire 1 Q" \ALT_INV_inst14~combout\ $end
$var wire 1 R" \ALT_INV_a[15]~input_o\ $end
$var wire 1 S" \ALT_INV_b[0]~input_o\ $end
$var wire 1 T" \ALT_INV_a[0]~input_o\ $end
$var wire 1 U" \ALT_INV_b[1]~input_o\ $end
$var wire 1 V" \ALT_INV_a[1]~input_o\ $end
$var wire 1 W" \ALT_INV_b[2]~input_o\ $end
$var wire 1 X" \ALT_INV_a[2]~input_o\ $end
$upscope $end
$upscope $end
$enddefinitions $end
#0
$dumpvars
0Q
0R
0S
1T
xU
1V
1W
1X
1Y
1Z
1[
0\
0]
x0!
11!
12!
03!
14!
15!
16!
17!
18!
19!
0:!
0;!
0<!
0=!
0>!
0?!
0@!
1A!
0B!
0C!
1D!
1E!
1F!
1G!
1H!
0I!
1J!
1K!
1L!
1M!
0N!
0O!
1P!
1Q!
1R!
1S!
1T!
0U!
1V!
1W!
0X!
0Y!
0Z!
0[!
1\!
1]!
0^!
1_!
1`!
1a!
1b!
0c!
0d!
1e!
0f!
1g!
1h!
1i!
0j!
0k!
1l!
0m!
0n!
0o!
0p!
1q!
1r!
0s!
1t!
0u!
1v!
0w!
1x!
1y!
1z!
0{!
1|!
1}!
0~!
0!"
0""
1#"
0$"
0%"
1&"
1'"
1("
0)"
0*"
0+"
0,"
1-"
1."
0/"
00"
01"
12"
03"
14"
05"
06"
17"
08"
19"
1:"
0;"
0<"
0="
1>"
1?"
1@"
1A"
1B"
1C"
0D"
0E"
1F"
0G"
0H"
0I"
1J"
1K"
0L"
0M"
0N"
1O"
0P"
1Q"
0R"
0S"
0T"
0U"
0V"
0W"
0X"
1!
1"
1#
1$
1%
0&
1'
1(
0)
1*
0+
1,
0-
1.
1/
10
11
02
03
14
05
16
17
08
09
1:
1;
1<
0=
1>
1?
1@
1^
1_
1`
1a
1b
0c
1d
1e
0f
1g
0h
1i
0j
1k
1l
1m
1n
0o
0p
1q
0r
1s
1t
0u
0v
1w
1x
1y
0z
1{
1|
1}
1~
0!!
0"!
1#!
0$!
0%!
0&!
1'!
1(!
1)!
0*!
0+!
1,!
1-!
1.!
0/!
1A
0B
0C
1D
0E
0F
0G
1H
1I
1J
0K
0L
1M
1N
1O
0P
$end
#5000
1R
1]
13!
07"
08!
1<!
1>!
1@!
0E!
0H!
0K!
1O!
0W!
0]!
0`!
1d!
0h!
0i!
0z!
1;"
0Q"
1P"
1N"
1E"
0F"
1I"
1G"
1H"
0K"
0J"
0O"
1M"
09!
1o!
0r!
1[!
0q!
1u!
1s!
1Z!
0x!
1Y!
0y!
1n!
0l!
1k!
1j!
0B"
0A"
09"
0?"
0:"
1L"
0.!
0~
1q!
0u!
0o!
1r!
0s!
0O
0A
19"
1:"
1!!
1"!
0#!
1%!
0-!
0,!
1*!
0'!
0(!
0q!
1u!
0N
0M
1K
0I
0H
1F
0D
1C
1B
1(!
0*!
1'!
0K
1I
1H
1*!
0'!
1K
0H
#10000
0R
0"
0#
0$
0,
0.
0/
01
12
04
15
18
19
0:
1=
0?
0@
0]
0l
0k
0i
0a
0`
0_
0}
0|
1z
0w
1v
1u
1r
0q
1o
0n
02!
1f!
0_!
1;!
1?!
1=!
0J!
1N!
0R!
0P!
04!
0b!
0a!
0G!
0M!
0S!
03!
17"
1V"
1X"
1!"
11"
13"
15"
1S"
1U"
0|!
1$"
0&"
0("
0."
10"
04"
16"
1{!
0e!
0j!
1l!
0Y!
0v!
1y!
18!
1E!
0T!
1W!
1]!
0d!
1i!
0;"
1Q"
0N"
0E"
1D"
0H"
0M"
18"
1B"
1="
1h!
1s!
1w!
1x!
19!
1p!
0t!
0u!
1m!
0n!
0k!
1j!
0L"
09"
1-!
1#!
0!!
1/!
1t!
1u!
1P
1N
1D
0B
1!!
0"!
0%!
1$!
0*!
0)!
1&!
1,!
1+!
1~
1M
1L
0K
0J
1G
0F
1E
0C
1B
1A
1*!
1)!
1K
1J
#15000
1R
1]
13!
07"
08!
0<!
0>!
0@!
0E!
1K!
0O!
1T!
1U!
0W!
0]!
1`!
1d!
0g!
0h!
0i!
0w!
1;"
1<"
0Q"
0P"
1N"
1E"
0C"
0D"
1F"
0I"
1H"
1K"
1J"
1O"
1M"
09!
0r!
0[!
1q!
0u!
0Z!
0t!
0x!
1^!
1n!
0l!
1e!
0="
0>"
1A"
1?"
1L"
0+!
0~
1\
0n!
1r!
0e!
0j!
1k!
1l!
0L
0A
1="
1Q
0#!
1%!
0,!
0)!
0*!
1'!
0(!
0M
0K
0J
0I
1H
1F
0D
1#!
1"!
0!!
1(!
0%!
1I
0F
1D
1C
0B
#20000
0R
1"
1#
1,
1.
11
05
09
1:
0=
1?
0!
0%
0(
1)
1-
13
06
07
0;
0<
0>
0]
1k
1j
1i
1f
0e
0b
1`
1_
0^
1|
0{
0z
0y
0x
1w
0v
0t
0s
0r
1p
1n
12!
1c!
0;!
0\!
07!
0=!
1J!
0D!
0F!
0N!
0V!
1R!
01!
14!
1b!
05!
0A!
1C!
1G!
1X!
1M!
03!
17"
0X"
0}!
0!"
0'"
1)"
1/"
03"
05"
1R"
0U"
1W"
1|!
1~!
1""
0$"
1&"
1*"
1,"
1."
02"
06"
1e!
1j!
0k!
0m!
0q!
1o!
0r!
1x!
1v!
0y!
1@!
0T!
0U!
0`!
1g!
1w!
1z!
0<"
1P"
1C"
1D"
0K"
08"
0:"
0="
0w!
0x!
1[!
0p!
0v!
1y!
0l!
18"
0?"
1.!
1+!
0-!
1,!
0(!
0'!
0$!
0"!
1!!
0\
1n!
1w!
1x!
1O
0N
1M
1L
0I
0H
0E
0C
1B
0Q
0#!
1-!
0&!
0,!
0+!
1N
0M
0L
0G
0D
1,!
1+!
1%!
1M
1L
1F
#25000
1R
1]
13!
07"
18!
1<!
1>!
0@!
1E!
1H!
0K!
1O!
1W!
1]!
1`!
0d!
0g!
1h!
1i!
0;"
1<"
1Q"
0P"
0N"
0E"
0F"
1I"
0G"
0H"
1K"
0J"
0O"
0M"
19!
1r!
0[!
1q!
1u!
0s!
1t!
0x!
1Y!
1v!
0y!
0^!
0n!
1l!
0e!
1k!
1="
1>"
08"
0B"
19"
1?"
0L"
1~
1\
0t!
0u!
1x!
1e!
0j!
0k!
0l!
1g!
0h!
1A
0<"
0="
1Q
1"!
1#!
0%!
0-!
0,!
1)!
1*!
1'!
1(!
0g!
1h!
0N
0M
1K
1J
1I
1H
0F
1D
1C
1<"
0~
0#!
0"!
0!!
1,!
0*!
0)!
0\
1M
0K
0J
0D
0C
0B
0A
0Q
1~
1\
1A
1Q
#30000
0R
0#
0,
0?
1%
0)
0-
17
1;
1<
1>
1/
02
0'
0]
1l
0j
0i
0f
0d
1b
0`
0|
1{
1y
1x
1t
0o
0f!
17!
1D!
1F!
1V!
0R!
0b!
15!
06!
0C!
0G!
0X!
1S!
03!
17"
0V"
1}!
1!"
1'"
1+"
0/"
13"
1U"
0W"
0~!
0""
0*"
14"
0e!
1j!
1k!
1m!
09!
1p!
0r!
0x!
0<!
0>!
1@!
0H!
1K!
0O!
0]!
0`!
1d!
1g!
0h!
0<"
0Q"
1P"
1N"
1F"
0I"
1G"
0K"
1J"
1O"
1L"
1="
1h!
0o!
1r!
0p!
0q!
1t!
0Y!
1x!
1^!
1l!
0>"
1B"
1:"
0~
0,!
0(!
1&!
1$!
1"!
1!!
0\
1p!
1q!
1s!
0l!
0M
0I
1G
1E
1C
1B
0A
09"
0Q
1#!
1,!
1)!
0'!
0&!
1(!
1~
0t!
1u!
1M
1J
1I
0H
0G
1D
1A
0#!
1'!
1&!
1H
1G
0D
1*!
0)!
1K
0J
#35000
1R
1]
13!
07"
08!
1<!
1>!
0@!
1B!
0E!
0K!
1O!
1T!
1U!
0W!
1]!
1`!
0d!
0g!
0i!
1;"
1<"
1Q"
0P"
0N"
1E"
0C"
0D"
0F"
1I"
1H"
0@"
1K"
0J"
0O"
1M"
1o!
0r!
0p!
0q!
0u!
1Z!
1t!
0x!
0^!
0m!
1n!
1l!
0k!
0j!
1>"
0A"
0:"
1\
1q!
0o!
1r!
1k!
0l!
1:"
1Q
0!!
0"!
1#!
1%!
0$!
0,!
1)!
0*!
0'!
0&!
0(!
0q!
0M
0K
1J
0I
0H
0G
1F
0E
1D
0C
0B
0#!
1"!
1(!
1'!
1I
1H
0D
1C
0'!
0H
#40000
0R
1#
1,
1)
0>
0/
1'
0.
15
19
1=
1!
1(
03
16
14
08
00
0]
0m
0l
0k
1i
1f
1e
1d
1`
1^
0{
1z
1v
0u
1s
1r
1q
0p
0c!
1_!
1;!
1\!
0?!
1=!
1N!
0V!
11!
1b!
16!
1A!
1C!
1G!
0M!
0S!
0Q!
03!
17"
1T"
1V"
1X"
0!"
0'"
0)"
0+"
03"
0R"
1W"
0|!
0&"
1("
0,"
0."
00"
12"
1e!
1j!
0k!
1p!
1q!
1o!
0r!
0v!
1y!
0{!
18!
0B!
1E!
1H!
1K!
0T!
0U!
0h!
1i!
0z!
0;"
1C"
1D"
0I"
0G"
0H"
1@"
0M"
18"
0:"
0="
1g!
1h!
0q!
0w!
1x!
19!
1[!
1u!
0s!
0Z!
0t!
0y!
0j!
1A"
19"
0?"
0L"
0<"
0.!
0~
0/!
1-!
0(!
1'!
1&!
0"!
1!!
1m!
0n!
1t!
0u!
1r!
0P
0O
1N
0I
1H
1G
0C
1B
0A
0!!
0-!
0)!
1*!
1,!
0+!
0'!
1~
0\
0N
1M
0L
1K
0J
0H
0B
1A
0Q
1(!
0*!
1)!
0%!
1$!
0K
1J
1I
0F
1E
#45000
1R
1]
13!
07"
08!
0<!
0>!
1@!
0E!
0H!
0K!
0O!
1T!
1W!
0]!
0`!
1d!
0h!
0i!
1w!
1;"
0Q"
1P"
1N"
0E"
0D"
1F"
1I"
1G"
1H"
0K"
1J"
1O"
1M"
09!
0r!
0p!
1q!
1u!
1s!
1Z!
0x!
1v!
1^!
1n!
1l!
1j!
0>"
08"
0A"
09"
1L"
1+!
0~
0u!
0o!
1r!
1x!
0l!
1L
0A
1:"
1!!
1#!
1%!
0,!
1*!
1'!
0&!
0(!
0q!
0M
1K
0I
1H
0G
1F
1D
1B
0#!
1,!
1(!
0*!
1M
0K
1I
0D
0'!
0H
#50000
0R
0#
1>
1/
0'
1.
05
0=
13
04
1?
1-
12
0*
0]
1l
1k
1j
0g
0d
0`
1|
1{
0z
0r
0q
1p
1o
1f!
1c!
0_!
0;!
0N!
1V!
1R!
0b!
06!
0L!
1X!
1M!
1S!
03!
17"
0V"
0X"
0}!
1%"
1+"
13"
0U"
0W"
1|!
1."
10"
02"
04"
0e!
0j!
1k!
1p!
0t!
0x!
1Y!
1y!
18!
1>!
0@!
1E!
1H!
1K!
1]!
1h!
0N"
0I"
0G"
0H"
1K"
0J"
0M"
0B"
1="
1o!
0r!
1q!
1u!
0s!
0Z!
1t!
0^!
0m!
0n!
1>"
1A"
19"
0:"
1~
1-!
0,!
0)!
1&!
1"!
0!!
0p!
0q!
0t!
0u!
1r!
1l!
1N
0M
0J
1G
1C
0B
1A
0%!
0$!
1)!
1*!
1'!
0(!
1K
1J
0I
1H
0F
0E
1#!
1(!
0*!
0)!
0'!
0&!
0K
0J
1I
0H
0G
1D
#55000
1R
1]
13!
07"
08!
1<!
0>!
1@!
1B!
0E!
0H!
0K!
1O!
0W!
0]!
1`!
0d!
1i!
0w!
0;"
1Q"
0P"
1N"
1E"
0F"
1I"
1G"
1H"
0@"
0K"
1J"
0O"
1M"
0r!
1p!
1q!
0[!
1u!
1Z!
1x!
0y!
1n!
0l!
1j!
0A"
1?"
0+!
0n!
0o!
1r!
0L
1:"
1!!
0#!
1%!
0-!
1,!
1*!
1'!
1&!
0(!
0q!
0N
1M
1K
0I
1H
1G
1F
0D
1B
1(!
0%!
1I
0F
0'!
0H
#60000
0R
0>
0/
0.
03
0?
0-
0,
0)
09
0!
0(
06
0%
07
0;
0<
01
0:
0]
0|
0{
0y
0x
0w
0v
0t
0s
0p
0n
0l
0k
0j
0i
0f
0e
0b
0^
01!
05!
0A!
0C!
0G!
0X!
0M!
0S!
02!
0c!
0\!
07!
0=!
0J!
0D!
0F!
0V!
0R!
03!
17"
1U"
1W"
1~!
1""
1$"
1&"
1*"
1,"
12"
16"
1V"
1X"
1}!
1!"
1'"
1)"
1/"
1R"
1^!
1m!
0p!
1q!
0r!
0x!
0Y!
0v!
1y!
0<!
0@!
0O!
0T!
1U!
0`!
0g!
0i!
1;"
1<"
1P"
0C"
1D"
1F"
1K"
1O"
18"
1B"
0>"
1s!
0m!
0q!
0y!
0k!
0j!
09"
1-!
0,!
0(!
1'!
0&!
1$!
1\
0u!
1N
0M
0I
1H
0G
1E
1Q
0!!
0"!
0-!
0'!
0$!
0N
0H
0E
0C
0B
0*!
0K
#65000
1R
1]
13!
07"
18!
1<!
1>!
1@!
0B!
1E!
1K!
1O!
1T!
0U!
1W!
1]!
1`!
1d!
1g!
1i!
1w!
0;"
0<"
0Q"
0P"
0N"
0E"
1C"
0D"
0F"
0I"
0H"
1@"
0K"
0J"
0O"
0M"
1r!
1p!
1q!
1u!
1t!
1x!
1Y!
1v!
1m!
1n!
1l!
1k!
1j!
08"
0B"
1+!
0\
0Z!
0s!
0w!
0x!
1L
19"
1A"
0Q
1!!
1"!
1#!
1%!
1$!
1,!
1)!
1*!
1'!
1&!
1(!
1[!
1o!
0r!
0t!
0u!
1M
1K
1J
1I
1H
1G
1F
1E
1D
1C
1B
0:"
0?"
0,!
0+!
0^!
0m!
0n!
0p!
0q!
0M
0L
1>"
0*!
0)!
0(!
1e!
0j!
0k!
0l!
0K
0J
0I
0="
0'!
0&!
0%!
0$!
0h!
0H
0G
0F
0E
0#!
0"!
0!!
0D
0C
0B
0~
0A
#70000
0R
02
0"
0]
0o
0_
04!
0f!
03!
17"
14"
15"
08!
0<!
0>!
0@!
1B!
0E!
0K!
0O!
0T!
1U!
0W!
0]!
0`!
0d!
0i!
1;"
1Q"
1P"
1N"
1E"
0C"
1D"
1F"
1I"
1H"
0@"
1K"
1J"
1O"
1M"
0o!
1r!
1q!
0[!
1u!
1Z!
1x!
0Y!
0v!
1^!
1n!
1l!
0e!
1="
0>"
18"
1B"
0A"
1?"
1:"
0q!
0n!
0r!
1s!
0x!
0l!
09"
1#!
1%!
1,!
1*!
1'!
1(!
0u!
1M
1K
1I
1H
1F
1D
0#!
0,!
0(!
0%!
0'!
0M
0I
0H
0F
0D
0*!
0K
