Fpga implementation/alu/simulation/qsim/alu.msim.vcd
$comment
	File created using the following command:
		vcd file alu.msim.vcd -direction
$end
$date
	Sat Jun 04 18:37:36 2022
$end
$version
	ModelSim Version 10.5b
$end
$timescale
	1ps
$end

$scope module alu_vlg_vec_tst $end
$var reg 16 ! a [15:0] $end
$var reg 16 " b [15:0] $end
$var wire 1 # y [15] $end
$var wire 1 $ y [14] $end
$var wire 1 % y [13] $end
$var wire 1 & y [12] $end
$var wire 1 ' y [11] $end
$var wire 1 ( y [10] $end
$var wire 1 ) y [9] $end
$var wire 1 * y [8] $end
$var wire 1 + y [7] $end
$var wire 1 , y [6] $end
$var wire 1 - y [5] $end
$var wire 1 . y [4] $end
$var wire 1 / y [3] $end
$var wire 1 0 y [2] $end
$var wire 1 1 y [1] $end
$var wire 1 2 y [0] $end

$scope module i1 $end
$var wire 1 3 gnd $end
$var wire 1 4 vcc $end
$var wire 1 5 unknown $end
$var tri1 1 6 devclrn $end
$var tri1 1 7 devpor $end
$var tri1 1 8 devoe $end
$var wire 1 9 ~QUARTUS_CREATED_GND~I_combout $end
$var wire 1 : b[15]~input_o $end
$var wire 1 ; a[15]~input_o $end
$var wire 1 < b[14]~input_o $end
$var wire 1 = a[14]~input_o $end
$var wire 1 > b[13]~input_o $end
$var wire 1 ? a[13]~input_o $end
$var wire 1 @ a[12]~input_o $end
$var wire 1 A b[12]~input_o $end
$var wire 1 B b[11]~input_o $end
$var wire 1 C a[11]~input_o $end
$var wire 1 D a[10]~input_o $end
$var wire 1 E b[10]~input_o $end
$var wire 1 F b[9]~input_o $end
$var wire 1 G a[9]~input_o $end
$var wire 1 H b[8]~input_o $end
$var wire 1 I a[8]~input_o $end
$var wire 1 J a[7]~input_o $end
$var wire 1 K b[7]~input_o $end
$var wire 1 L b[6]~input_o $end
$var wire 1 M a[6]~input_o $end
$var wire 1 N a[5]~input_o $end
$var wire 1 O b[5]~input_o $end
$var wire 1 P b[4]~input_o $end
$var wire 1 Q a[4]~input_o $end
$var wire 1 R a[3]~input_o $end
$var wire 1 S b[3]~input_o $end
$var wire 1 T b[2]~input_o $end
$var wire 1 U a[2]~input_o $end
$var wire 1 V b[1]~input_o $end
$var wire 1 W a[1]~input_o $end
$var wire 1 X a[0]~input_o $end
$var wire 1 Y b[0]~input_o $end
$var wire 1 Z inst|f [15] $end
$var wire 1 [ inst|f [14] $end
$var wire 1 \ inst|f [13] $end
$var wire 1 ] inst|f [12] $end
$var wire 1 ^ inst|f [11] $end
$var wire 1 _ inst|f [10] $end
$var wire 1 ` inst|f [9] $end
$var wire 1 a inst|f [8] $end
$var wire 1 b inst|f [7] $end
$var wire 1 c inst|f [6] $end
$var wire 1 d inst|f [5] $end
$var wire 1 e inst|f [4] $end
$var wire 1 f inst|f [3] $end
$var wire 1 g inst|f [2] $end
$var wire 1 h inst|f [1] $end
$var wire 1 i inst|f [0] $end
$upscope $end
$upscope $end
$enddefinitions $end
#0
$dumpvars
b0 !
b0 "
02
01
00
0/
0.
0-
0,
0+
0*
0)
0(
0'
0&
0%
0$
0#
03
14
x5
16
17
18
09
0:
0;
0<
0=
0>
0?
0@
0A
0B
0C
0D
0E
0F
0G
0H
0I
0J
0K
0L
0M
0N
0O
0P
0Q
0R
0S
0T
0U
0V
0W
0X
0Y
0i
0h
0g
0f
0e
0d
0c
0b
0a
0`
0_
0^
0]
0\
0[
0Z
$end
#5000
b1000000000000000 !
b1100000000000000 !
b1110000000000000 !
b1111000000000000 !
b1111100000000000 !
b1111110000000000 !
b1111111000000000 !
b1111111100000000 !
b1111111110000000 !
b1111111111000000 !
b1111111111100000 !
b1111111111110000 !
b1111111111111000 !
b1111111111111100 !
b1111111111111110 !
b1111111111111111 !
1X
1W
1U
1R
1Q
1N
1M
1J
1I
1G
1D
1C
1@
1?
1=
1;
#10000
b1000000000000000 "
b1100000000000000 "
b1110000000000000 "
b1111000000000000 "
b1111100000000000 "
b1111110000000000 "
b1111111000000000 "
b1111111100000000 "
b1111111110000000 "
b1111111111000000 "
b1111111111100000 "
b1111111111110000 "
b1111111111111000 "
b1111111111111100 "
b1111111111111110 "
b1111111111111111 "
b111111111111111 !
b11111111111111 !
b1111111111111 !
b111111111111 !
b11111111111 !
b1111111111 !
b111111111 !
b11111111 !
b1111111 !
b111111 !
b11111 !
b1111 !
b111 !
b11 !
b1 !
b0 !
0X
0W
0U
0R
0Q
0N
0M
0J
0I
0G
0D
0C
0@
0?
0=
0;
1Y
1V
1T
1S
1P
1O
1L
1K
1H
1F
1E
1B
1A
1>
1<
1:
#15000
b1000000000000000 !
b1100000000000000 !
b1110000000000000 !
b1111000000000000 !
b1111100000000000 !
b1111110000000000 !
b1111111000000000 !
b1111111100000000 !
b1111111110000000 !
b1111111111000000 !
b1111111111100000 !
b1111111111110000 !
b1111111111111000 !
b1111111111111100 !
b1111111111111110 !
b1111111111111111 !
1X
1W
1U
1R
1Q
1N
1M
1J
1I
1G
1D
1C
1@
1?
1=
1;
1Z
1[
1\
1]
1^
1_
1`
1a
1b
1c
1d
1e
1f
1g
1h
1i
12
11
10
1/
1.
1-
1,
1+
1*
1)
1(
1'
1&
1%
1$
1#
#20000
b111111111111111 "
b11111111111111 "
b1111111111111 "
b111111111111 "
b11111111111 "
b1111111111 "
b111111111 "
b11111111 "
b1111111 "
b111111 "
b11111 "
b1111 "
b111 "
b11 "
b1 "
b0 "
b111111111111111 !
b11111111111111 !
b1111111111111 !
b111111111111 !
b11111111111 !
b1111111111 !
b111111111 !
b11111111 !
b1111111 !
b111111 !
b11111 !
b1111 !
b111 !
b11 !
b1 !
b0 !
0X
0W
0U
0R
0Q
0N
0M
0J
0I
0G
0D
0C
0@
0?
0=
0;
0Y
0V
0T
0S
0P
0O
0L
0K
0H
0F
0E
0B
0A
0>
0<
0:
0Z
0[
0\
0]
0^
0_
0`
0a
0b
0c
0d
0e
0f
0g
0h
0i
02
01
00
0/
0.
0-
0,
0+
0*
0)
0(
0'
0&
0%
0$
0#
#25000
b1000000000000000 !
b1100000000000000 !
b1110000000000000 !
b1111000000000000 !
b1111100000000000 !
b1111110000000000 !
b1111111000000000 !
b1111111100000000 !
b1111111110000000 !
b1111111111000000 !
b1111111111100000 !
b1111111111110000 !
b1111111111111000 !
b1111111111111100 !
b1111111111111110 !
b1111111111111111 !
1X
1W
1U
1R
1Q
1N
1M
1J
1I
1G
1D
1C
1@
1?
1=
1;
#30000
b1000000000000000 "
b1100000000000000 "
b1110000000000000 "
b1111000000000000 "
b1111100000000000 "
b1111110000000000 "
b1111111000000000 "
b1111111100000000 "
b1111111110000000 "
b1111111111000000 "
b1111111111100000 "
b1111111111110000 "
b1111111111111000 "
b1111111111111100 "
b1111111111111110 "
b1111111111111111 "
b111111111111111 !
b11111111111111 !
b1111111111111 !
b111111111111 !
b11111111111 !
b1111111111 !
b111111111 !
b11111111 !
b1111111 !
b111111 !
b11111 !
b1111 !
b111 !
b11 !
b1 !
b0 !
0X
0W
0U
0R
0Q
0N
0M
0J
0I
0G
0D
0C
0@
0?
0=
0;
1Y
1V
1T
1S
1P
1O
1L
1K
1H
1F
1E
1B
1A
1>
1<
1:
#35000
b1000000000000000 !
b1100000000000000 !
b1110000000000000 !
b1111000000000000 !
b1111100000000000 !
b1111110000000000 !
b1111111000000000 !
b1111111100000000 !
b1111111110000000 !
b1111111111000000 !
b1111111111100000 !
b1111111111110000 !
b1111111111111000 !
b1111111111111100 !
b1111111111111110 !
b1111111111111111 !
1X
1W
1U
1R
1Q
1N
1M
1J
1I
1G
1D
1C
1@
1?
1=
1;
1Z
1[
1\
1]
1^
1_
1`
1a
1b
1c
1d
1e
1f
1g
1h
1i
12
11
10
1/
1.
1-
1,
1+
1*
1)
1(
1'
1&
1%
1$
1#
#40000
b111111111111111 "
b11111111111111 "
b1111111111111 "
b111111111111 "
b11111111111 "
b1111111111 "
b111111111 "
b11111111 "
b1111111 "
b111111 "
b11111 "
b1111 "
b111 "
b11 "
b1 "
b0 "
b111111111111111 !
b11111111111111 !
b1111111111111 !
b111111111111 !
b11111111111 !
b1111111111 !
b111111111 !
b11111111 !
b1111111 !
b111111 !
b11111 !
b1111 !
b111 !
b11 !
b1 !
b0 !
0X
0W
0U
0R
0Q
0N
0M
0J
0I
0G
0D
0C
0@
0?
0=
0;
0Y
0V
0T
0S
0P
0O
0L
0K
0H
0F
0E
0B
0A
0>
0<
0:
0Z
0[
0\
0]
0^
0_
0`
0a
0b
0c
0d
0e
0f
0g
0h
0i
02
01
00
0/
0.
0-
0,
0+
0*
0)
0(
0'
0&
0%
0$
0#
#45000
b1000000000000000 !
b1100000000000000 !
b1110000000000000 !
b1111000000000000 !
b1111100000000000 !
b1111110000000000 !
b1111111000000000 !
b1111111100000000 !
b1111111110000000 !
b1111111111000000 !
b1111111111100000 !
b1111111111110000 !
b1111111111111000 !
b1111111111111100 !
b1111111111111110 !
b1111111111111111 !
1X
1W
1U
1R
1Q
1N
1M
1J
1I
1G
1D
1C
1@
1?
1=
1;
#50000
b1000000000000000 "
b1100000000000000 "
b1110000000000000 "
b1111000000000000 "
b1111100000000000 "
b1111110000000000 "
b1111111000000000 "
b1111111100000000 "
b1111111110000000 "
b1111111111000000 "
b1111111111100000 "
b1111111111110000 "
b1111111111111000 "
b1111111111111100 "
b1111111111111110 "
b1111111111111111 "
b111111111111111 !
b11111111111111 !
b1111111111111 !
b111111111111 !
b11111111111 !
b1111111111 !
b111111111 !
b11111111 !
b1111111 !
b111111 !
b11111 !
b1111 !
b111 !
b11 !
b1 !
b0 !
0X
0W
0U
0R
0Q
0N
0M
0J
0I
0G
0D
0C
0@
0?
0=
0;
1Y
1V
1T
1S
1P
1O
1L
1K
1H
1F
1E
1B
1A
1>
1<
1:
#55000
b1000000000000000 !
b1100000000000000 !
b1110000000000000 !
b1111000000000000 !
b1111100000000000 !
b1111110000000000 !
b1111111000000000 !
b1111111100000000 !
b1111111110000000 !
b1111111111000000 !
b1111111111100000 !
b1111111111110000 !
b1111111111111000 !
b1111111111111100 !
b1111111111111110 !
b1111111111111111 !
1X
1W
1U
1R
1Q
1N
1M
1J
1I
1G
1D
1C
1@
1?
1=
1;
1Z
1[
1\
1]
1^
1_
1`
1a
1b
1c
1d
1e
1f
1g
1h
1i
12
11
10
1/
1.
1-
1,
1+
1*
1)
1(
1'
1&
1%
1$
1#
#60000
b111111111111111 "
b11111111111111 "
b1111111111111 "
b111111111111 "
b11111111111 "
b1111111111 "
b111111111 "
b11111111 "
b1111111 "
b111111 "
b11111 "
b1111 "
b111 "
b11 "
b1 "
b0 "
b111111111111111 !
b11111111111111 !
b1111111111111 !
b111111111111 !
b11111111111 !
b1111111111 !
b111111111 !
b11111111 !
b1111111 !
b111111 !
b11111 !
b1111 !
b111 !
b11 !
b1 !
b0 !
0X
0W
0U
0R
0Q
0N
0M
0J
0I
0G
0D
0C
0@
0?
0=
0;
0Y
0V
0T
0S
0P
0O
0L
0K
0H
0F
0E
0B
0A
0>
0<
0:
0Z
0[
0\
0]
0^
0_
0`
0a
0b
0c
0d
0e
0f
0g
0h
0i
02
01
00
0/
0.
0-
0,
0+
0*
0)
0(
0'
0&
0%
0$
0#
#65000
b1000000000000000 !
b1100000000000000 !
b1110000000000000 !
b1111000000000000 !
b1111100000000000 !
b1111110000000000 !
b1111111000000000 !
b1111111100000000 !
b1111111110000000 !
b1111111111000000 !
b1111111111100000 !
b1111111111110000 !
b1111111111111000 !
b1111111111111100 !
b1111111111111110 !
b1111111111111111 !
1X
1W
1U
1R
1Q
1N
1M
1J
1I
1G
1D
1C
1@
1?
1=
1;
#70000
b1000000000000000 "
b1100000000000000 "
b1110000000000000 "
b1111000000000000 "
b1111100000000000 "
b1111110000000000 "
b1111111000000000 "
b1111111100000000 "
b1111111110000000 "
b1111111111000000 "
b1111111111100000 "
b1111111111110000 "
b1111111111111000 "
b1111111111111100 "
b1111111111111110 "
b1111111111111111 "
b111111111111111 !
b11111111111111 !
b1111111111111 !
b111111111111 !
b11111111111 !
b1111111111 !
b111111111 !
b11111111 !
b1111111 !
b111111 !
b11111 !
b1111 !
b111 !
b11 !
b1 !
b0 !
0X
0W
0U
0R
0Q
0N
0M
0J
0I
0G
0D
0C
0@
0?
0=
0;
1Y
1V
1T
1S
1P
1O
1L
1K
1H
1F
1E
1B
1A
1>
1<
1:
#75000
b1000000000000000 !
b1100000000000000 !
b1110000000000000 !
b1111000000000000 !
b1111100000000000 !
b1111110000000000 !
b1111111000000000 !
b1111111100000000 !
b1111111110000000 !
b1111111111000000 !
b1111111111100000 !
b1111111111110000 !
b1111111111111000 !
b1111111111111100 !
b1111111111111110 !
b1111111111111111 !
1X
1W
1U
1R
1Q
1N
1M
1J
1I
1G
1D
1C
1@
1?
1=
1;
1Z
1[
1\
1]
1^
1_
1`
1a
1b
1c
1d
1e
1f
1g
1h
1i
12
11
10
1/
1.
1-
1,
1+
1*
1)
1(
1'
1&
1%
1$
1#
#80000
b111111111111111 "
b11111111111111 "
b1111111111111 "
b111111111111 "
b11111111111 "
b1111111111 "
b111111111 "
b11111111 "
b1111111 "
b111111 "
b11111 "
b1111 "
b111 "
b11 "
b1 "
b0 "
b111111111111111 !
b11111111111111 !
b1111111111111 !
b111111111111 !
b11111111111 !
b1111111111 !
b111111111 !
b11111111 !
b1111111 !
b111111 !
b11111 !
b1111 !
b111 !
b11 !
b1 !
b0 !
0X
0W
0U
0R
0Q
0N
0M
0J
0I
0G
0D
0C
0@
0?
0=
0;
0Y
0V
0T
0S
0P
0O
0L
0K
0H
0F
0E
0B
0A
0>
0<
0:
0Z
0[
0\
0]
0^
0_
0`
0a
0b
0c
0d
0e
0f
0g
0h
0i
02
01
00
0/
0.
0-
0,
0+
0*
0)
0(
0'
0&
0%
0$
0#
#85000
b1000000000000000 !
b1100000000000000 !
b1110000000000000 !
b1111000000000000 !
b1111100000000000 !
b1111110000000000 !
b1111111000000000 !
b1111111100000000 !
b1111111110000000 !
b1111111111000000 !
b1111111111100000 !
b1111111111110000 !
b1111111111111000 !
b1111111111111100 !
b1111111111111110 !
b1111111111111111 !
1X
1W
1U
1R
1Q
1N
1M
1J
1I
1G
1D
1C
1@
1?
1=
1;
#90000
b1000000000000000 "
b1100000000000000 "
b1110000000000000 "
b1111000000000000 "
b1111100000000000 "
b1111110000000000 "
b1111111000000000 "
b1111111100000000 "
b1111111110000000 "
b1111111111000000 "
b1111111111100000 "
b1111111111110000 "
b1111111111111000 "
b1111111111111100 "
b1111111111111110 "
b1111111111111111 "
b111111111111111 !
b11111111111111 !
b1111111111111 !
b111111111111 !
b11111111111 !
b1111111111 !
b111111111 !
b11111111 !
b1111111 !
b111111 !
b11111 !
b1111 !
b111 !
b11 !
b1 !
b0 !
0X
0W
0U
0R
0Q
0N
0M
0J
0I
0G
0D
0C
0@
0?
0=
0;
1Y
1V
1T
1S
1P
1O
1L
1K
1H
1F
1E
1B
1A
1>
1<
1:
#95000
b1000000000000000 !
b1100000000000000 !
b1110000000000000 !
b1111000000000000 !
b1111100000000000 !
b1111110000000000 !
b1111111000000000 !
b1111111100000000 !
b1111111110000000 !
b1111111111000000 !
b1111111111100000 !
b1111111111110000 !
b1111111111111000 !
b1111111111111100 !
b1111111111111110 !
b1111111111111111 !
1X
1W
1U
1R
1Q
1N
1M
1J
1I
1G
1D
1C
1@
1?
1=
1;
1Z
1[
1\
1]
1^
1_
1`
1a
1b
1c
1d
1e
1f
1g
1h
1i
12
11
10
1/
1.
1-
1,
1+
1*
1)
1(
1'
1&
1%
1$
1#
#100000
b111111111111111 "
b11111111111111 "
b1111111111111 "
b111111111111 "
b11111111111 "
b1111111111 "
b111111111 "
b11111111 "
b1111111 "
b111111 "
b11111 "
b1111 "
b111 "
b11 "
b1 "
b0 "
b111111111111111 !
b11111111111111 !
b1111111111111 !
b111111111111 !
b11111111111 !
b1111111111 !
b111111111 !
b11111111 !
b1111111 !
b111111 !
b11111 !
b1111 !
b111 !
b11 !
b1 !
b0 !
0X
0W
0U
0R
0Q
0N
0M
0J
0I
0G
0D
0C
0@
0?
0=
0;
0Y
0V
0T
0S
0P
0O
0L
0K
0H
0F
0E
0B
0A
0>
0<
0:
0Z
0[
0\
0]
0^
0_
0`
0a
0b
0c
0d
0e
0f
0g
0h
0i
02
01
00
0/
0.
0-
0,
0+
0*
0)
0(
0'
0&
0%
0$
0#
#105000
b1000000000000000 !
b1100000000000000 !
b1110000000000000 !
b1111000000000000 !
b1111100000000000 !
b1111110000000000 !
b1111111000000000 !
b1111111100000000 !
b1111111110000000 !
b1111111111000000 !
b1111111111100000 !
b1111111111110000 !
b1111111111111000 !
b1111111111111100 !
b1111111111111110 !
b1111111111111111 !
1X
1W
1U
1R
1Q
1N
1M
1J
1I
1G
1D
1C
1@
1?
1=
1;
#110000
b1000000000000000 "
b1100000000000000 "
b1110000000000000 "
b1111000000000000 "
b1111100000000000 "
b1111110000000000 "
b1111111000000000 "
b1111111100000000 "
b1111111110000000 "
b1111111111000000 "
b1111111111100000 "
b1111111111110000 "
b1111111111111000 "
b1111111111111100 "
b1111111111111110 "
b1111111111111111 "
b111111111111111 !
b11111111111111 !
b1111111111111 !
b111111111111 !
b11111111111 !
b1111111111 !
b111111111 !
b11111111 !
b1111111 !
b111111 !
b11111 !
b1111 !
b111 !
b11 !
b1 !
b0 !
0X
0W
0U
0R
0Q
0N
0M
0J
0I
0G
0D
0C
0@
0?
0=
0;
1Y
1V
1T
1S
1P
1O
1L
1K
1H
1F
1E
1B
1A
1>
1<
1:
#115000
b1000000000000000 !
b1100000000000000 !
b1110000000000000 !
b1111000000000000 !
b1111100000000000 !
b1111110000000000 !
b1111111000000000 !
b1111111100000000 !
b1111111110000000 !
b1111111111000000 !
b1111111111100000 !
b1111111111110000 !
b1111111111111000 !
b1111111111111100 !
b1111111111111110 !
b1111111111111111 !
1X
1W
1U
1R
1Q
1N
1M
1J
1I
1G
1D
1C
1@
1?
1=
1;
1Z
1[
1\
1]
1^
1_
1`
1a
1b
1c
1d
1e
1f
1g
1h
1i
12
11
10
1/
1.
1-
1,
1+
1*
1)
1(
1'
1&
1%
1$
1#
#120000
b111111111111111 "
b11111111111111 "
b1111111111111 "
b111111111111 "
b11111111111 "
b1111111111 "
b111111111 "
b11111111 "
b1111111 "
b111111 "
b11111 "
b1111 "
b111 "
b11 "
b1 "
b0 "
b111111111111111 !
b11111111111111 !
b1111111111111 !
b111111111111 !
b11111111111 !
b1111111111 !
b111111111 !
b11111111 !
b1111111 !
b111111 !
b11111 !
b1111 !
b111 !
b11 !
b1 !
b0 !
0X
0W
0U
0R
0Q
0N
0M
0J
0I
0G
0D
0C
0@
0?
0=
0;
0Y
0V
0T
0S
0P
0O
0L
0K
0H
0F
0E
0B
0A
0>
0<
0:
0Z
0[
0\
0]
0^
0_
0`
0a
0b
0c
0d
0e
0f
0g
0h
0i
02
01
00
0/
0.
0-
0,
0+
0*
0)
0(
0'
0&
0%
0$
0#
#125000
b1000000000000000 !
b1100000000000000 !
b1110000000000000 !
b1111000000000000 !
b1111100000000000 !
b1111110000000000 !
b1111111000000000 !
b1111111100000000 !
b1111111110000000 !
b1111111111000000 !
b1111111111100000 !
b1111111111110000 !
b1111111111111000 !
b1111111111111100 !
b1111111111111110 !
b1111111111111111 !
1X
1W
1U
1R
1Q
1N
1M
1J
1I
1G
1D
1C
1@
1?
1=
1;
#130000
b1000000000000000 "
b1100000000000000 "
b1110000000000000 "
b1111000000000000 "
b1111100000000000 "
b1111110000000000 "
b1111111000000000 "
b1111111100000000 "
b1111111110000000 "
b1111111111000000 "
b1111111111100000 "
b1111111111110000 "
b1111111111111000 "
b1111111111111100 "
b1111111111111110 "
b1111111111111111 "
b111111111111111 !
b11111111111111 !
b1111111111111 !
b111111111111 !
b11111111111 !
b1111111111 !
b111111111 !
b11111111 !
b1111111 !
b111111 !
b11111 !
b1111 !
b111 !
b11 !
b1 !
b0 !
0X
0W
0U
0R
0Q
0N
0M
0J
0I
0G
0D
0C
0@
0?
0=
0;
1Y
1V
1T
1S
1P
1O
1L
1K
1H
1F
1E
1B
1A
1>
1<
1:
#135000
b1000000000000000 !
b1100000000000000 !
b1110000000000000 !
b1111000000000000 !
b1111100000000000 !
b1111110000000000 !
b1111111000000000 !
b1111111100000000 !
b1111111110000000 !
b1111111111000000 !
b1111111111100000 !
b1111111111110000 !
b1111111111111000 !
b1111111111111100 !
b1111111111111110 !
b1111111111111111 !
1X
1W
1U
1R
1Q
1N
1M
1J
1I
1G
1D
1C
1@
1?
1=
1;
1Z
1[
1\
1]
1^
1_
1`
1a
1b
1c
1d
1e
1f
1g
1h
1i
12
11
10
1/
1.
1-
1,
1+
1*
1)
1(
1'
1&
1%
1$
1#
#140000
b111111111111111 "
b11111111111111 "
b1111111111111 "
b111111111111 "
b11111111111 "
b1111111111 "
b111111111 "
b11111111 "
b1111111 "
b111111 "
b11111 "
b1111 "
b111 "
b11 "
b1 "
b0 "
b111111111111111 !
b11111111111111 !
b1111111111111 !
b111111111111 !
b11111111111 !
b1111111111 !
b111111111 !
b11111111 !
b1111111 !
b111111 !
b11111 !
b1111 !
b111 !
b11 !
b1 !
b0 !
0X
0W
0U
0R
0Q
0N
0M
0J
0I
0G
0D
0C
0@
0?
0=
0;
0Y
0V
0T
0S
0P
0O
0L
0K
0H
0F
0E
0B
0A
0>
0<
0:
0Z
0[
0\
0]
0^
0_
0`
0a
0b
0c
0d
0e
0f
0g
0h
0i
02
01
00
0/
0.
0-
0,
0+
0*
0)
0(
0'
0&
0%
0$
0#
#145000
b1000000000000000 !
b1100000000000000 !
b1110000000000000 !
b1111000000000000 !
b1111100000000000 !
b1111110000000000 !
b1111111000000000 !
b1111111100000000 !
b1111111110000000 !
b1111111111000000 !
b1111111111100000 !
b1111111111110000 !
b1111111111111000 !
b1111111111111100 !
b1111111111111110 !
b1111111111111111 !
1X
1W
1U
1R
1Q
1N
1M
1J
1I
1G
1D
1C
1@
1?
1=
1;
#150000
b1000000000000000 "
b1100000000000000 "
b1110000000000000 "
b1111000000000000 "
b1111100000000000 "
b1111110000000000 "
b1111111000000000 "
b1111111100000000 "
b1111111110000000 "
b1111111111000000 "
b1111111111100000 "
b1111111111110000 "
b1111111111111000 "
b1111111111111100 "
b1111111111111110 "
b1111111111111111 "
b111111111111111 !
b11111111111111 !
b1111111111111 !
b111111111111 !
b11111111111 !
b1111111111 !
b111111111 !
b11111111 !
b1111111 !
b111111 !
b11111 !
b1111 !
b111 !
b11 !
b1 !
b0 !
0X
0W
0U
0R
0Q
0N
0M
0J
0I
0G
0D
0C
0@
0?
0=
0;
1Y
1V
1T
1S
1P
1O
1L
1K
1H
1F
1E
1B
1A
1>
1<
1:
#155000
b1000000000000000 !
b1100000000000000 !
b1110000000000000 !
b1111000000000000 !
b1111100000000000 !
b1111110000000000 !
b1111111000000000 !
b1111111100000000 !
b1111111110000000 !
b1111111111000000 !
b1111111111100000 !
b1111111111110000 !
b1111111111111000 !
b1111111111111100 !
b1111111111111110 !
b1111111111111111 !
1X
1W
1U
1R
1Q
1N
1M
1J
1I
1G
1D
1C
1@
1?
1=
1;
1Z
1[
1\
1]
1^
1_
1`
1a
1b
1c
1d
1e
1f
1g
1h
1i
12
11
10
1/
1.
1-
1,
1+
1*
1)
1(
1'
1&
1%
1$
1#
#160000
b111111111111111 "
b11111111111111 "
b1111111111111 "
b111111111111 "
b11111111111 "
b1111111111 "
b111111111 "
b11111111 "
b1111111 "
b111111 "
b11111 "
b1111 "
b111 "
b11 "
b1 "
b0 "
b111111111111111 !
b11111111111111 !
b1111111111111 !
b111111111111 !
b11111111111 !
b1111111111 !
b111111111 !
b11111111 !
b1111111 !
b111111 !
b11111 !
b1111 !
b111 !
b11 !
b1 !
b0 !
0X
0W
0U
0R
0Q
0N
0M
0J
0I
0G
0D
0C
0@
0?
0=
0;
0Y
0V
0T
0S
0P
0O
0L
0K
0H
0F
0E
0B
0A
0>
0<
0:
0Z
0[
0\
0]
0^
0_
0`
0a
0b
0c
0d
0e
0f
0g
0h
0i
02
01
00
0/
0.
0-
0,
0+
0*
0)
0(
0'
0&
0%
0$
0#
#165000
b1000000000000000 !
b1100000000000000 !
b1110000000000000 !
b1111000000000000 !
b1111100000000000 !
b1111110000000000 !
b1111111000000000 !
b1111111100000000 !
b1111111110000000 !
b1111111111000000 !
b1111111111100000 !
b1111111111110000 !
b1111111111111000 !
b1111111111111100 !
b1111111111111110 !
b1111111111111111 !
1X
1W
1U
1R
1Q
1N
1M
1J
1I
1G
1D
1C
1@
1?
1=
1;
#170000
b1000000000000000 "
b1100000000000000 "
b1110000000000000 "
b1111000000000000 "
b1111100000000000 "
b1111110000000000 "
b1111111000000000 "
b1111111100000000 "
b1111111110000000 "
b1111111111000000 "
b1111111111100000 "
b1111111111110000 "
b1111111111111000 "
b1111111111111100 "
b1111111111111110 "
b1111111111111111 "
b111111111111111 !
b11111111111111 !
b1111111111111 !
b111111111111 !
b11111111111 !
b1111111111 !
b111111111 !
b11111111 !
b1111111 !
b111111 !
b11111 !
b1111 !
b111 !
b11 !
b1 !
b0 !
0X
0W
0U
0R
0Q
0N
0M
0J
0I
0G
0D
0C
0@
0?
0=
0;
1Y
1V
1T
1S
1P
1O
1L
1K
1H
1F
1E
1B
1A
1>
1<
1:
#175000
b1000000000000000 !
b1100000000000000 !
b1110000000000000 !
b1111000000000000 !
b1111100000000000 !
b1111110000000000 !
b1111111000000000 !
b1111111100000000 !
b1111111110000000 !
b1111111111000000 !
b1111111111100000 !
b1111111111110000 !
b1111111111111000 !
b1111111111111100 !
b1111111111111110 !
b1111111111111111 !
1X
1W
1U
1R
1Q
1N
1M
1J
1I
1G
1D
1C
1@
1?
1=
1;
1Z
1[
1\
1]
1^
1_
1`
1a
1b
1c
1d
1e
1f
1g
1h
1i
12
11
10
1/
1.
1-
1,
1+
1*
1)
1(
1'
1&
1%
1$
1#
#180000
b111111111111111 "
b11111111111111 "
b1111111111111 "
b111111111111 "
b11111111111 "
b1111111111 "
b111111111 "
b11111111 "
b1111111 "
b111111 "
b11111 "
b1111 "
b111 "
b11 "
b1 "
b0 "
b111111111111111 !
b11111111111111 !
b1111111111111 !
b111111111111 !
b11111111111 !
b1111111111 !
b111111111 !
b11111111 !
b1111111 !
b111111 !
b11111 !
b1111 !
b111 !
b11 !
b1 !
b0 !
0X
0W
0U
0R
0Q
0N
0M
0J
0I
0G
0D
0C
0@
0?
0=
0;
0Y
0V
0T
0S
0P
0O
0L
0K
0H
0F
0E
0B
0A
0>
0<
0:
0Z
0[
0\
0]
0^
0_
0`
0a
0b
0c
0d
0e
0f
0g
0h
0i
02
01
00
0/
0.
0-
0,
0+
0*
0)
0(
0'
0&
0%
0$
0#
#185000
b1000000000000000 !
b1100000000000000 !
b1110000000000000 !
b1111000000000000 !
b1111100000000000 !
b1111110000000000 !
b1111111000000000 !
b1111111100000000 !
b1111111110000000 !
b1111111111000000 !
b1111111111100000 !
b1111111111110000 !
b1111111111111000 !
b1111111111111100 !
b1111111111111110 !
b1111111111111111 !
1X
1W
1U
1R
1Q
1N
1M
1J
1I
1G
1D
1C
1@
1?
1=
1;
#190000
b1000000000000000 "
b1100000000000000 "
b1110000000000000 "
b1111000000000000 "
b1111100000000000 "
b1111110000000000 "
b1111111000000000 "
b1111111100000000 "
b1111111110000000 "
b1111111111000000 "
b1111111111100000 "
b1111111111110000 "
b1111111111111000 "
b1111111111111100 "
b1111111111111110 "
b1111111111111111 "
b111111111111111 !
b11111111111111 !
b1111111111111 !
b111111111111 !
b11111111111 !
b1111111111 !
b111111111 !
b11111111 !
b1111111 !
b111111 !
b11111 !
b1111 !
b111 !
b11 !
b1 !
b0 !
0X
0W
0U
0R
0Q
0N
0M
0J
0I
0G
0D
0C
0@
0?
0=
0;
1Y
1V
1T
1S
1P
1O
1L
1K
1H
1F
1E
1B
1A
1>
1<
1:
#195000
b1000000000000000 !
b1100000000000000 !
b1110000000000000 !
b1111000000000000 !
b1111100000000000 !
b1111110000000000 !
b1111111000000000 !
b1111111100000000 !
b1111111110000000 !
b1111111111000000 !
b1111111111100000 !
b1111111111110000 !
b1111111111111000 !
b1111111111111100 !
b1111111111111110 !
b1111111111111111 !
1X
1W
1U
1R
1Q
1N
1M
1J
1I
1G
1D
1C
1@
1?
1=
1;
1Z
1[
1\
1]
1^
1_
1`
1a
1b
1c
1d
1e
1f
1g
1h
1i
12
11
10
1/
1.
1-
1,
1+
1*
1)
1(
1'
1&
1%
1$
1#
