Fpga implementation/alu/simulation/qsim/alu_logic.msim.vcd
$comment
	File created using the following command:
		vcd file alu_logic.msim.vcd -direction
$end
$date
	Sat Jun 04 21:32:03 2022
$end
$version
	ModelSim Version 10.5b
$end
$timescale
	1ps
$end

$scope module alu_logic_vlg_vec_tst $end
$var reg 16 ! a [15:0] $end
$var reg 16 " ap [15:0] $end
$var reg 16 # b [15:0] $end
$var reg 16 $ bp [15:0] $end
$var reg 16 % fp [15:0] $end
$var wire 1 & f [15] $end
$var wire 1 ' f [14] $end
$var wire 1 ( f [13] $end
$var wire 1 ) f [12] $end
$var wire 1 * f [11] $end
$var wire 1 + f [10] $end
$var wire 1 , f [9] $end
$var wire 1 - f [8] $end
$var wire 1 . f [7] $end
$var wire 1 / f [6] $end
$var wire 1 0 f [5] $end
$var wire 1 1 f [4] $end
$var wire 1 2 f [3] $end
$var wire 1 3 f [2] $end
$var wire 1 4 f [1] $end
$var wire 1 5 f [0] $end

$scope module i1 $end
$var wire 1 6 gnd $end
$var wire 1 7 vcc $end
$var wire 1 8 unknown $end
$var tri1 1 9 devclrn $end
$var tri1 1 : devpor $end
$var tri1 1 ; devoe $end
$var wire 1 < ~QUARTUS_CREATED_GND~I_combout $end
$var wire 1 = b[0]~input_o $end
$var wire 1 > a[0]~input_o $end
$var wire 1 ? ap[0]~input_o $end
$var wire 1 @ fp[0]~input_o $end
$var wire 1 A bp[0]~input_o $end
$var wire 1 B f~0_combout $end
$var wire 1 C b[1]~input_o $end
$var wire 1 D bp[1]~input_o $end
$var wire 1 E ap[1]~input_o $end
$var wire 1 F fp[1]~input_o $end
$var wire 1 G a[1]~input_o $end
$var wire 1 H f~1_combout $end
$var wire 1 I fp[2]~input_o $end
$var wire 1 J a[2]~input_o $end
$var wire 1 K b[2]~input_o $end
$var wire 1 L bp[2]~input_o $end
$var wire 1 M ap[2]~input_o $end
$var wire 1 N f~2_combout $end
$var wire 1 O ap[3]~input_o $end
$var wire 1 P a[3]~input_o $end
$var wire 1 Q fp[3]~input_o $end
$var wire 1 R bp[3]~input_o $end
$var wire 1 S b[3]~input_o $end
$var wire 1 T f~3_combout $end
$var wire 1 U bp[4]~input_o $end
$var wire 1 V ap[4]~input_o $end
$var wire 1 W b[4]~input_o $end
$var wire 1 X a[4]~input_o $end
$var wire 1 Y fp[4]~input_o $end
$var wire 1 Z f~4_combout $end
$var wire 1 [ ap[5]~input_o $end
$var wire 1 \ fp[5]~input_o $end
$var wire 1 ] b[5]~input_o $end
$var wire 1 ^ bp[5]~input_o $end
$var wire 1 _ a[5]~input_o $end
$var wire 1 ` f~5_combout $end
$var wire 1 a fp[6]~input_o $end
$var wire 1 b bp[6]~input_o $end
$var wire 1 c b[6]~input_o $end
$var wire 1 d ap[6]~input_o $end
$var wire 1 e a[6]~input_o $end
$var wire 1 f f~6_combout $end
$var wire 1 g ap[7]~input_o $end
$var wire 1 h b[7]~input_o $end
$var wire 1 i a[7]~input_o $end
$var wire 1 j fp[7]~input_o $end
$var wire 1 k bp[7]~input_o $end
$var wire 1 l f~7_combout $end
$var wire 1 m fp[8]~input_o $end
$var wire 1 n bp[8]~input_o $end
$var wire 1 o a[8]~input_o $end
$var wire 1 p b[8]~input_o $end
$var wire 1 q ap[8]~input_o $end
$var wire 1 r f~8_combout $end
$var wire 1 s b[9]~input_o $end
$var wire 1 t ap[9]~input_o $end
$var wire 1 u fp[9]~input_o $end
$var wire 1 v a[9]~input_o $end
$var wire 1 w bp[9]~input_o $end
$var wire 1 x f~9_combout $end
$var wire 1 y bp[10]~input_o $end
$var wire 1 z fp[10]~input_o $end
$var wire 1 { b[10]~input_o $end
$var wire 1 | ap[10]~input_o $end
$var wire 1 } a[10]~input_o $end
$var wire 1 ~ f~10_combout $end
$var wire 1 !! ap[11]~input_o $end
$var wire 1 "! bp[11]~input_o $end
$var wire 1 #! fp[11]~input_o $end
$var wire 1 $! a[11]~input_o $end
$var wire 1 %! b[11]~input_o $end
$var wire 1 &! f~11_combout $end
$var wire 1 '! a[12]~input_o $end
$var wire 1 (! fp[12]~input_o $end
$var wire 1 )! ap[12]~input_o $end
$var wire 1 *! bp[12]~input_o $end
$var wire 1 +! b[12]~input_o $end
$var wire 1 ,! f~12_combout $end
$var wire 1 -! ap[13]~input_o $end
$var wire 1 .! fp[13]~input_o $end
$var wire 1 /! b[13]~input_o $end
$var wire 1 0! bp[13]~input_o $end
$var wire 1 1! a[13]~input_o $end
$var wire 1 2! f~13_combout $end
$var wire 1 3! a[14]~input_o $end
$var wire 1 4! fp[14]~input_o $end
$var wire 1 5! bp[14]~input_o $end
$var wire 1 6! b[14]~input_o $end
$var wire 1 7! ap[14]~input_o $end
$var wire 1 8! f~14_combout $end
$var wire 1 9! ap[15]~input_o $end
$var wire 1 :! fp[15]~input_o $end
$var wire 1 ;! bp[15]~input_o $end
$var wire 1 <! b[15]~input_o $end
$var wire 1 =! a[15]~input_o $end
$var wire 1 >! f~15_combout $end
$upscope $end
$upscope $end
$enddefinitions $end
#0
$dumpvars
b0 !
b0 "
b0 #
b0 $
b0 %
05
04
03
02
01
00
0/
0.
0-
0,
0+
0*
0)
0(
0'
0&
06
17
x8
19
1:
1;
0<
0=
0>
0?
0@
0A
0B
0C
0D
0E
0F
0G
0H
0I
0J
0K
0L
0M
0N
0O
0P
0Q
0R
0S
0T
0U
0V
0W
0X
0Y
0Z
0[
0\
0]
0^
0_
0`
0a
0b
0c
0d
0e
0f
0g
0h
0i
0j
0k
0l
0m
0n
0o
0p
0q
0r
0s
0t
0u
0v
0w
0x
0y
0z
0{
0|
0}
0~
0!!
0"!
0#!
0$!
0%!
0&!
0'!
0(!
0)!
0*!
0+!
0,!
0-!
0.!
0/!
00!
01!
02!
03!
04!
05!
06!
07!
08!
09!
0:!
0;!
0<!
0=!
0>!
$end
#5000
b1000000000000000 !
b1100000000000000 !
b1110000000000000 !
b1111000000000000 !
b1111100000000000 !
b1111110000000000 !
b1111111000000000 !
b1111111100000000 !
b1111111110000000 !
b1111111111000000 !
b1111111111100000 !
b1111111111110000 !
b1111111111111000 !
b1111111111111100 !
b1111111111111110 !
b1111111111111111 !
1>
1G
1J
1P
1X
1_
1e
1i
1o
1v
1}
1$!
1'!
11!
13!
1=!
#10000
b1000000000000000 #
b1100000000000000 #
b1110000000000000 #
b1111000000000000 #
b1111100000000000 #
b1111110000000000 #
b1111111000000000 #
b1111111100000000 #
b1111111110000000 #
b1111111111000000 #
b1111111111100000 #
b1111111111110000 #
b1111111111111000 #
b1111111111111100 #
b1111111111111110 #
b1111111111111111 #
b111111111111111 !
b11111111111111 !
b1111111111111 !
b111111111111 !
b11111111111 !
b1111111111 !
b111111111 !
b11111111 !
b1111111 !
b111111 !
b11111 !
b1111 !
b111 !
b11 !
b1 !
b0 !
0>
0G
0J
0P
0X
0_
0e
0i
0o
0v
0}
0$!
0'!
01!
03!
0=!
1=
1C
1K
1S
1W
1]
1c
1h
1p
1s
1{
1%!
1+!
1/!
16!
1<!
#15000
b1000000000000000 !
b1100000000000000 !
b1110000000000000 !
b1111000000000000 !
b1111100000000000 !
b1111110000000000 !
b1111111000000000 !
b1111111100000000 !
b1111111110000000 !
b1111111111000000 !
b1111111111100000 !
b1111111111110000 !
b1111111111111000 !
b1111111111111100 !
b1111111111111110 !
b1111111111111111 !
1>
1G
1J
1P
1X
1_
1e
1i
1o
1v
1}
1$!
1'!
11!
13!
1=!
1>!
18!
12!
1,!
1&!
1~
1x
1r
1l
1f
1`
1Z
1T
1N
1H
1B
15
14
13
12
11
10
1/
1.
1-
1,
1+
1*
1)
1(
1'
1&
#20000
b111111111111111 #
b11111111111111 #
b1111111111111 #
b111111111111 #
b11111111111 #
b1111111111 #
b111111111 #
b11111111 #
b1111111 #
b111111 #
b11111 #
b1111 #
b111 #
b11 #
b1 #
b0 #
b111111111111111 !
b11111111111111 !
b1111111111111 !
b111111111111 !
b11111111111 !
b1111111111 !
b111111111 !
b11111111 !
b1111111 !
b111111 !
b11111 !
b1111 !
b111 !
b11 !
b1 !
b0 !
0>
0G
0J
0P
0X
0_
0e
0i
0o
0v
0}
0$!
0'!
01!
03!
0=!
0=
0C
0K
0S
0W
0]
0c
0h
0p
0s
0{
0%!
0+!
0/!
06!
0<!
0>!
08!
02!
0,!
0&!
0~
0x
0r
0l
0f
0`
0Z
0T
0N
0H
0B
05
04
03
02
01
00
0/
0.
0-
0,
0+
0*
0)
0(
0'
0&
#25000
b1000000000000000 !
b1100000000000000 !
b1110000000000000 !
b1111000000000000 !
b1111100000000000 !
b1111110000000000 !
b1111111000000000 !
b1111111100000000 !
b1111111110000000 !
b1111111111000000 !
b1111111111100000 !
b1111111111110000 !
b1111111111111000 !
b1111111111111100 !
b1111111111111110 !
b1111111111111111 !
1>
1G
1J
1P
1X
1_
1e
1i
1o
1v
1}
1$!
1'!
11!
13!
1=!
#30000
b1000000000000000 #
b1100000000000000 #
b1110000000000000 #
b1111000000000000 #
b1111100000000000 #
b1111110000000000 #
b1111111000000000 #
b1111111100000000 #
b1111111110000000 #
b1111111111000000 #
b1111111111100000 #
b1111111111110000 #
b1111111111111000 #
b1111111111111100 #
b1111111111111110 #
b1111111111111111 #
b111111111111111 !
b11111111111111 !
b1111111111111 !
b111111111111 !
b11111111111 !
b1111111111 !
b111111111 !
b11111111 !
b1111111 !
b111111 !
b11111 !
b1111 !
b111 !
b11 !
b1 !
b0 !
0>
0G
0J
0P
0X
0_
0e
0i
0o
0v
0}
0$!
0'!
01!
03!
0=!
1=
1C
1K
1S
1W
1]
1c
1h
1p
1s
1{
1%!
1+!
1/!
16!
1<!
#35000
b1000000000000000 !
b1100000000000000 !
b1110000000000000 !
b1111000000000000 !
b1111100000000000 !
b1111110000000000 !
b1111111000000000 !
b1111111100000000 !
b1111111110000000 !
b1111111111000000 !
b1111111111100000 !
b1111111111110000 !
b1111111111111000 !
b1111111111111100 !
b1111111111111110 !
b1111111111111111 !
1>
1G
1J
1P
1X
1_
1e
1i
1o
1v
1}
1$!
1'!
11!
13!
1=!
1>!
18!
12!
1,!
1&!
1~
1x
1r
1l
1f
1`
1Z
1T
1N
1H
1B
15
14
13
12
11
10
1/
1.
1-
1,
1+
1*
1)
1(
1'
1&
#40000
b1000000000000000 "
b1100000000000000 "
b1110000000000000 "
b1111000000000000 "
b1111100000000000 "
b1111110000000000 "
b1111111000000000 "
b1111111100000000 "
b1111111110000000 "
b1111111111000000 "
b1111111111100000 "
b1111111111110000 "
b1111111111111000 "
b1111111111111100 "
b1111111111111110 "
b1111111111111111 "
b111111111111111 #
b11111111111111 #
b1111111111111 #
b111111111111 #
b11111111111 #
b1111111111 #
b111111111 #
b11111111 #
b1111111 #
b111111 #
b11111 #
b1111 #
b111 #
b11 #
b1 #
b0 #
b111111111111111 !
b11111111111111 !
b1111111111111 !
b111111111111 !
b11111111111 !
b1111111111 !
b111111111 !
b11111111 !
b1111111 !
b111111 !
b11111 !
b1111 !
b111 !
b11 !
b1 !
b0 !
0>
0G
0J
0P
0X
0_
0e
0i
0o
0v
0}
0$!
0'!
01!
03!
0=!
0=
0C
0K
0S
0W
0]
0c
0h
0p
0s
0{
0%!
0+!
0/!
06!
0<!
1?
1E
1M
1O
1V
1[
1d
1g
1q
1t
1|
1!!
1)!
1-!
17!
19!
0>!
08!
02!
0,!
0&!
0~
0x
0r
0l
0f
0`
0Z
0T
0N
0H
0B
05
04
03
02
01
00
0/
0.
0-
0,
0+
0*
0)
0(
0'
0&
#45000
b1000000000000000 !
b1100000000000000 !
b1110000000000000 !
b1111000000000000 !
b1111100000000000 !
b1111110000000000 !
b1111111000000000 !
b1111111100000000 !
b1111111110000000 !
b1111111111000000 !
b1111111111100000 !
b1111111111110000 !
b1111111111111000 !
b1111111111111100 !
b1111111111111110 !
b1111111111111111 !
1>
1G
1J
1P
1X
1_
1e
1i
1o
1v
1}
1$!
1'!
11!
13!
1=!
#50000
b1000000000000000 #
b1100000000000000 #
b1110000000000000 #
b1111000000000000 #
b1111100000000000 #
b1111110000000000 #
b1111111000000000 #
b1111111100000000 #
b1111111110000000 #
b1111111111000000 #
b1111111111100000 #
b1111111111110000 #
b1111111111111000 #
b1111111111111100 #
b1111111111111110 #
b1111111111111111 #
b111111111111111 !
b11111111111111 !
b1111111111111 !
b111111111111 !
b11111111111 !
b1111111111 !
b111111111 !
b11111111 !
b1111111 !
b111111 !
b11111 !
b1111 !
b111 !
b11 !
b1 !
b0 !
0>
0G
0J
0P
0X
0_
0e
0i
0o
0v
0}
0$!
0'!
01!
03!
0=!
1=
1C
1K
1S
1W
1]
1c
1h
1p
1s
1{
1%!
1+!
1/!
16!
1<!
1>!
18!
12!
1,!
1&!
1~
1x
1r
1l
1f
1`
1Z
1T
1N
1H
1B
15
14
13
12
11
10
1/
1.
1-
1,
1+
1*
1)
1(
1'
1&
#55000
b1000000000000000 !
b1100000000000000 !
b1110000000000000 !
b1111000000000000 !
b1111100000000000 !
b1111110000000000 !
b1111111000000000 !
b1111111100000000 !
b1111111110000000 !
b1111111111000000 !
b1111111111100000 !
b1111111111110000 !
b1111111111111000 !
b1111111111111100 !
b1111111111111110 !
b1111111111111111 !
1>
1G
1J
1P
1X
1_
1e
1i
1o
1v
1}
1$!
1'!
11!
13!
1=!
0>!
08!
02!
0,!
0&!
0~
0x
0r
0l
0f
0`
0Z
0T
0N
0H
0B
05
04
03
02
01
00
0/
0.
0-
0,
0+
0*
0)
0(
0'
0&
#60000
b111111111111111 #
b11111111111111 #
b1111111111111 #
b111111111111 #
b11111111111 #
b1111111111 #
b111111111 #
b11111111 #
b1111111 #
b111111 #
b11111 #
b1111 #
b111 #
b11 #
b1 #
b0 #
b111111111111111 !
b11111111111111 !
b1111111111111 !
b111111111111 !
b11111111111 !
b1111111111 !
b111111111 !
b11111111 !
b1111111 !
b111111 !
b11111 !
b1111 !
b111 !
b11 !
b1 !
b0 !
0>
0G
0J
0P
0X
0_
0e
0i
0o
0v
0}
0$!
0'!
01!
03!
0=!
0=
0C
0K
0S
0W
0]
0c
0h
0p
0s
0{
0%!
0+!
0/!
06!
0<!
#65000
b1000000000000000 !
b1100000000000000 !
b1110000000000000 !
b1111000000000000 !
b1111100000000000 !
b1111110000000000 !
b1111111000000000 !
b1111111100000000 !
b1111111110000000 !
b1111111111000000 !
b1111111111100000 !
b1111111111110000 !
b1111111111111000 !
b1111111111111100 !
b1111111111111110 !
b1111111111111111 !
1>
1G
1J
1P
1X
1_
1e
1i
1o
1v
1}
1$!
1'!
11!
13!
1=!
#70000
b1000000000000000 #
b1100000000000000 #
b1110000000000000 #
b1111000000000000 #
b1111100000000000 #
b1111110000000000 #
b1111111000000000 #
b1111111100000000 #
b1111111110000000 #
b1111111111000000 #
b1111111111100000 #
b1111111111110000 #
b1111111111111000 #
b1111111111111100 #
b1111111111111110 #
b1111111111111111 #
b111111111111111 !
b11111111111111 !
b1111111111111 !
b111111111111 !
b11111111111 !
b1111111111 !
b111111111 !
b11111111 !
b1111111 !
b111111 !
b11111 !
b1111 !
b111 !
b11 !
b1 !
b0 !
0>
0G
0J
0P
0X
0_
0e
0i
0o
0v
0}
0$!
0'!
01!
03!
0=!
1=
1C
1K
1S
1W
1]
1c
1h
1p
1s
1{
1%!
1+!
1/!
16!
1<!
1>!
18!
12!
1,!
1&!
1~
1x
1r
1l
1f
1`
1Z
1T
1N
1H
1B
15
14
13
12
11
10
1/
1.
1-
1,
1+
1*
1)
1(
1'
1&
#75000
b1000000000000000 !
b1100000000000000 !
b1110000000000000 !
b1111000000000000 !
b1111100000000000 !
b1111110000000000 !
b1111111000000000 !
b1111111100000000 !
b1111111110000000 !
b1111111111000000 !
b1111111111100000 !
b1111111111110000 !
b1111111111111000 !
b1111111111111100 !
b1111111111111110 !
b1111111111111111 !
1>
1G
1J
1P
1X
1_
1e
1i
1o
1v
1}
1$!
1'!
11!
13!
1=!
0>!
08!
02!
0,!
0&!
0~
0x
0r
0l
0f
0`
0Z
0T
0N
0H
0B
05
04
03
02
01
00
0/
0.
0-
0,
0+
0*
0)
0(
0'
0&
#80000
b1000000000000000 $
b1100000000000000 $
b1110000000000000 $
b1111000000000000 $
b1111100000000000 $
b1111110000000000 $
b1111111000000000 $
b1111111100000000 $
b1111111110000000 $
b1111111111000000 $
b1111111111100000 $
b1111111111110000 $
b1111111111111000 $
b1111111111111100 $
b1111111111111110 $
b1111111111111111 $
b111111111111111 "
b11111111111111 "
b1111111111111 "
b111111111111 "
b11111111111 "
b1111111111 "
b111111111 "
b11111111 "
b1111111 "
b111111 "
b11111 "
b1111 "
b111 "
b11 "
b1 "
b0 "
b111111111111111 #
b11111111111111 #
b1111111111111 #
b111111111111 #
b11111111111 #
b1111111111 #
b111111111 #
b11111111 #
b1111111 #
b111111 #
b11111 #
b1111 #
b111 #
b11 #
b1 #
b0 #
b111111111111111 !
b11111111111111 !
b1111111111111 !
b111111111111 !
b11111111111 !
b1111111111 !
b111111111 !
b11111111 !
b1111111 !
b111111 !
b11111 !
b1111 !
b111 !
b11 !
b1 !
b0 !
0>
0G
0J
0P
0X
0_
0e
0i
0o
0v
0}
0$!
0'!
01!
03!
0=!
0=
0C
0K
0S
0W
0]
0c
0h
0p
0s
0{
0%!
0+!
0/!
06!
0<!
0?
0E
0M
0O
0V
0[
0d
0g
0q
0t
0|
0!!
0)!
0-!
07!
09!
1A
1D
1L
1R
1U
1^
1b
1k
1n
1w
1y
1"!
1*!
10!
15!
1;!
#85000
b1000000000000000 !
b1100000000000000 !
b1110000000000000 !
b1111000000000000 !
b1111100000000000 !
b1111110000000000 !
b1111111000000000 !
b1111111100000000 !
b1111111110000000 !
b1111111111000000 !
b1111111111100000 !
b1111111111110000 !
b1111111111111000 !
b1111111111111100 !
b1111111111111110 !
b1111111111111111 !
1>
1G
1J
1P
1X
1_
1e
1i
1o
1v
1}
1$!
1'!
11!
13!
1=!
1>!
18!
12!
1,!
1&!
1~
1x
1r
1l
1f
1`
1Z
1T
1N
1H
1B
15
14
13
12
11
10
1/
1.
1-
1,
1+
1*
1)
1(
1'
1&
#90000
b1000000000000000 #
b1100000000000000 #
b1110000000000000 #
b1111000000000000 #
b1111100000000000 #
b1111110000000000 #
b1111111000000000 #
b1111111100000000 #
b1111111110000000 #
b1111111111000000 #
b1111111111100000 #
b1111111111110000 #
b1111111111111000 #
b1111111111111100 #
b1111111111111110 #
b1111111111111111 #
b111111111111111 !
b11111111111111 !
b1111111111111 !
b111111111111 !
b11111111111 !
b1111111111 !
b111111111 !
b11111111 !
b1111111 !
b111111 !
b11111 !
b1111 !
b111 !
b11 !
b1 !
b0 !
0>
0G
0J
0P
0X
0_
0e
0i
0o
0v
0}
0$!
0'!
01!
03!
0=!
1=
1C
1K
1S
1W
1]
1c
1h
1p
1s
1{
1%!
1+!
1/!
16!
1<!
0>!
08!
02!
0,!
0&!
0~
0x
0r
0l
0f
0`
0Z
0T
0N
0H
0B
05
04
03
02
01
00
0/
0.
0-
0,
0+
0*
0)
0(
0'
0&
#95000
b1000000000000000 !
b1100000000000000 !
b1110000000000000 !
b1111000000000000 !
b1111100000000000 !
b1111110000000000 !
b1111111000000000 !
b1111111100000000 !
b1111111110000000 !
b1111111111000000 !
b1111111111100000 !
b1111111111110000 !
b1111111111111000 !
b1111111111111100 !
b1111111111111110 !
b1111111111111111 !
1>
1G
1J
1P
1X
1_
1e
1i
1o
1v
1}
1$!
1'!
11!
13!
1=!
#100000
b111111111111111 #
b11111111111111 #
b1111111111111 #
b111111111111 #
b11111111111 #
b1111111111 #
b111111111 #
b11111111 #
b1111111 #
b111111 #
b11111 #
b1111 #
b111 #
b11 #
b1 #
b0 #
b111111111111111 !
b11111111111111 !
b1111111111111 !
b111111111111 !
b11111111111 !
b1111111111 !
b111111111 !
b11111111 !
b1111111 !
b111111 !
b11111 !
b1111 !
b111 !
b11 !
b1 !
b0 !
0>
0G
0J
0P
0X
0_
0e
0i
0o
0v
0}
0$!
0'!
01!
03!
0=!
0=
0C
0K
0S
0W
0]
0c
0h
0p
0s
0{
0%!
0+!
0/!
06!
0<!
#105000
b1000000000000000 !
b1100000000000000 !
b1110000000000000 !
b1111000000000000 !
b1111100000000000 !
b1111110000000000 !
b1111111000000000 !
b1111111100000000 !
b1111111110000000 !
b1111111111000000 !
b1111111111100000 !
b1111111111110000 !
b1111111111111000 !
b1111111111111100 !
b1111111111111110 !
b1111111111111111 !
1>
1G
1J
1P
1X
1_
1e
1i
1o
1v
1}
1$!
1'!
11!
13!
1=!
1>!
18!
12!
1,!
1&!
1~
1x
1r
1l
1f
1`
1Z
1T
1N
1H
1B
15
14
13
12
11
10
1/
1.
1-
1,
1+
1*
1)
1(
1'
1&
#110000
b1000000000000000 #
b1100000000000000 #
b1110000000000000 #
b1111000000000000 #
b1111100000000000 #
b1111110000000000 #
b1111111000000000 #
b1111111100000000 #
b1111111110000000 #
b1111111111000000 #
b1111111111100000 #
b1111111111110000 #
b1111111111111000 #
b1111111111111100 #
b1111111111111110 #
b1111111111111111 #
b111111111111111 !
b11111111111111 !
b1111111111111 !
b111111111111 !
b11111111111 !
b1111111111 !
b111111111 !
b11111111 !
b1111111 !
b111111 !
b11111 !
b1111 !
b111 !
b11 !
b1 !
b0 !
0>
0G
0J
0P
0X
0_
0e
0i
0o
0v
0}
0$!
0'!
01!
03!
0=!
1=
1C
1K
1S
1W
1]
1c
1h
1p
1s
1{
1%!
1+!
1/!
16!
1<!
0>!
08!
02!
0,!
0&!
0~
0x
0r
0l
0f
0`
0Z
0T
0N
0H
0B
05
04
03
02
01
00
0/
0.
0-
0,
0+
0*
0)
0(
0'
0&
#115000
b1000000000000000 !
b1100000000000000 !
b1110000000000000 !
b1111000000000000 !
b1111100000000000 !
b1111110000000000 !
b1111111000000000 !
b1111111100000000 !
b1111111110000000 !
b1111111111000000 !
b1111111111100000 !
b1111111111110000 !
b1111111111111000 !
b1111111111111100 !
b1111111111111110 !
b1111111111111111 !
1>
1G
1J
1P
1X
1_
1e
1i
1o
1v
1}
1$!
1'!
11!
13!
1=!
#120000
b1000000000000000 "
b1100000000000000 "
b1110000000000000 "
b1111000000000000 "
b1111100000000000 "
b1111110000000000 "
b1111111000000000 "
b1111111100000000 "
b1111111110000000 "
b1111111111000000 "
b1111111111100000 "
b1111111111110000 "
b1111111111111000 "
b1111111111111100 "
b1111111111111110 "
b1111111111111111 "
b111111111111111 #
b11111111111111 #
b1111111111111 #
b111111111111 #
b11111111111 #
b1111111111 #
b111111111 #
b11111111 #
b1111111 #
b111111 #
b11111 #
b1111 #
b111 #
b11 #
b1 #
b0 #
b111111111111111 !
b11111111111111 !
b1111111111111 !
b111111111111 !
b11111111111 !
b1111111111 !
b111111111 !
b11111111 !
b1111111 !
b111111 !
b11111 !
b1111 !
b111 !
b11 !
b1 !
b0 !
0>
0G
0J
0P
0X
0_
0e
0i
0o
0v
0}
0$!
0'!
01!
03!
0=!
0=
0C
0K
0S
0W
0]
0c
0h
0p
0s
0{
0%!
0+!
0/!
06!
0<!
1?
1E
1M
1O
1V
1[
1d
1g
1q
1t
1|
1!!
1)!
1-!
17!
19!
1>!
18!
12!
1,!
1&!
1~
1x
1r
1l
1f
1`
1Z
1T
1N
1H
1B
15
14
13
12
11
10
1/
1.
1-
1,
1+
1*
1)
1(
1'
1&
#125000
b1000000000000000 !
b1100000000000000 !
b1110000000000000 !
b1111000000000000 !
b1111100000000000 !
b1111110000000000 !
b1111111000000000 !
b1111111100000000 !
b1111111110000000 !
b1111111111000000 !
b1111111111100000 !
b1111111111110000 !
b1111111111111000 !
b1111111111111100 !
b1111111111111110 !
b1111111111111111 !
1>
1G
1J
1P
1X
1_
1e
1i
1o
1v
1}
1$!
1'!
11!
13!
1=!
0>!
08!
02!
0,!
0&!
0~
0x
0r
0l
0f
0`
0Z
0T
0N
0H
0B
05
04
03
02
01
00
0/
0.
0-
0,
0+
0*
0)
0(
0'
0&
#130000
b1000000000000000 #
b1100000000000000 #
b1110000000000000 #
b1111000000000000 #
b1111100000000000 #
b1111110000000000 #
b1111111000000000 #
b1111111100000000 #
b1111111110000000 #
b1111111111000000 #
b1111111111100000 #
b1111111111110000 #
b1111111111111000 #
b1111111111111100 #
b1111111111111110 #
b1111111111111111 #
b111111111111111 !
b11111111111111 !
b1111111111111 !
b111111111111 !
b11111111111 !
b1111111111 !
b111111111 !
b11111111 !
b1111111 !
b111111 !
b11111 !
b1111 !
b111 !
b11 !
b1 !
b0 !
0>
0G
0J
0P
0X
0_
0e
0i
0o
0v
0}
0$!
0'!
01!
03!
0=!
1=
1C
1K
1S
1W
1]
1c
1h
1p
1s
1{
1%!
1+!
1/!
16!
1<!
#135000
b1000000000000000 !
b1100000000000000 !
b1110000000000000 !
b1111000000000000 !
b1111100000000000 !
b1111110000000000 !
b1111111000000000 !
b1111111100000000 !
b1111111110000000 !
b1111111111000000 !
b1111111111100000 !
b1111111111110000 !
b1111111111111000 !
b1111111111111100 !
b1111111111111110 !
b1111111111111111 !
1>
1G
1J
1P
1X
1_
1e
1i
1o
1v
1}
1$!
1'!
11!
13!
1=!
#140000
b111111111111111 #
b11111111111111 #
b1111111111111 #
b111111111111 #
b11111111111 #
b1111111111 #
b111111111 #
b11111111 #
b1111111 #
b111111 #
b11111 #
b1111 #
b111 #
b11 #
b1 #
b0 #
b111111111111111 !
b11111111111111 !
b1111111111111 !
b111111111111 !
b11111111111 !
b1111111111 !
b111111111 !
b11111111 !
b1111111 !
b111111 !
b11111 !
b1111 !
b111 !
b11 !
b1 !
b0 !
0>
0G
0J
0P
0X
0_
0e
0i
0o
0v
0}
0$!
0'!
01!
03!
0=!
0=
0C
0K
0S
0W
0]
0c
0h
0p
0s
0{
0%!
0+!
0/!
06!
0<!
1>!
18!
12!
1,!
1&!
1~
1x
1r
1l
1f
1`
1Z
1T
1N
1H
1B
15
14
13
12
11
10
1/
1.
1-
1,
1+
1*
1)
1(
1'
1&
#145000
b1000000000000000 !
b1100000000000000 !
b1110000000000000 !
b1111000000000000 !
b1111100000000000 !
b1111110000000000 !
b1111111000000000 !
b1111111100000000 !
b1111111110000000 !
b1111111111000000 !
b1111111111100000 !
b1111111111110000 !
b1111111111111000 !
b1111111111111100 !
b1111111111111110 !
b1111111111111111 !
1>
1G
1J
1P
1X
1_
1e
1i
1o
1v
1}
1$!
1'!
11!
13!
1=!
0>!
08!
02!
0,!
0&!
0~
0x
0r
0l
0f
0`
0Z
0T
0N
0H
0B
05
04
03
02
01
00
0/
0.
0-
0,
0+
0*
0)
0(
0'
0&
#150000
b1000000000000000 #
b1100000000000000 #
b1110000000000000 #
b1111000000000000 #
b1111100000000000 #
b1111110000000000 #
b1111111000000000 #
b1111111100000000 #
b1111111110000000 #
b1111111111000000 #
b1111111111100000 #
b1111111111110000 #
b1111111111111000 #
b1111111111111100 #
b1111111111111110 #
b1111111111111111 #
b111111111111111 !
b11111111111111 !
b1111111111111 !
b111111111111 !
b11111111111 !
b1111111111 !
b111111111 !
b11111111 !
b1111111 !
b111111 !
b11111 !
b1111 !
b111 !
b11 !
b1 !
b0 !
0>
0G
0J
0P
0X
0_
0e
0i
0o
0v
0}
0$!
0'!
01!
03!
0=!
1=
1C
1K
1S
1W
1]
1c
1h
1p
1s
1{
1%!
1+!
1/!
16!
1<!
#155000
b1000000000000000 !
b1100000000000000 !
b1110000000000000 !
b1111000000000000 !
b1111100000000000 !
b1111110000000000 !
b1111111000000000 !
b1111111100000000 !
b1111111110000000 !
b1111111111000000 !
b1111111111100000 !
b1111111111110000 !
b1111111111111000 !
b1111111111111100 !
b1111111111111110 !
b1111111111111111 !
1>
1G
1J
1P
1X
1_
1e
1i
1o
1v
1}
1$!
1'!
11!
13!
1=!
#160000
b1000000000000000 %
b1100000000000000 %
b1110000000000000 %
b1111000000000000 %
b1111100000000000 %
b1111110000000000 %
b1111111000000000 %
b1111111100000000 %
b1111111110000000 %
b1111111111000000 %
b1111111111100000 %
b1111111111110000 %
b1111111111111000 %
b1111111111111100 %
b1111111111111110 %
b1111111111111111 %
b111111111111111 $
b11111111111111 $
b1111111111111 $
b111111111111 $
b11111111111 $
b1111111111 $
b111111111 $
b11111111 $
b1111111 $
b111111 $
b11111 $
b1111 $
b111 $
b11 $
b1 $
b0 $
b111111111111111 "
b11111111111111 "
b1111111111111 "
b111111111111 "
b11111111111 "
b1111111111 "
b111111111 "
b11111111 "
b1111111 "
b111111 "
b11111 "
b1111 "
b111 "
b11 "
b1 "
b0 "
b111111111111111 #
b11111111111111 #
b1111111111111 #
b111111111111 #
b11111111111 #
b1111111111 #
b111111111 #
b11111111 #
b1111111 #
b111111 #
b11111 #
b1111 #
b111 #
b11 #
b1 #
b0 #
b111111111111111 !
b11111111111111 !
b1111111111111 !
b111111111111 !
b11111111111 !
b1111111111 !
b111111111 !
b11111111 !
b1111111 !
b111111 !
b11111 !
b1111 !
b111 !
b11 !
b1 !
b0 !
0>
0G
0J
0P
0X
0_
0e
0i
0o
0v
0}
0$!
0'!
01!
03!
0=!
0=
0C
0K
0S
0W
0]
0c
0h
0p
0s
0{
0%!
0+!
0/!
06!
0<!
0?
0E
0M
0O
0V
0[
0d
0g
0q
0t
0|
0!!
0)!
0-!
07!
09!
0A
0D
0L
0R
0U
0^
0b
0k
0n
0w
0y
0"!
0*!
00!
05!
0;!
1@
1F
1I
1Q
1Y
1\
1a
1j
1m
1u
1z
1#!
1(!
1.!
14!
1:!
1>!
18!
12!
1,!
1&!
1~
1x
1r
1l
1f
1`
1Z
1T
1N
1H
1B
15
14
13
12
11
10
1/
1.
1-
1,
1+
1*
1)
1(
1'
1&
